value,variable,FIPS,Date,units
71.1,Health_Insurance_Coverage_Percent_With_Private_Coverage,1003,2011,percent
61.7,Health_Insurance_Coverage_Percent_With_Private_Coverage,1015,2011,percent
65.2,Health_Insurance_Coverage_Percent_With_Private_Coverage,1043,2011,percent
61.6,Health_Insurance_Coverage_Percent_With_Private_Coverage,1049,2011,percent
75.8,Health_Insurance_Coverage_Percent_With_Private_Coverage,1051,2011,percent
63.1,Health_Insurance_Coverage_Percent_With_Private_Coverage,1055,2011,percent
64.4,Health_Insurance_Coverage_Percent_With_Private_Coverage,1069,2011,percent
66.1,Health_Insurance_Coverage_Percent_With_Private_Coverage,1073,2011,percent
69.7,Health_Insurance_Coverage_Percent_With_Private_Coverage,1077,2011,percent
73.6,Health_Insurance_Coverage_Percent_With_Private_Coverage,1081,2011,percent
71.6,Health_Insurance_Coverage_Percent_With_Private_Coverage,1083,2011,percent
72.8,Health_Insurance_Coverage_Percent_With_Private_Coverage,1089,2011,percent
58,Health_Insurance_Coverage_Percent_With_Private_Coverage,1095,2011,percent
58.6,Health_Insurance_Coverage_Percent_With_Private_Coverage,1097,2011,percent
63.1,Health_Insurance_Coverage_Percent_With_Private_Coverage,1101,2011,percent
63,Health_Insurance_Coverage_Percent_With_Private_Coverage,1103,2011,percent
65.5,Health_Insurance_Coverage_Percent_With_Private_Coverage,1115,2011,percent
80.6,Health_Insurance_Coverage_Percent_With_Private_Coverage,1117,2011,percent
58.1,Health_Insurance_Coverage_Percent_With_Private_Coverage,1121,2011,percent
71.8,Health_Insurance_Coverage_Percent_With_Private_Coverage,1125,2011,percent
58.7,Health_Insurance_Coverage_Percent_With_Private_Coverage,1127,2011,percent
67.8,Health_Insurance_Coverage_Percent_With_Private_Coverage,2020,2011,percent
70.2,Health_Insurance_Coverage_Percent_With_Private_Coverage,2090,2011,percent
61.8,Health_Insurance_Coverage_Percent_With_Private_Coverage,2170,2011,percent
29,Health_Insurance_Coverage_Percent_With_Private_Coverage,4001,2011,percent
58.4,Health_Insurance_Coverage_Percent_With_Private_Coverage,4003,2011,percent
55.5,Health_Insurance_Coverage_Percent_With_Private_Coverage,4005,2011,percent
61.6,Health_Insurance_Coverage_Percent_With_Private_Coverage,4013,2011,percent
51,Health_Insurance_Coverage_Percent_With_Private_Coverage,4015,2011,percent
38.8,Health_Insurance_Coverage_Percent_With_Private_Coverage,4017,2011,percent
60.2,Health_Insurance_Coverage_Percent_With_Private_Coverage,4019,2011,percent
59.2,Health_Insurance_Coverage_Percent_With_Private_Coverage,4021,2011,percent
58.3,Health_Insurance_Coverage_Percent_With_Private_Coverage,4025,2011,percent
49.6,Health_Insurance_Coverage_Percent_With_Private_Coverage,4027,2011,percent
67.9,Health_Insurance_Coverage_Percent_With_Private_Coverage,5007,2011,percent
60,Health_Insurance_Coverage_Percent_With_Private_Coverage,5031,2011,percent
71.2,Health_Insurance_Coverage_Percent_With_Private_Coverage,5045,2011,percent
53.4,Health_Insurance_Coverage_Percent_With_Private_Coverage,5051,2011,percent
53.7,Health_Insurance_Coverage_Percent_With_Private_Coverage,5069,2011,percent
66.4,Health_Insurance_Coverage_Percent_With_Private_Coverage,5085,2011,percent
64,Health_Insurance_Coverage_Percent_With_Private_Coverage,5119,2011,percent
70.7,Health_Insurance_Coverage_Percent_With_Private_Coverage,5125,2011,percent
57.5,Health_Insurance_Coverage_Percent_With_Private_Coverage,5131,2011,percent
62.5,Health_Insurance_Coverage_Percent_With_Private_Coverage,5143,2011,percent
63.7,Health_Insurance_Coverage_Percent_With_Private_Coverage,5145,2011,percent
68.9,Health_Insurance_Coverage_Percent_With_Private_Coverage,6001,2011,percent
54.5,Health_Insurance_Coverage_Percent_With_Private_Coverage,6007,2011,percent
72.9,Health_Insurance_Coverage_Percent_With_Private_Coverage,6013,2011,percent
74,Health_Insurance_Coverage_Percent_With_Private_Coverage,6017,2011,percent
48.3,Health_Insurance_Coverage_Percent_With_Private_Coverage,6019,2011,percent
57.4,Health_Insurance_Coverage_Percent_With_Private_Coverage,6023,2011,percent
45.6,Health_Insurance_Coverage_Percent_With_Private_Coverage,6025,2011,percent
49.1,Health_Insurance_Coverage_Percent_With_Private_Coverage,6029,2011,percent
57.9,Health_Insurance_Coverage_Percent_With_Private_Coverage,6031,2011,percent
51.7,Health_Insurance_Coverage_Percent_With_Private_Coverage,6033,2011,percent
53.5,Health_Insurance_Coverage_Percent_With_Private_Coverage,6037,2011,percent
43.4,Health_Insurance_Coverage_Percent_With_Private_Coverage,6039,2011,percent
76.9,Health_Insurance_Coverage_Percent_With_Private_Coverage,6041,2011,percent
48.6,Health_Insurance_Coverage_Percent_With_Private_Coverage,6045,2011,percent
45.9,Health_Insurance_Coverage_Percent_With_Private_Coverage,6047,2011,percent
54.6,Health_Insurance_Coverage_Percent_With_Private_Coverage,6053,2011,percent
71.1,Health_Insurance_Coverage_Percent_With_Private_Coverage,6055,2011,percent
67.3,Health_Insurance_Coverage_Percent_With_Private_Coverage,6057,2011,percent
64.6,Health_Insurance_Coverage_Percent_With_Private_Coverage,6059,2011,percent
79.5,Health_Insurance_Coverage_Percent_With_Private_Coverage,6061,2011,percent
56.2,Health_Insurance_Coverage_Percent_With_Private_Coverage,6065,2011,percent
63.1,Health_Insurance_Coverage_Percent_With_Private_Coverage,6067,2011,percent
53.9,Health_Insurance_Coverage_Percent_With_Private_Coverage,6071,2011,percent
65.5,Health_Insurance_Coverage_Percent_With_Private_Coverage,6073,2011,percent
69.6,Health_Insurance_Coverage_Percent_With_Private_Coverage,6075,2011,percent
56.9,Health_Insurance_Coverage_Percent_With_Private_Coverage,6077,2011,percent
67.2,Health_Insurance_Coverage_Percent_With_Private_Coverage,6079,2011,percent
75,Health_Insurance_Coverage_Percent_With_Private_Coverage,6081,2011,percent
61.6,Health_Insurance_Coverage_Percent_With_Private_Coverage,6083,2011,percent
72.6,Health_Insurance_Coverage_Percent_With_Private_Coverage,6085,2011,percent
67.6,Health_Insurance_Coverage_Percent_With_Private_Coverage,6087,2011,percent
54.6,Health_Insurance_Coverage_Percent_With_Private_Coverage,6089,2011,percent
70.2,Health_Insurance_Coverage_Percent_With_Private_Coverage,6095,2011,percent
68.7,Health_Insurance_Coverage_Percent_With_Private_Coverage,6097,2011,percent
54.4,Health_Insurance_Coverage_Percent_With_Private_Coverage,6099,2011,percent
52.7,Health_Insurance_Coverage_Percent_With_Private_Coverage,6101,2011,percent
43,Health_Insurance_Coverage_Percent_With_Private_Coverage,6107,2011,percent
66,Health_Insurance_Coverage_Percent_With_Private_Coverage,6111,2011,percent
68.4,Health_Insurance_Coverage_Percent_With_Private_Coverage,6113,2011,percent
54.3,Health_Insurance_Coverage_Percent_With_Private_Coverage,6115,2011,percent
59.7,Health_Insurance_Coverage_Percent_With_Private_Coverage,8001,2011,percent
70,Health_Insurance_Coverage_Percent_With_Private_Coverage,8005,2011,percent
79.1,Health_Insurance_Coverage_Percent_With_Private_Coverage,8013,2011,percent
61.3,Health_Insurance_Coverage_Percent_With_Private_Coverage,8031,2011,percent
86.9,Health_Insurance_Coverage_Percent_With_Private_Coverage,8035,2011,percent
71.7,Health_Insurance_Coverage_Percent_With_Private_Coverage,8041,2011,percent
76.9,Health_Insurance_Coverage_Percent_With_Private_Coverage,8059,2011,percent
74.4,Health_Insurance_Coverage_Percent_With_Private_Coverage,8069,2011,percent
65.1,Health_Insurance_Coverage_Percent_With_Private_Coverage,8077,2011,percent
62,Health_Insurance_Coverage_Percent_With_Private_Coverage,8101,2011,percent
69.1,Health_Insurance_Coverage_Percent_With_Private_Coverage,8123,2011,percent
73,Health_Insurance_Coverage_Percent_With_Private_Coverage,9001,2011,percent
71.5,Health_Insurance_Coverage_Percent_With_Private_Coverage,9003,2011,percent
77.1,Health_Insurance_Coverage_Percent_With_Private_Coverage,9005,2011,percent
79.1,Health_Insurance_Coverage_Percent_With_Private_Coverage,9007,2011,percent
70.3,Health_Insurance_Coverage_Percent_With_Private_Coverage,9009,2011,percent
76.6,Health_Insurance_Coverage_Percent_With_Private_Coverage,9011,2011,percent
83.5,Health_Insurance_Coverage_Percent_With_Private_Coverage,9013,2011,percent
69.6,Health_Insurance_Coverage_Percent_With_Private_Coverage,9015,2011,percent
69.6,Health_Insurance_Coverage_Percent_With_Private_Coverage,10001,2011,percent
73,Health_Insurance_Coverage_Percent_With_Private_Coverage,10003,2011,percent
63.7,Health_Insurance_Coverage_Percent_With_Private_Coverage,10005,2011,percent
70.7,Health_Insurance_Coverage_Percent_With_Private_Coverage,11001,2011,percent
71,Health_Insurance_Coverage_Percent_With_Private_Coverage,12001,2011,percent
62.3,Health_Insurance_Coverage_Percent_With_Private_Coverage,12005,2011,percent
61.9,Health_Insurance_Coverage_Percent_With_Private_Coverage,12009,2011,percent
57.4,Health_Insurance_Coverage_Percent_With_Private_Coverage,12011,2011,percent
62.6,Health_Insurance_Coverage_Percent_With_Private_Coverage,12015,2011,percent
57.3,Health_Insurance_Coverage_Percent_With_Private_Coverage,12017,2011,percent
69.3,Health_Insurance_Coverage_Percent_With_Private_Coverage,12019,2011,percent
56.3,Health_Insurance_Coverage_Percent_With_Private_Coverage,12021,2011,percent
50.5,Health_Insurance_Coverage_Percent_With_Private_Coverage,12023,2011,percent
62.9,Health_Insurance_Coverage_Percent_With_Private_Coverage,12031,2011,percent
61,Health_Insurance_Coverage_Percent_With_Private_Coverage,12033,2011,percent
63.5,Health_Insurance_Coverage_Percent_With_Private_Coverage,12035,2011,percent
58.7,Health_Insurance_Coverage_Percent_With_Private_Coverage,12053,2011,percent
55.7,Health_Insurance_Coverage_Percent_With_Private_Coverage,12055,2011,percent
60.1,Health_Insurance_Coverage_Percent_With_Private_Coverage,12057,2011,percent
64.9,Health_Insurance_Coverage_Percent_With_Private_Coverage,12061,2011,percent
63.2,Health_Insurance_Coverage_Percent_With_Private_Coverage,12069,2011,percent
56.4,Health_Insurance_Coverage_Percent_With_Private_Coverage,12071,2011,percent
71.7,Health_Insurance_Coverage_Percent_With_Private_Coverage,12073,2011,percent
58.5,Health_Insurance_Coverage_Percent_With_Private_Coverage,12081,2011,percent
53.7,Health_Insurance_Coverage_Percent_With_Private_Coverage,12083,2011,percent
66.8,Health_Insurance_Coverage_Percent_With_Private_Coverage,12085,2011,percent
43.4,Health_Insurance_Coverage_Percent_With_Private_Coverage,12086,2011,percent
51.1,Health_Insurance_Coverage_Percent_With_Private_Coverage,12087,2011,percent
65.2,Health_Insurance_Coverage_Percent_With_Private_Coverage,12089,2011,percent
69,Health_Insurance_Coverage_Percent_With_Private_Coverage,12091,2011,percent
58.9,Health_Insurance_Coverage_Percent_With_Private_Coverage,12095,2011,percent
52.5,Health_Insurance_Coverage_Percent_With_Private_Coverage,12097,2011,percent
59.1,Health_Insurance_Coverage_Percent_With_Private_Coverage,12099,2011,percent
62.2,Health_Insurance_Coverage_Percent_With_Private_Coverage,12101,2011,percent
59.2,Health_Insurance_Coverage_Percent_With_Private_Coverage,12103,2011,percent
55.6,Health_Insurance_Coverage_Percent_With_Private_Coverage,12105,2011,percent
46.5,Health_Insurance_Coverage_Percent_With_Private_Coverage,12107,2011,percent
76.5,Health_Insurance_Coverage_Percent_With_Private_Coverage,12109,2011,percent
51.8,Health_Insurance_Coverage_Percent_With_Private_Coverage,12111,2011,percent
69.1,Health_Insurance_Coverage_Percent_With_Private_Coverage,12113,2011,percent
64.4,Health_Insurance_Coverage_Percent_With_Private_Coverage,12115,2011,percent
65.2,Health_Insurance_Coverage_Percent_With_Private_Coverage,12117,2011,percent
67.1,Health_Insurance_Coverage_Percent_With_Private_Coverage,12119,2011,percent
60.5,Health_Insurance_Coverage_Percent_With_Private_Coverage,12127,2011,percent
59.4,Health_Insurance_Coverage_Percent_With_Private_Coverage,13013,2011,percent
53.2,Health_Insurance_Coverage_Percent_With_Private_Coverage,13015,2011,percent
57.5,Health_Insurance_Coverage_Percent_With_Private_Coverage,13021,2011,percent
65.5,Health_Insurance_Coverage_Percent_With_Private_Coverage,13031,2011,percent
60.7,Health_Insurance_Coverage_Percent_With_Private_Coverage,13045,2011,percent
61.6,Health_Insurance_Coverage_Percent_With_Private_Coverage,13051,2011,percent
75.8,Health_Insurance_Coverage_Percent_With_Private_Coverage,13057,2011,percent
67.7,Health_Insurance_Coverage_Percent_With_Private_Coverage,13059,2011,percent
50.1,Health_Insurance_Coverage_Percent_With_Private_Coverage,13063,2011,percent
69.5,Health_Insurance_Coverage_Percent_With_Private_Coverage,13067,2011,percent
78.7,Health_Insurance_Coverage_Percent_With_Private_Coverage,13073,2011,percent
67.9,Health_Insurance_Coverage_Percent_With_Private_Coverage,13077,2011,percent
59.1,Health_Insurance_Coverage_Percent_With_Private_Coverage,13089,2011,percent
48.4,Health_Insurance_Coverage_Percent_With_Private_Coverage,13095,2011,percent
67.5,Health_Insurance_Coverage_Percent_With_Private_Coverage,13097,2011,percent
78.6,Health_Insurance_Coverage_Percent_With_Private_Coverage,13113,2011,percent
57.7,Health_Insurance_Coverage_Percent_With_Private_Coverage,13115,2011,percent
71.6,Health_Insurance_Coverage_Percent_With_Private_Coverage,13117,2011,percent
63.8,Health_Insurance_Coverage_Percent_With_Private_Coverage,13121,2011,percent
54.3,Health_Insurance_Coverage_Percent_With_Private_Coverage,13127,2011,percent
62.5,Health_Insurance_Coverage_Percent_With_Private_Coverage,13135,2011,percent
63,Health_Insurance_Coverage_Percent_With_Private_Coverage,13139,2011,percent
72.6,Health_Insurance_Coverage_Percent_With_Private_Coverage,13151,2011,percent
70.4,Health_Insurance_Coverage_Percent_With_Private_Coverage,13153,2011,percent
75.3,Health_Insurance_Coverage_Percent_With_Private_Coverage,13179,2011,percent
56.3,Health_Insurance_Coverage_Percent_With_Private_Coverage,13185,2011,percent
63.2,Health_Insurance_Coverage_Percent_With_Private_Coverage,13215,2011,percent
60.7,Health_Insurance_Coverage_Percent_With_Private_Coverage,13217,2011,percent
72,Health_Insurance_Coverage_Percent_With_Private_Coverage,13223,2011,percent
57,Health_Insurance_Coverage_Percent_With_Private_Coverage,13245,2011,percent
59.7,Health_Insurance_Coverage_Percent_With_Private_Coverage,13247,2011,percent
55.6,Health_Insurance_Coverage_Percent_With_Private_Coverage,13285,2011,percent
62.1,Health_Insurance_Coverage_Percent_With_Private_Coverage,13295,2011,percent
69.1,Health_Insurance_Coverage_Percent_With_Private_Coverage,13297,2011,percent
53.1,Health_Insurance_Coverage_Percent_With_Private_Coverage,13313,2011,percent
63.4,Health_Insurance_Coverage_Percent_With_Private_Coverage,15001,2011,percent
79,Health_Insurance_Coverage_Percent_With_Private_Coverage,15003,2011,percent
71,Health_Insurance_Coverage_Percent_With_Private_Coverage,15007,2011,percent
72.8,Health_Insurance_Coverage_Percent_With_Private_Coverage,15009,2011,percent
75.3,Health_Insurance_Coverage_Percent_With_Private_Coverage,16001,2011,percent
68.9,Health_Insurance_Coverage_Percent_With_Private_Coverage,16005,2011,percent
71,Health_Insurance_Coverage_Percent_With_Private_Coverage,16019,2011,percent
55.2,Health_Insurance_Coverage_Percent_With_Private_Coverage,16027,2011,percent
66,Health_Insurance_Coverage_Percent_With_Private_Coverage,16055,2011,percent
62.2,Health_Insurance_Coverage_Percent_With_Private_Coverage,16083,2011,percent
66.8,Health_Insurance_Coverage_Percent_With_Private_Coverage,17001,2011,percent
76.2,Health_Insurance_Coverage_Percent_With_Private_Coverage,17019,2011,percent
59.7,Health_Insurance_Coverage_Percent_With_Private_Coverage,17031,2011,percent
71.7,Health_Insurance_Coverage_Percent_With_Private_Coverage,17037,2011,percent
78.1,Health_Insurance_Coverage_Percent_With_Private_Coverage,17043,2011,percent
68.2,Health_Insurance_Coverage_Percent_With_Private_Coverage,17089,2011,percent
65.6,Health_Insurance_Coverage_Percent_With_Private_Coverage,17091,2011,percent
81.7,Health_Insurance_Coverage_Percent_With_Private_Coverage,17093,2011,percent
72.3,Health_Insurance_Coverage_Percent_With_Private_Coverage,17097,2011,percent
71.2,Health_Insurance_Coverage_Percent_With_Private_Coverage,17099,2011,percent
77.5,Health_Insurance_Coverage_Percent_With_Private_Coverage,17111,2011,percent
77.3,Health_Insurance_Coverage_Percent_With_Private_Coverage,17113,2011,percent
66.2,Health_Insurance_Coverage_Percent_With_Private_Coverage,17115,2011,percent
70.5,Health_Insurance_Coverage_Percent_With_Private_Coverage,17119,2011,percent
66.1,Health_Insurance_Coverage_Percent_With_Private_Coverage,17143,2011,percent
70.7,Health_Insurance_Coverage_Percent_With_Private_Coverage,17161,2011,percent
65,Health_Insurance_Coverage_Percent_With_Private_Coverage,17163,2011,percent
69.9,Health_Insurance_Coverage_Percent_With_Private_Coverage,17167,2011,percent
74.8,Health_Insurance_Coverage_Percent_With_Private_Coverage,17179,2011,percent
65.7,Health_Insurance_Coverage_Percent_With_Private_Coverage,17183,2011,percent
77.6,Health_Insurance_Coverage_Percent_With_Private_Coverage,17197,2011,percent
67.2,Health_Insurance_Coverage_Percent_With_Private_Coverage,17199,2011,percent
62.5,Health_Insurance_Coverage_Percent_With_Private_Coverage,17201,2011,percent
66.7,Health_Insurance_Coverage_Percent_With_Private_Coverage,18003,2011,percent
76.5,Health_Insurance_Coverage_Percent_With_Private_Coverage,18005,2011,percent
71.2,Health_Insurance_Coverage_Percent_With_Private_Coverage,18019,2011,percent
69.6,Health_Insurance_Coverage_Percent_With_Private_Coverage,18035,2011,percent
61.2,Health_Insurance_Coverage_Percent_With_Private_Coverage,18039,2011,percent
70.4,Health_Insurance_Coverage_Percent_With_Private_Coverage,18043,2011,percent
62.5,Health_Insurance_Coverage_Percent_With_Private_Coverage,18053,2011,percent
87.7,Health_Insurance_Coverage_Percent_With_Private_Coverage,18057,2011,percent
78.5,Health_Insurance_Coverage_Percent_With_Private_Coverage,18059,2011,percent
85.3,Health_Insurance_Coverage_Percent_With_Private_Coverage,18063,2011,percent
67.3,Health_Insurance_Coverage_Percent_With_Private_Coverage,18067,2011,percent
77.9,Health_Insurance_Coverage_Percent_With_Private_Coverage,18081,2011,percent
69.5,Health_Insurance_Coverage_Percent_With_Private_Coverage,18085,2011,percent
62.1,Health_Insurance_Coverage_Percent_With_Private_Coverage,18089,2011,percent
65.4,Health_Insurance_Coverage_Percent_With_Private_Coverage,18091,2011,percent
63.6,Health_Insurance_Coverage_Percent_With_Private_Coverage,18095,2011,percent
59,Health_Insurance_Coverage_Percent_With_Private_Coverage,18097,2011,percent
77.8,Health_Insurance_Coverage_Percent_With_Private_Coverage,18105,2011,percent
72.2,Health_Insurance_Coverage_Percent_With_Private_Coverage,18109,2011,percent
76.1,Health_Insurance_Coverage_Percent_With_Private_Coverage,18127,2011,percent
66.1,Health_Insurance_Coverage_Percent_With_Private_Coverage,18141,2011,percent
73.6,Health_Insurance_Coverage_Percent_With_Private_Coverage,18157,2011,percent
69,Health_Insurance_Coverage_Percent_With_Private_Coverage,18163,2011,percent
62.8,Health_Insurance_Coverage_Percent_With_Private_Coverage,18167,2011,percent
61.1,Health_Insurance_Coverage_Percent_With_Private_Coverage,18177,2011,percent
74.4,Health_Insurance_Coverage_Percent_With_Private_Coverage,19013,2011,percent
88.1,Health_Insurance_Coverage_Percent_With_Private_Coverage,19049,2011,percent
79.4,Health_Insurance_Coverage_Percent_With_Private_Coverage,19061,2011,percent
79.2,Health_Insurance_Coverage_Percent_With_Private_Coverage,19103,2011,percent
78.3,Health_Insurance_Coverage_Percent_With_Private_Coverage,19113,2011,percent
75.8,Health_Insurance_Coverage_Percent_With_Private_Coverage,19153,2011,percent
67.7,Health_Insurance_Coverage_Percent_With_Private_Coverage,19155,2011,percent
74.4,Health_Insurance_Coverage_Percent_With_Private_Coverage,19163,2011,percent
87.1,Health_Insurance_Coverage_Percent_With_Private_Coverage,19169,2011,percent
66,Health_Insurance_Coverage_Percent_With_Private_Coverage,19193,2011,percent
77.5,Health_Insurance_Coverage_Percent_With_Private_Coverage,20015,2011,percent
79.4,Health_Insurance_Coverage_Percent_With_Private_Coverage,20045,2011,percent
83.3,Health_Insurance_Coverage_Percent_With_Private_Coverage,20091,2011,percent
81,Health_Insurance_Coverage_Percent_With_Private_Coverage,20103,2011,percent
87.6,Health_Insurance_Coverage_Percent_With_Private_Coverage,20161,2011,percent
69.3,Health_Insurance_Coverage_Percent_With_Private_Coverage,20173,2011,percent
70.9,Health_Insurance_Coverage_Percent_With_Private_Coverage,20177,2011,percent
49.9,Health_Insurance_Coverage_Percent_With_Private_Coverage,20209,2011,percent
80.5,Health_Insurance_Coverage_Percent_With_Private_Coverage,21015,2011,percent
77.7,Health_Insurance_Coverage_Percent_With_Private_Coverage,21029,2011,percent
75.9,Health_Insurance_Coverage_Percent_With_Private_Coverage,21037,2011,percent
61,Health_Insurance_Coverage_Percent_With_Private_Coverage,21047,2011,percent
69.5,Health_Insurance_Coverage_Percent_With_Private_Coverage,21059,2011,percent
71.1,Health_Insurance_Coverage_Percent_With_Private_Coverage,21067,2011,percent
66.6,Health_Insurance_Coverage_Percent_With_Private_Coverage,21093,2011,percent
67.7,Health_Insurance_Coverage_Percent_With_Private_Coverage,21111,2011,percent
67.1,Health_Insurance_Coverage_Percent_With_Private_Coverage,21117,2011,percent
69,Health_Insurance_Coverage_Percent_With_Private_Coverage,21145,2011,percent
65.9,Health_Insurance_Coverage_Percent_With_Private_Coverage,21151,2011,percent
51.5,Health_Insurance_Coverage_Percent_With_Private_Coverage,21195,2011,percent
69.5,Health_Insurance_Coverage_Percent_With_Private_Coverage,21227,2011,percent
68,Health_Insurance_Coverage_Percent_With_Private_Coverage,22005,2011,percent
66.7,Health_Insurance_Coverage_Percent_With_Private_Coverage,22015,2011,percent
55.2,Health_Insurance_Coverage_Percent_With_Private_Coverage,22017,2011,percent
59.9,Health_Insurance_Coverage_Percent_With_Private_Coverage,22019,2011,percent
65.7,Health_Insurance_Coverage_Percent_With_Private_Coverage,22033,2011,percent
58.4,Health_Insurance_Coverage_Percent_With_Private_Coverage,22045,2011,percent
56.2,Health_Insurance_Coverage_Percent_With_Private_Coverage,22051,2011,percent
66.6,Health_Insurance_Coverage_Percent_With_Private_Coverage,22055,2011,percent
62.8,Health_Insurance_Coverage_Percent_With_Private_Coverage,22057,2011,percent
63.7,Health_Insurance_Coverage_Percent_With_Private_Coverage,22063,2011,percent
51.1,Health_Insurance_Coverage_Percent_With_Private_Coverage,22071,2011,percent
50.4,Health_Insurance_Coverage_Percent_With_Private_Coverage,22073,2011,percent
48.9,Health_Insurance_Coverage_Percent_With_Private_Coverage,22079,2011,percent
55.6,Health_Insurance_Coverage_Percent_With_Private_Coverage,22097,2011,percent
70.1,Health_Insurance_Coverage_Percent_With_Private_Coverage,22103,2011,percent
55.6,Health_Insurance_Coverage_Percent_With_Private_Coverage,22105,2011,percent
57.5,Health_Insurance_Coverage_Percent_With_Private_Coverage,22109,2011,percent
64.1,Health_Insurance_Coverage_Percent_With_Private_Coverage,23001,2011,percent
55.8,Health_Insurance_Coverage_Percent_With_Private_Coverage,23003,2011,percent
73.5,Health_Insurance_Coverage_Percent_With_Private_Coverage,23005,2011,percent
69.2,Health_Insurance_Coverage_Percent_With_Private_Coverage,23011,2011,percent
61.1,Health_Insurance_Coverage_Percent_With_Private_Coverage,23019,2011,percent
72.2,Health_Insurance_Coverage_Percent_With_Private_Coverage,23031,2011,percent
64.5,Health_Insurance_Coverage_Percent_With_Private_Coverage,24001,2011,percent
83.1,Health_Insurance_Coverage_Percent_With_Private_Coverage,24003,2011,percent
75.8,Health_Insurance_Coverage_Percent_With_Private_Coverage,24005,2011,percent
83.2,Health_Insurance_Coverage_Percent_With_Private_Coverage,24009,2011,percent
85.3,Health_Insurance_Coverage_Percent_With_Private_Coverage,24013,2011,percent
71.6,Health_Insurance_Coverage_Percent_With_Private_Coverage,24015,2011,percent
81.6,Health_Insurance_Coverage_Percent_With_Private_Coverage,24017,2011,percent
81.6,Health_Insurance_Coverage_Percent_With_Private_Coverage,24021,2011,percent
80.5,Health_Insurance_Coverage_Percent_With_Private_Coverage,24025,2011,percent
83.7,Health_Insurance_Coverage_Percent_With_Private_Coverage,24027,2011,percent
77,Health_Insurance_Coverage_Percent_With_Private_Coverage,24031,2011,percent
70.1,Health_Insurance_Coverage_Percent_With_Private_Coverage,24033,2011,percent
78.9,Health_Insurance_Coverage_Percent_With_Private_Coverage,24037,2011,percent
69.8,Health_Insurance_Coverage_Percent_With_Private_Coverage,24043,2011,percent
65.1,Health_Insurance_Coverage_Percent_With_Private_Coverage,24045,2011,percent
54.2,Health_Insurance_Coverage_Percent_With_Private_Coverage,24510,2011,percent
72.2,Health_Insurance_Coverage_Percent_With_Private_Coverage,25001,2011,percent
72.3,Health_Insurance_Coverage_Percent_With_Private_Coverage,25003,2011,percent
71.8,Health_Insurance_Coverage_Percent_With_Private_Coverage,25005,2011,percent
72.6,Health_Insurance_Coverage_Percent_With_Private_Coverage,25009,2011,percent
71.1,Health_Insurance_Coverage_Percent_With_Private_Coverage,25011,2011,percent
64.2,Health_Insurance_Coverage_Percent_With_Private_Coverage,25013,2011,percent
79,Health_Insurance_Coverage_Percent_With_Private_Coverage,25015,2011,percent
81,Health_Insurance_Coverage_Percent_With_Private_Coverage,25017,2011,percent
85.2,Health_Insurance_Coverage_Percent_With_Private_Coverage,25021,2011,percent
76.1,Health_Insurance_Coverage_Percent_With_Private_Coverage,25023,2011,percent
63.9,Health_Insurance_Coverage_Percent_With_Private_Coverage,25025,2011,percent
75.5,Health_Insurance_Coverage_Percent_With_Private_Coverage,25027,2011,percent
73.7,Health_Insurance_Coverage_Percent_With_Private_Coverage,26005,2011,percent
69.9,Health_Insurance_Coverage_Percent_With_Private_Coverage,26017,2011,percent
63.1,Health_Insurance_Coverage_Percent_With_Private_Coverage,26021,2011,percent
63,Health_Insurance_Coverage_Percent_With_Private_Coverage,26025,2011,percent
76.8,Health_Insurance_Coverage_Percent_With_Private_Coverage,26037,2011,percent
73.1,Health_Insurance_Coverage_Percent_With_Private_Coverage,26045,2011,percent
63.5,Health_Insurance_Coverage_Percent_With_Private_Coverage,26049,2011,percent
67.5,Health_Insurance_Coverage_Percent_With_Private_Coverage,26055,2011,percent
71.1,Health_Insurance_Coverage_Percent_With_Private_Coverage,26065,2011,percent
69.7,Health_Insurance_Coverage_Percent_With_Private_Coverage,26073,2011,percent
66.2,Health_Insurance_Coverage_Percent_With_Private_Coverage,26075,2011,percent
72.8,Health_Insurance_Coverage_Percent_With_Private_Coverage,26077,2011,percent
72.5,Health_Insurance_Coverage_Percent_With_Private_Coverage,26081,2011,percent
72,Health_Insurance_Coverage_Percent_With_Private_Coverage,26087,2011,percent
74.2,Health_Insurance_Coverage_Percent_With_Private_Coverage,26091,2011,percent
80.4,Health_Insurance_Coverage_Percent_With_Private_Coverage,26093,2011,percent
71.9,Health_Insurance_Coverage_Percent_With_Private_Coverage,26099,2011,percent
68.8,Health_Insurance_Coverage_Percent_With_Private_Coverage,26103,2011,percent
77.5,Health_Insurance_Coverage_Percent_With_Private_Coverage,26111,2011,percent
76.3,Health_Insurance_Coverage_Percent_With_Private_Coverage,26115,2011,percent
62,Health_Insurance_Coverage_Percent_With_Private_Coverage,26121,2011,percent
77.2,Health_Insurance_Coverage_Percent_With_Private_Coverage,26125,2011,percent
80.1,Health_Insurance_Coverage_Percent_With_Private_Coverage,26139,2011,percent
66.6,Health_Insurance_Coverage_Percent_With_Private_Coverage,26145,2011,percent
68.5,Health_Insurance_Coverage_Percent_With_Private_Coverage,26147,2011,percent
69.5,Health_Insurance_Coverage_Percent_With_Private_Coverage,26155,2011,percent
59.7,Health_Insurance_Coverage_Percent_With_Private_Coverage,26159,2011,percent
82.2,Health_Insurance_Coverage_Percent_With_Private_Coverage,26161,2011,percent
56.7,Health_Insurance_Coverage_Percent_With_Private_Coverage,26163,2011,percent
77.2,Health_Insurance_Coverage_Percent_With_Private_Coverage,27003,2011,percent
85.9,Health_Insurance_Coverage_Percent_With_Private_Coverage,27019,2011,percent
80.8,Health_Insurance_Coverage_Percent_With_Private_Coverage,27037,2011,percent
74.1,Health_Insurance_Coverage_Percent_With_Private_Coverage,27053,2011,percent
82.1,Health_Insurance_Coverage_Percent_With_Private_Coverage,27109,2011,percent
68.9,Health_Insurance_Coverage_Percent_With_Private_Coverage,27123,2011,percent
73,Health_Insurance_Coverage_Percent_With_Private_Coverage,27137,2011,percent
85.1,Health_Insurance_Coverage_Percent_With_Private_Coverage,27139,2011,percent
76.4,Health_Insurance_Coverage_Percent_With_Private_Coverage,27141,2011,percent
76.5,Health_Insurance_Coverage_Percent_With_Private_Coverage,27145,2011,percent
86.3,Health_Insurance_Coverage_Percent_With_Private_Coverage,27163,2011,percent
83.2,Health_Insurance_Coverage_Percent_With_Private_Coverage,27171,2011,percent
70.2,Health_Insurance_Coverage_Percent_With_Private_Coverage,28033,2011,percent
58.9,Health_Insurance_Coverage_Percent_With_Private_Coverage,28035,2011,percent
57,Health_Insurance_Coverage_Percent_With_Private_Coverage,28047,2011,percent
54.9,Health_Insurance_Coverage_Percent_With_Private_Coverage,28049,2011,percent
63,Health_Insurance_Coverage_Percent_With_Private_Coverage,28059,2011,percent
51,Health_Insurance_Coverage_Percent_With_Private_Coverage,28067,2011,percent
60.1,Health_Insurance_Coverage_Percent_With_Private_Coverage,28075,2011,percent
63.7,Health_Insurance_Coverage_Percent_With_Private_Coverage,28081,2011,percent
72.6,Health_Insurance_Coverage_Percent_With_Private_Coverage,28089,2011,percent
75.5,Health_Insurance_Coverage_Percent_With_Private_Coverage,28121,2011,percent
79.3,Health_Insurance_Coverage_Percent_With_Private_Coverage,29019,2011,percent
62.7,Health_Insurance_Coverage_Percent_With_Private_Coverage,29021,2011,percent
71.3,Health_Insurance_Coverage_Percent_With_Private_Coverage,29031,2011,percent
75.7,Health_Insurance_Coverage_Percent_With_Private_Coverage,29037,2011,percent
64.7,Health_Insurance_Coverage_Percent_With_Private_Coverage,29043,2011,percent
77.9,Health_Insurance_Coverage_Percent_With_Private_Coverage,29047,2011,percent
76.5,Health_Insurance_Coverage_Percent_With_Private_Coverage,29051,2011,percent
72.8,Health_Insurance_Coverage_Percent_With_Private_Coverage,29071,2011,percent
68.8,Health_Insurance_Coverage_Percent_With_Private_Coverage,29077,2011,percent
64.5,Health_Insurance_Coverage_Percent_With_Private_Coverage,29095,2011,percent
58.6,Health_Insurance_Coverage_Percent_With_Private_Coverage,29097,2011,percent
74.9,Health_Insurance_Coverage_Percent_With_Private_Coverage,29099,2011,percent
80.5,Health_Insurance_Coverage_Percent_With_Private_Coverage,29165,2011,percent
84.2,Health_Insurance_Coverage_Percent_With_Private_Coverage,29183,2011,percent
68.2,Health_Insurance_Coverage_Percent_With_Private_Coverage,29187,2011,percent
75.2,Health_Insurance_Coverage_Percent_With_Private_Coverage,29189,2011,percent
53.6,Health_Insurance_Coverage_Percent_With_Private_Coverage,29510,2011,percent
65.4,Health_Insurance_Coverage_Percent_With_Private_Coverage,30013,2011,percent
62.8,Health_Insurance_Coverage_Percent_With_Private_Coverage,30029,2011,percent
73.6,Health_Insurance_Coverage_Percent_With_Private_Coverage,30031,2011,percent
68.3,Health_Insurance_Coverage_Percent_With_Private_Coverage,30063,2011,percent
65.5,Health_Insurance_Coverage_Percent_With_Private_Coverage,30111,2011,percent
70.1,Health_Insurance_Coverage_Percent_With_Private_Coverage,31055,2011,percent
76.8,Health_Insurance_Coverage_Percent_With_Private_Coverage,31109,2011,percent
83.9,Health_Insurance_Coverage_Percent_With_Private_Coverage,31153,2011,percent
63.1,Health_Insurance_Coverage_Percent_With_Private_Coverage,32003,2011,percent
63,Health_Insurance_Coverage_Percent_With_Private_Coverage,32031,2011,percent
76.8,Health_Insurance_Coverage_Percent_With_Private_Coverage,33005,2011,percent
71.8,Health_Insurance_Coverage_Percent_With_Private_Coverage,33009,2011,percent
77.1,Health_Insurance_Coverage_Percent_With_Private_Coverage,33011,2011,percent
77.9,Health_Insurance_Coverage_Percent_With_Private_Coverage,33013,2011,percent
81.2,Health_Insurance_Coverage_Percent_With_Private_Coverage,33015,2011,percent
71.1,Health_Insurance_Coverage_Percent_With_Private_Coverage,33017,2011,percent
68.7,Health_Insurance_Coverage_Percent_With_Private_Coverage,34001,2011,percent
75,Health_Insurance_Coverage_Percent_With_Private_Coverage,34003,2011,percent
79.6,Health_Insurance_Coverage_Percent_With_Private_Coverage,34005,2011,percent
69,Health_Insurance_Coverage_Percent_With_Private_Coverage,34007,2011,percent
69.1,Health_Insurance_Coverage_Percent_With_Private_Coverage,34009,2011,percent
60.7,Health_Insurance_Coverage_Percent_With_Private_Coverage,34011,2011,percent
59.3,Health_Insurance_Coverage_Percent_With_Private_Coverage,34013,2011,percent
78.3,Health_Insurance_Coverage_Percent_With_Private_Coverage,34015,2011,percent
56,Health_Insurance_Coverage_Percent_With_Private_Coverage,34017,2011,percent
88.3,Health_Insurance_Coverage_Percent_With_Private_Coverage,34019,2011,percent
74.4,Health_Insurance_Coverage_Percent_With_Private_Coverage,34021,2011,percent
72.8,Health_Insurance_Coverage_Percent_With_Private_Coverage,34023,2011,percent
79.2,Health_Insurance_Coverage_Percent_With_Private_Coverage,34025,2011,percent
84.3,Health_Insurance_Coverage_Percent_With_Private_Coverage,34027,2011,percent
72,Health_Insurance_Coverage_Percent_With_Private_Coverage,34029,2011,percent
55,Health_Insurance_Coverage_Percent_With_Private_Coverage,34031,2011,percent
65.6,Health_Insurance_Coverage_Percent_With_Private_Coverage,34033,2011,percent
82.5,Health_Insurance_Coverage_Percent_With_Private_Coverage,34035,2011,percent
83,Health_Insurance_Coverage_Percent_With_Private_Coverage,34037,2011,percent
66.6,Health_Insurance_Coverage_Percent_With_Private_Coverage,34039,2011,percent
77.3,Health_Insurance_Coverage_Percent_With_Private_Coverage,34041,2011,percent
57.6,Health_Insurance_Coverage_Percent_With_Private_Coverage,35001,2011,percent
44.3,Health_Insurance_Coverage_Percent_With_Private_Coverage,35005,2011,percent
47.1,Health_Insurance_Coverage_Percent_With_Private_Coverage,35013,2011,percent
52.5,Health_Insurance_Coverage_Percent_With_Private_Coverage,35025,2011,percent
19.9,Health_Insurance_Coverage_Percent_With_Private_Coverage,35031,2011,percent
54.5,Health_Insurance_Coverage_Percent_With_Private_Coverage,35035,2011,percent
61.2,Health_Insurance_Coverage_Percent_With_Private_Coverage,35043,2011,percent
47.7,Health_Insurance_Coverage_Percent_With_Private_Coverage,35045,2011,percent
61,Health_Insurance_Coverage_Percent_With_Private_Coverage,35049,2011,percent
56.4,Health_Insurance_Coverage_Percent_With_Private_Coverage,35061,2011,percent
77.3,Health_Insurance_Coverage_Percent_With_Private_Coverage,36001,2011,percent
42.7,Health_Insurance_Coverage_Percent_With_Private_Coverage,36005,2011,percent
68.6,Health_Insurance_Coverage_Percent_With_Private_Coverage,36007,2011,percent
64.7,Health_Insurance_Coverage_Percent_With_Private_Coverage,36009,2011,percent
68.8,Health_Insurance_Coverage_Percent_With_Private_Coverage,36011,2011,percent
67.8,Health_Insurance_Coverage_Percent_With_Private_Coverage,36013,2011,percent
69.5,Health_Insurance_Coverage_Percent_With_Private_Coverage,36015,2011,percent
75.8,Health_Insurance_Coverage_Percent_With_Private_Coverage,36019,2011,percent
76.2,Health_Insurance_Coverage_Percent_With_Private_Coverage,36027,2011,percent
72.3,Health_Insurance_Coverage_Percent_With_Private_Coverage,36029,2011,percent
67.5,Health_Insurance_Coverage_Percent_With_Private_Coverage,36045,2011,percent
49.8,Health_Insurance_Coverage_Percent_With_Private_Coverage,36047,2011,percent
80.3,Health_Insurance_Coverage_Percent_With_Private_Coverage,36051,2011,percent
75.2,Health_Insurance_Coverage_Percent_With_Private_Coverage,36053,2011,percent
73.7,Health_Insurance_Coverage_Percent_With_Private_Coverage,36055,2011,percent
78.8,Health_Insurance_Coverage_Percent_With_Private_Coverage,36059,2011,percent
65.3,Health_Insurance_Coverage_Percent_With_Private_Coverage,36061,2011,percent
73.7,Health_Insurance_Coverage_Percent_With_Private_Coverage,36063,2011,percent
66.4,Health_Insurance_Coverage_Percent_With_Private_Coverage,36065,2011,percent
72.2,Health_Insurance_Coverage_Percent_With_Private_Coverage,36067,2011,percent
74.2,Health_Insurance_Coverage_Percent_With_Private_Coverage,36069,2011,percent
68.8,Health_Insurance_Coverage_Percent_With_Private_Coverage,36071,2011,percent
65.1,Health_Insurance_Coverage_Percent_With_Private_Coverage,36075,2011,percent
82.2,Health_Insurance_Coverage_Percent_With_Private_Coverage,36079,2011,percent
52.6,Health_Insurance_Coverage_Percent_With_Private_Coverage,36081,2011,percent
76.4,Health_Insurance_Coverage_Percent_With_Private_Coverage,36083,2011,percent
70.8,Health_Insurance_Coverage_Percent_With_Private_Coverage,36085,2011,percent
68.6,Health_Insurance_Coverage_Percent_With_Private_Coverage,36087,2011,percent
66.2,Health_Insurance_Coverage_Percent_With_Private_Coverage,36089,2011,percent
83.8,Health_Insurance_Coverage_Percent_With_Private_Coverage,36091,2011,percent
71.6,Health_Insurance_Coverage_Percent_With_Private_Coverage,36093,2011,percent
61.2,Health_Insurance_Coverage_Percent_With_Private_Coverage,36101,2011,percent
78,Health_Insurance_Coverage_Percent_With_Private_Coverage,36103,2011,percent
62.3,Health_Insurance_Coverage_Percent_With_Private_Coverage,36105,2011,percent
83,Health_Insurance_Coverage_Percent_With_Private_Coverage,36109,2011,percent
69.4,Health_Insurance_Coverage_Percent_With_Private_Coverage,36111,2011,percent
72.1,Health_Insurance_Coverage_Percent_With_Private_Coverage,36113,2011,percent
72.7,Health_Insurance_Coverage_Percent_With_Private_Coverage,36117,2011,percent
72.5,Health_Insurance_Coverage_Percent_With_Private_Coverage,36119,2011,percent
58.9,Health_Insurance_Coverage_Percent_With_Private_Coverage,37001,2011,percent
60.4,Health_Insurance_Coverage_Percent_With_Private_Coverage,37019,2011,percent
61.4,Health_Insurance_Coverage_Percent_With_Private_Coverage,37021,2011,percent
55,Health_Insurance_Coverage_Percent_With_Private_Coverage,37023,2011,percent
62.8,Health_Insurance_Coverage_Percent_With_Private_Coverage,37025,2011,percent
55.9,Health_Insurance_Coverage_Percent_With_Private_Coverage,37027,2011,percent
61.9,Health_Insurance_Coverage_Percent_With_Private_Coverage,37031,2011,percent
64.5,Health_Insurance_Coverage_Percent_With_Private_Coverage,37035,2011,percent
61.9,Health_Insurance_Coverage_Percent_With_Private_Coverage,37045,2011,percent
64.2,Health_Insurance_Coverage_Percent_With_Private_Coverage,37049,2011,percent
66.2,Health_Insurance_Coverage_Percent_With_Private_Coverage,37051,2011,percent
62.2,Health_Insurance_Coverage_Percent_With_Private_Coverage,37057,2011,percent
64.8,Health_Insurance_Coverage_Percent_With_Private_Coverage,37063,2011,percent
64.8,Health_Insurance_Coverage_Percent_With_Private_Coverage,37067,2011,percent
60.5,Health_Insurance_Coverage_Percent_With_Private_Coverage,37071,2011,percent
64.4,Health_Insurance_Coverage_Percent_With_Private_Coverage,37081,2011,percent
62.5,Health_Insurance_Coverage_Percent_With_Private_Coverage,37085,2011,percent
67.7,Health_Insurance_Coverage_Percent_With_Private_Coverage,37089,2011,percent
69.7,Health_Insurance_Coverage_Percent_With_Private_Coverage,37097,2011,percent
65,Health_Insurance_Coverage_Percent_With_Private_Coverage,37101,2011,percent
68.7,Health_Insurance_Coverage_Percent_With_Private_Coverage,37109,2011,percent
66.8,Health_Insurance_Coverage_Percent_With_Private_Coverage,37119,2011,percent
66.8,Health_Insurance_Coverage_Percent_With_Private_Coverage,37125,2011,percent
62.5,Health_Insurance_Coverage_Percent_With_Private_Coverage,37127,2011,percent
68.5,Health_Insurance_Coverage_Percent_With_Private_Coverage,37129,2011,percent
77,Health_Insurance_Coverage_Percent_With_Private_Coverage,37133,2011,percent
77.1,Health_Insurance_Coverage_Percent_With_Private_Coverage,37135,2011,percent
66.9,Health_Insurance_Coverage_Percent_With_Private_Coverage,37147,2011,percent
59,Health_Insurance_Coverage_Percent_With_Private_Coverage,37151,2011,percent
40.7,Health_Insurance_Coverage_Percent_With_Private_Coverage,37155,2011,percent
60.2,Health_Insurance_Coverage_Percent_With_Private_Coverage,37157,2011,percent
59.1,Health_Insurance_Coverage_Percent_With_Private_Coverage,37159,2011,percent
53.6,Health_Insurance_Coverage_Percent_With_Private_Coverage,37161,2011,percent
53.5,Health_Insurance_Coverage_Percent_With_Private_Coverage,37171,2011,percent
72.4,Health_Insurance_Coverage_Percent_With_Private_Coverage,37179,2011,percent
73.3,Health_Insurance_Coverage_Percent_With_Private_Coverage,37183,2011,percent
57.5,Health_Insurance_Coverage_Percent_With_Private_Coverage,37191,2011,percent
55.2,Health_Insurance_Coverage_Percent_With_Private_Coverage,37193,2011,percent
55.1,Health_Insurance_Coverage_Percent_With_Private_Coverage,37195,2011,percent
82.6,Health_Insurance_Coverage_Percent_With_Private_Coverage,38015,2011,percent
81.8,Health_Insurance_Coverage_Percent_With_Private_Coverage,38017,2011,percent
81.6,Health_Insurance_Coverage_Percent_With_Private_Coverage,38035,2011,percent
67.7,Health_Insurance_Coverage_Percent_With_Private_Coverage,39003,2011,percent
60.5,Health_Insurance_Coverage_Percent_With_Private_Coverage,39007,2011,percent
68.1,Health_Insurance_Coverage_Percent_With_Private_Coverage,39013,2011,percent
75.1,Health_Insurance_Coverage_Percent_With_Private_Coverage,39017,2011,percent
65.2,Health_Insurance_Coverage_Percent_With_Private_Coverage,39023,2011,percent
73.8,Health_Insurance_Coverage_Percent_With_Private_Coverage,39025,2011,percent
60.9,Health_Insurance_Coverage_Percent_With_Private_Coverage,39029,2011,percent
65.3,Health_Insurance_Coverage_Percent_With_Private_Coverage,39035,2011,percent
88.1,Health_Insurance_Coverage_Percent_With_Private_Coverage,39041,2011,percent
72.6,Health_Insurance_Coverage_Percent_With_Private_Coverage,39043,2011,percent
76.4,Health_Insurance_Coverage_Percent_With_Private_Coverage,39045,2011,percent
68.1,Health_Insurance_Coverage_Percent_With_Private_Coverage,39049,2011,percent
77.7,Health_Insurance_Coverage_Percent_With_Private_Coverage,39055,2011,percent
75.9,Health_Insurance_Coverage_Percent_With_Private_Coverage,39057,2011,percent
67.7,Health_Insurance_Coverage_Percent_With_Private_Coverage,39061,2011,percent
70.7,Health_Insurance_Coverage_Percent_With_Private_Coverage,39063,2011,percent
67.1,Health_Insurance_Coverage_Percent_With_Private_Coverage,39081,2011,percent
76.7,Health_Insurance_Coverage_Percent_With_Private_Coverage,39085,2011,percent
72.4,Health_Insurance_Coverage_Percent_With_Private_Coverage,39089,2011,percent
70.2,Health_Insurance_Coverage_Percent_With_Private_Coverage,39093,2011,percent
63,Health_Insurance_Coverage_Percent_With_Private_Coverage,39095,2011,percent
62.8,Health_Insurance_Coverage_Percent_With_Private_Coverage,39099,2011,percent
62.3,Health_Insurance_Coverage_Percent_With_Private_Coverage,39101,2011,percent
79.7,Health_Insurance_Coverage_Percent_With_Private_Coverage,39103,2011,percent
71.8,Health_Insurance_Coverage_Percent_With_Private_Coverage,39109,2011,percent
65.6,Health_Insurance_Coverage_Percent_With_Private_Coverage,39113,2011,percent
62.8,Health_Insurance_Coverage_Percent_With_Private_Coverage,39119,2011,percent
74.6,Health_Insurance_Coverage_Percent_With_Private_Coverage,39133,2011,percent
65,Health_Insurance_Coverage_Percent_With_Private_Coverage,39139,2011,percent
64.7,Health_Insurance_Coverage_Percent_With_Private_Coverage,39141,2011,percent
55.6,Health_Insurance_Coverage_Percent_With_Private_Coverage,39145,2011,percent
67.9,Health_Insurance_Coverage_Percent_With_Private_Coverage,39151,2011,percent
69.4,Health_Insurance_Coverage_Percent_With_Private_Coverage,39153,2011,percent
66.3,Health_Insurance_Coverage_Percent_With_Private_Coverage,39155,2011,percent
70.2,Health_Insurance_Coverage_Percent_With_Private_Coverage,39157,2011,percent
84.1,Health_Insurance_Coverage_Percent_With_Private_Coverage,39165,2011,percent
68.6,Health_Insurance_Coverage_Percent_With_Private_Coverage,39169,2011,percent
82.2,Health_Insurance_Coverage_Percent_With_Private_Coverage,39173,2011,percent
76.8,Health_Insurance_Coverage_Percent_With_Private_Coverage,40017,2011,percent
72.2,Health_Insurance_Coverage_Percent_With_Private_Coverage,40027,2011,percent
68.9,Health_Insurance_Coverage_Percent_With_Private_Coverage,40031,2011,percent
58.9,Health_Insurance_Coverage_Percent_With_Private_Coverage,40037,2011,percent
49.6,Health_Insurance_Coverage_Percent_With_Private_Coverage,40101,2011,percent
59.8,Health_Insurance_Coverage_Percent_With_Private_Coverage,40109,2011,percent
68.6,Health_Insurance_Coverage_Percent_With_Private_Coverage,40119,2011,percent
57.6,Health_Insurance_Coverage_Percent_With_Private_Coverage,40125,2011,percent
74.8,Health_Insurance_Coverage_Percent_With_Private_Coverage,40131,2011,percent
64.1,Health_Insurance_Coverage_Percent_With_Private_Coverage,40143,2011,percent
66.5,Health_Insurance_Coverage_Percent_With_Private_Coverage,40145,2011,percent
75.8,Health_Insurance_Coverage_Percent_With_Private_Coverage,41003,2011,percent
73.4,Health_Insurance_Coverage_Percent_With_Private_Coverage,41005,2011,percent
66.6,Health_Insurance_Coverage_Percent_With_Private_Coverage,41017,2011,percent
57.4,Health_Insurance_Coverage_Percent_With_Private_Coverage,41019,2011,percent
56,Health_Insurance_Coverage_Percent_With_Private_Coverage,41029,2011,percent
58.4,Health_Insurance_Coverage_Percent_With_Private_Coverage,41033,2011,percent
56,Health_Insurance_Coverage_Percent_With_Private_Coverage,41035,2011,percent
65.2,Health_Insurance_Coverage_Percent_With_Private_Coverage,41039,2011,percent
63.9,Health_Insurance_Coverage_Percent_With_Private_Coverage,41043,2011,percent
59.5,Health_Insurance_Coverage_Percent_With_Private_Coverage,41047,2011,percent
65.1,Health_Insurance_Coverage_Percent_With_Private_Coverage,41051,2011,percent
71.5,Health_Insurance_Coverage_Percent_With_Private_Coverage,41053,2011,percent
60.8,Health_Insurance_Coverage_Percent_With_Private_Coverage,41059,2011,percent
73.2,Health_Insurance_Coverage_Percent_With_Private_Coverage,41067,2011,percent
66.6,Health_Insurance_Coverage_Percent_With_Private_Coverage,41071,2011,percent
80.5,Health_Insurance_Coverage_Percent_With_Private_Coverage,42001,2011,percent
74.9,Health_Insurance_Coverage_Percent_With_Private_Coverage,42003,2011,percent
70.9,Health_Insurance_Coverage_Percent_With_Private_Coverage,42005,2011,percent
72.4,Health_Insurance_Coverage_Percent_With_Private_Coverage,42007,2011,percent
71.1,Health_Insurance_Coverage_Percent_With_Private_Coverage,42011,2011,percent
71,Health_Insurance_Coverage_Percent_With_Private_Coverage,42013,2011,percent
83.2,Health_Insurance_Coverage_Percent_With_Private_Coverage,42017,2011,percent
79.8,Health_Insurance_Coverage_Percent_With_Private_Coverage,42019,2011,percent
71.7,Health_Insurance_Coverage_Percent_With_Private_Coverage,42021,2011,percent
71.7,Health_Insurance_Coverage_Percent_With_Private_Coverage,42025,2011,percent
83.4,Health_Insurance_Coverage_Percent_With_Private_Coverage,42027,2011,percent
81.5,Health_Insurance_Coverage_Percent_With_Private_Coverage,42029,2011,percent
66.4,Health_Insurance_Coverage_Percent_With_Private_Coverage,42033,2011,percent
73.4,Health_Insurance_Coverage_Percent_With_Private_Coverage,42037,2011,percent
64.2,Health_Insurance_Coverage_Percent_With_Private_Coverage,42039,2011,percent
81.6,Health_Insurance_Coverage_Percent_With_Private_Coverage,42041,2011,percent
73.5,Health_Insurance_Coverage_Percent_With_Private_Coverage,42043,2011,percent
76.3,Health_Insurance_Coverage_Percent_With_Private_Coverage,42045,2011,percent
67.6,Health_Insurance_Coverage_Percent_With_Private_Coverage,42049,2011,percent
65.3,Health_Insurance_Coverage_Percent_With_Private_Coverage,42051,2011,percent
68.3,Health_Insurance_Coverage_Percent_With_Private_Coverage,42055,2011,percent
76.2,Health_Insurance_Coverage_Percent_With_Private_Coverage,42063,2011,percent
72.8,Health_Insurance_Coverage_Percent_With_Private_Coverage,42069,2011,percent
70.8,Health_Insurance_Coverage_Percent_With_Private_Coverage,42071,2011,percent
65.6,Health_Insurance_Coverage_Percent_With_Private_Coverage,42073,2011,percent
73.7,Health_Insurance_Coverage_Percent_With_Private_Coverage,42075,2011,percent
68.1,Health_Insurance_Coverage_Percent_With_Private_Coverage,42077,2011,percent
70.1,Health_Insurance_Coverage_Percent_With_Private_Coverage,42079,2011,percent
69,Health_Insurance_Coverage_Percent_With_Private_Coverage,42081,2011,percent
67.2,Health_Insurance_Coverage_Percent_With_Private_Coverage,42085,2011,percent
68.1,Health_Insurance_Coverage_Percent_With_Private_Coverage,42089,2011,percent
82.9,Health_Insurance_Coverage_Percent_With_Private_Coverage,42091,2011,percent
77.4,Health_Insurance_Coverage_Percent_With_Private_Coverage,42095,2011,percent
72.9,Health_Insurance_Coverage_Percent_With_Private_Coverage,42097,2011,percent
55,Health_Insurance_Coverage_Percent_With_Private_Coverage,42101,2011,percent
73.8,Health_Insurance_Coverage_Percent_With_Private_Coverage,42107,2011,percent
69.2,Health_Insurance_Coverage_Percent_With_Private_Coverage,42111,2011,percent
77,Health_Insurance_Coverage_Percent_With_Private_Coverage,42125,2011,percent
74.6,Health_Insurance_Coverage_Percent_With_Private_Coverage,42129,2011,percent
73.6,Health_Insurance_Coverage_Percent_With_Private_Coverage,42133,2011,percent
79.4,Health_Insurance_Coverage_Percent_With_Private_Coverage,44003,2011,percent
80.1,Health_Insurance_Coverage_Percent_With_Private_Coverage,44005,2011,percent
64.6,Health_Insurance_Coverage_Percent_With_Private_Coverage,44007,2011,percent
84.3,Health_Insurance_Coverage_Percent_With_Private_Coverage,44009,2011,percent
66.3,Health_Insurance_Coverage_Percent_With_Private_Coverage,45003,2011,percent
63.6,Health_Insurance_Coverage_Percent_With_Private_Coverage,45007,2011,percent
65.5,Health_Insurance_Coverage_Percent_With_Private_Coverage,45013,2011,percent
62.3,Health_Insurance_Coverage_Percent_With_Private_Coverage,45015,2011,percent
66.9,Health_Insurance_Coverage_Percent_With_Private_Coverage,45019,2011,percent
54.9,Health_Insurance_Coverage_Percent_With_Private_Coverage,45031,2011,percent
69.5,Health_Insurance_Coverage_Percent_With_Private_Coverage,45035,2011,percent
58,Health_Insurance_Coverage_Percent_With_Private_Coverage,45041,2011,percent
65.7,Health_Insurance_Coverage_Percent_With_Private_Coverage,45045,2011,percent
57.5,Health_Insurance_Coverage_Percent_With_Private_Coverage,45047,2011,percent
55.7,Health_Insurance_Coverage_Percent_With_Private_Coverage,45051,2011,percent
62.6,Health_Insurance_Coverage_Percent_With_Private_Coverage,45057,2011,percent
54.4,Health_Insurance_Coverage_Percent_With_Private_Coverage,45059,2011,percent
71.3,Health_Insurance_Coverage_Percent_With_Private_Coverage,45063,2011,percent
64.5,Health_Insurance_Coverage_Percent_With_Private_Coverage,45073,2011,percent
54.2,Health_Insurance_Coverage_Percent_With_Private_Coverage,45075,2011,percent
66.4,Health_Insurance_Coverage_Percent_With_Private_Coverage,45077,2011,percent
68.2,Health_Insurance_Coverage_Percent_With_Private_Coverage,45079,2011,percent
62.7,Health_Insurance_Coverage_Percent_With_Private_Coverage,45083,2011,percent
59.3,Health_Insurance_Coverage_Percent_With_Private_Coverage,45085,2011,percent
67.4,Health_Insurance_Coverage_Percent_With_Private_Coverage,45091,2011,percent
76.3,Health_Insurance_Coverage_Percent_With_Private_Coverage,46099,2011,percent
66.5,Health_Insurance_Coverage_Percent_With_Private_Coverage,46103,2011,percent
66.6,Health_Insurance_Coverage_Percent_With_Private_Coverage,47001,2011,percent
64.2,Health_Insurance_Coverage_Percent_With_Private_Coverage,47009,2011,percent
58,Health_Insurance_Coverage_Percent_With_Private_Coverage,47011,2011,percent
62.8,Health_Insurance_Coverage_Percent_With_Private_Coverage,47037,2011,percent
59.6,Health_Insurance_Coverage_Percent_With_Private_Coverage,47059,2011,percent
65.8,Health_Insurance_Coverage_Percent_With_Private_Coverage,47065,2011,percent
71.1,Health_Insurance_Coverage_Percent_With_Private_Coverage,47093,2011,percent
59.3,Health_Insurance_Coverage_Percent_With_Private_Coverage,47113,2011,percent
63.2,Health_Insurance_Coverage_Percent_With_Private_Coverage,47119,2011,percent
69,Health_Insurance_Coverage_Percent_With_Private_Coverage,47125,2011,percent
59.3,Health_Insurance_Coverage_Percent_With_Private_Coverage,47141,2011,percent
64.1,Health_Insurance_Coverage_Percent_With_Private_Coverage,47147,2011,percent
71.7,Health_Insurance_Coverage_Percent_With_Private_Coverage,47149,2011,percent
56.4,Health_Insurance_Coverage_Percent_With_Private_Coverage,47155,2011,percent
60,Health_Insurance_Coverage_Percent_With_Private_Coverage,47157,2011,percent
65.2,Health_Insurance_Coverage_Percent_With_Private_Coverage,47163,2011,percent
69.7,Health_Insurance_Coverage_Percent_With_Private_Coverage,47165,2011,percent
68.3,Health_Insurance_Coverage_Percent_With_Private_Coverage,47179,2011,percent
85.3,Health_Insurance_Coverage_Percent_With_Private_Coverage,47187,2011,percent
71.3,Health_Insurance_Coverage_Percent_With_Private_Coverage,47189,2011,percent
56.2,Health_Insurance_Coverage_Percent_With_Private_Coverage,48005,2011,percent
64.5,Health_Insurance_Coverage_Percent_With_Private_Coverage,48021,2011,percent
68.6,Health_Insurance_Coverage_Percent_With_Private_Coverage,48027,2011,percent
60.5,Health_Insurance_Coverage_Percent_With_Private_Coverage,48029,2011,percent
58.6,Health_Insurance_Coverage_Percent_With_Private_Coverage,48037,2011,percent
65.6,Health_Insurance_Coverage_Percent_With_Private_Coverage,48039,2011,percent
70,Health_Insurance_Coverage_Percent_With_Private_Coverage,48041,2011,percent
33.9,Health_Insurance_Coverage_Percent_With_Private_Coverage,48061,2011,percent
76.6,Health_Insurance_Coverage_Percent_With_Private_Coverage,48085,2011,percent
69.1,Health_Insurance_Coverage_Percent_With_Private_Coverage,48091,2011,percent
79.7,Health_Insurance_Coverage_Percent_With_Private_Coverage,48099,2011,percent
50.5,Health_Insurance_Coverage_Percent_With_Private_Coverage,48113,2011,percent
75.5,Health_Insurance_Coverage_Percent_With_Private_Coverage,48121,2011,percent
54.8,Health_Insurance_Coverage_Percent_With_Private_Coverage,48135,2011,percent
64.1,Health_Insurance_Coverage_Percent_With_Private_Coverage,48139,2011,percent
45.7,Health_Insurance_Coverage_Percent_With_Private_Coverage,48141,2011,percent
71.2,Health_Insurance_Coverage_Percent_With_Private_Coverage,48157,2011,percent
66.8,Health_Insurance_Coverage_Percent_With_Private_Coverage,48167,2011,percent
59,Health_Insurance_Coverage_Percent_With_Private_Coverage,48181,2011,percent
58.7,Health_Insurance_Coverage_Percent_With_Private_Coverage,48183,2011,percent
72.3,Health_Insurance_Coverage_Percent_With_Private_Coverage,48187,2011,percent
52.4,Health_Insurance_Coverage_Percent_With_Private_Coverage,48201,2011,percent
62.9,Health_Insurance_Coverage_Percent_With_Private_Coverage,48203,2011,percent
68.4,Health_Insurance_Coverage_Percent_With_Private_Coverage,48209,2011,percent
53.8,Health_Insurance_Coverage_Percent_With_Private_Coverage,48213,2011,percent
28.8,Health_Insurance_Coverage_Percent_With_Private_Coverage,48215,2011,percent
60,Health_Insurance_Coverage_Percent_With_Private_Coverage,48231,2011,percent
56.1,Health_Insurance_Coverage_Percent_With_Private_Coverage,48245,2011,percent
57.1,Health_Insurance_Coverage_Percent_With_Private_Coverage,48251,2011,percent
60.2,Health_Insurance_Coverage_Percent_With_Private_Coverage,48257,2011,percent
52.5,Health_Insurance_Coverage_Percent_With_Private_Coverage,48291,2011,percent
61.7,Health_Insurance_Coverage_Percent_With_Private_Coverage,48303,2011,percent
62.1,Health_Insurance_Coverage_Percent_With_Private_Coverage,48309,2011,percent
65,Health_Insurance_Coverage_Percent_With_Private_Coverage,48329,2011,percent
65.4,Health_Insurance_Coverage_Percent_With_Private_Coverage,48339,2011,percent
58.8,Health_Insurance_Coverage_Percent_With_Private_Coverage,48347,2011,percent
53.5,Health_Insurance_Coverage_Percent_With_Private_Coverage,48355,2011,percent
57.1,Health_Insurance_Coverage_Percent_With_Private_Coverage,48361,2011,percent
69.5,Health_Insurance_Coverage_Percent_With_Private_Coverage,48367,2011,percent
49.5,Health_Insurance_Coverage_Percent_With_Private_Coverage,48375,2011,percent
73.6,Health_Insurance_Coverage_Percent_With_Private_Coverage,48381,2011,percent
76.8,Health_Insurance_Coverage_Percent_With_Private_Coverage,48397,2011,percent
52.6,Health_Insurance_Coverage_Percent_With_Private_Coverage,48409,2011,percent
60.2,Health_Insurance_Coverage_Percent_With_Private_Coverage,48423,2011,percent
61,Health_Insurance_Coverage_Percent_With_Private_Coverage,48439,2011,percent
62.4,Health_Insurance_Coverage_Percent_With_Private_Coverage,48441,2011,percent
58.7,Health_Insurance_Coverage_Percent_With_Private_Coverage,48451,2011,percent
64.2,Health_Insurance_Coverage_Percent_With_Private_Coverage,48453,2011,percent
59.3,Health_Insurance_Coverage_Percent_With_Private_Coverage,48469,2011,percent
65,Health_Insurance_Coverage_Percent_With_Private_Coverage,48471,2011,percent
33.2,Health_Insurance_Coverage_Percent_With_Private_Coverage,48479,2011,percent
64.2,Health_Insurance_Coverage_Percent_With_Private_Coverage,48485,2011,percent
74.9,Health_Insurance_Coverage_Percent_With_Private_Coverage,48491,2011,percent
76.4,Health_Insurance_Coverage_Percent_With_Private_Coverage,49005,2011,percent
80.7,Health_Insurance_Coverage_Percent_With_Private_Coverage,49011,2011,percent
71.4,Health_Insurance_Coverage_Percent_With_Private_Coverage,49035,2011,percent
75.4,Health_Insurance_Coverage_Percent_With_Private_Coverage,49049,2011,percent
62.6,Health_Insurance_Coverage_Percent_With_Private_Coverage,49053,2011,percent
73.3,Health_Insurance_Coverage_Percent_With_Private_Coverage,49057,2011,percent
77.5,Health_Insurance_Coverage_Percent_With_Private_Coverage,50007,2011,percent
80.4,Health_Insurance_Coverage_Percent_With_Private_Coverage,51003,2011,percent
84.7,Health_Insurance_Coverage_Percent_With_Private_Coverage,51013,2011,percent
74.7,Health_Insurance_Coverage_Percent_With_Private_Coverage,51015,2011,percent
77.4,Health_Insurance_Coverage_Percent_With_Private_Coverage,51019,2011,percent
79,Health_Insurance_Coverage_Percent_With_Private_Coverage,51041,2011,percent
80.5,Health_Insurance_Coverage_Percent_With_Private_Coverage,51059,2011,percent
79.1,Health_Insurance_Coverage_Percent_With_Private_Coverage,51061,2011,percent
78.4,Health_Insurance_Coverage_Percent_With_Private_Coverage,51069,2011,percent
84,Health_Insurance_Coverage_Percent_With_Private_Coverage,51085,2011,percent
76,Health_Insurance_Coverage_Percent_With_Private_Coverage,51087,2011,percent
84.4,Health_Insurance_Coverage_Percent_With_Private_Coverage,51095,2011,percent
84.9,Health_Insurance_Coverage_Percent_With_Private_Coverage,51107,2011,percent
84.3,Health_Insurance_Coverage_Percent_With_Private_Coverage,51121,2011,percent
77.5,Health_Insurance_Coverage_Percent_With_Private_Coverage,51153,2011,percent
79.3,Health_Insurance_Coverage_Percent_With_Private_Coverage,51161,2011,percent
70.2,Health_Insurance_Coverage_Percent_With_Private_Coverage,51165,2011,percent
77.5,Health_Insurance_Coverage_Percent_With_Private_Coverage,51177,2011,percent
84.2,Health_Insurance_Coverage_Percent_With_Private_Coverage,51179,2011,percent
90.4,Health_Insurance_Coverage_Percent_With_Private_Coverage,51199,2011,percent
76.1,Health_Insurance_Coverage_Percent_With_Private_Coverage,51510,2011,percent
77.7,Health_Insurance_Coverage_Percent_With_Private_Coverage,51550,2011,percent
71.4,Health_Insurance_Coverage_Percent_With_Private_Coverage,51650,2011,percent
70.4,Health_Insurance_Coverage_Percent_With_Private_Coverage,51680,2011,percent
68.8,Health_Insurance_Coverage_Percent_With_Private_Coverage,51700,2011,percent
63.8,Health_Insurance_Coverage_Percent_With_Private_Coverage,51710,2011,percent
62.5,Health_Insurance_Coverage_Percent_With_Private_Coverage,51740,2011,percent
60.6,Health_Insurance_Coverage_Percent_With_Private_Coverage,51760,2011,percent
60,Health_Insurance_Coverage_Percent_With_Private_Coverage,51770,2011,percent
73.4,Health_Insurance_Coverage_Percent_With_Private_Coverage,51800,2011,percent
79.7,Health_Insurance_Coverage_Percent_With_Private_Coverage,51810,2011,percent
63.5,Health_Insurance_Coverage_Percent_With_Private_Coverage,53005,2011,percent
62.2,Health_Insurance_Coverage_Percent_With_Private_Coverage,53007,2011,percent
63,Health_Insurance_Coverage_Percent_With_Private_Coverage,53009,2011,percent
68.9,Health_Insurance_Coverage_Percent_With_Private_Coverage,53011,2011,percent
57.5,Health_Insurance_Coverage_Percent_With_Private_Coverage,53015,2011,percent
53.7,Health_Insurance_Coverage_Percent_With_Private_Coverage,53021,2011,percent
50.5,Health_Insurance_Coverage_Percent_With_Private_Coverage,53025,2011,percent
55.8,Health_Insurance_Coverage_Percent_With_Private_Coverage,53027,2011,percent
73.5,Health_Insurance_Coverage_Percent_With_Private_Coverage,53029,2011,percent
74.7,Health_Insurance_Coverage_Percent_With_Private_Coverage,53033,2011,percent
75.4,Health_Insurance_Coverage_Percent_With_Private_Coverage,53035,2011,percent
56.2,Health_Insurance_Coverage_Percent_With_Private_Coverage,53041,2011,percent
68.7,Health_Insurance_Coverage_Percent_With_Private_Coverage,53053,2011,percent
62.4,Health_Insurance_Coverage_Percent_With_Private_Coverage,53057,2011,percent
71.6,Health_Insurance_Coverage_Percent_With_Private_Coverage,53061,2011,percent
66.2,Health_Insurance_Coverage_Percent_With_Private_Coverage,53063,2011,percent
77,Health_Insurance_Coverage_Percent_With_Private_Coverage,53067,2011,percent
67.8,Health_Insurance_Coverage_Percent_With_Private_Coverage,53073,2011,percent
52.5,Health_Insurance_Coverage_Percent_With_Private_Coverage,53077,2011,percent
68.7,Health_Insurance_Coverage_Percent_With_Private_Coverage,54003,2011,percent
65.3,Health_Insurance_Coverage_Percent_With_Private_Coverage,54011,2011,percent
59.1,Health_Insurance_Coverage_Percent_With_Private_Coverage,54033,2011,percent
64.5,Health_Insurance_Coverage_Percent_With_Private_Coverage,54039,2011,percent
76.2,Health_Insurance_Coverage_Percent_With_Private_Coverage,54061,2011,percent
63.9,Health_Insurance_Coverage_Percent_With_Private_Coverage,54081,2011,percent
58.6,Health_Insurance_Coverage_Percent_With_Private_Coverage,54107,2011,percent
71.3,Health_Insurance_Coverage_Percent_With_Private_Coverage,55009,2011,percent
81.9,Health_Insurance_Coverage_Percent_With_Private_Coverage,55025,2011,percent
74.8,Health_Insurance_Coverage_Percent_With_Private_Coverage,55027,2011,percent
73.8,Health_Insurance_Coverage_Percent_With_Private_Coverage,55035,2011,percent
74.8,Health_Insurance_Coverage_Percent_With_Private_Coverage,55039,2011,percent
77.7,Health_Insurance_Coverage_Percent_With_Private_Coverage,55055,2011,percent
69.9,Health_Insurance_Coverage_Percent_With_Private_Coverage,55059,2011,percent
74.5,Health_Insurance_Coverage_Percent_With_Private_Coverage,55063,2011,percent
75.4,Health_Insurance_Coverage_Percent_With_Private_Coverage,55071,2011,percent
73.9,Health_Insurance_Coverage_Percent_With_Private_Coverage,55073,2011,percent
58.2,Health_Insurance_Coverage_Percent_With_Private_Coverage,55079,2011,percent
77,Health_Insurance_Coverage_Percent_With_Private_Coverage,55087,2011,percent
84.6,Health_Insurance_Coverage_Percent_With_Private_Coverage,55089,2011,percent
75.8,Health_Insurance_Coverage_Percent_With_Private_Coverage,55097,2011,percent
68.6,Health_Insurance_Coverage_Percent_With_Private_Coverage,55101,2011,percent
67.2,Health_Insurance_Coverage_Percent_With_Private_Coverage,55105,2011,percent
79.9,Health_Insurance_Coverage_Percent_With_Private_Coverage,55109,2011,percent
74,Health_Insurance_Coverage_Percent_With_Private_Coverage,55117,2011,percent
76.9,Health_Insurance_Coverage_Percent_With_Private_Coverage,55127,2011,percent
82.7,Health_Insurance_Coverage_Percent_With_Private_Coverage,55131,2011,percent
83.5,Health_Insurance_Coverage_Percent_With_Private_Coverage,55133,2011,percent
74.1,Health_Insurance_Coverage_Percent_With_Private_Coverage,55139,2011,percent
70.9,Health_Insurance_Coverage_Percent_With_Private_Coverage,55141,2011,percent
75.8,Health_Insurance_Coverage_Percent_With_Private_Coverage,56021,2011,percent
67.6,Health_Insurance_Coverage_Percent_With_Private_Coverage,56025,2011,percent
37.3,Health_Insurance_Coverage_Percent_With_Private_Coverage,72013,2011,percent
52.9,Health_Insurance_Coverage_Percent_With_Private_Coverage,72021,2011,percent
46.1,Health_Insurance_Coverage_Percent_With_Private_Coverage,72025,2011,percent
50.3,Health_Insurance_Coverage_Percent_With_Private_Coverage,72031,2011,percent
61.7,Health_Insurance_Coverage_Percent_With_Private_Coverage,72061,2011,percent
37.1,Health_Insurance_Coverage_Percent_With_Private_Coverage,72097,2011,percent
36,Health_Insurance_Coverage_Percent_With_Private_Coverage,72113,2011,percent
49.1,Health_Insurance_Coverage_Percent_With_Private_Coverage,72127,2011,percent
49.5,Health_Insurance_Coverage_Percent_With_Private_Coverage,72135,2011,percent
43.3,Health_Insurance_Coverage_Percent_With_Private_Coverage,72137,2011,percent
56.2,Health_Insurance_Coverage_Percent_With_Private_Coverage,72139,2011,percent
