value,variable,FIPS,Date,units
"50,770",median_family_income,01,2007,dollars
"72,865",median_family_income,02,2007,dollars
"58,627",median_family_income,04,2007,dollars
"47,021",median_family_income,05,2007,dollars
"67,484",median_family_income,06,2007,dollars
"67,491",median_family_income,08,2007,dollars
"81,421",median_family_income,09,2007,dollars
"66,198",median_family_income,10,2007,dollars
"66,672",median_family_income,11,2007,dollars
"56,966",median_family_income,12,2007,dollars
"58,403",median_family_income,13,2007,dollars
"73,879",median_family_income,15,2007,dollars
"54,342",median_family_income,16,2007,dollars
"65,761",median_family_income,17,2007,dollars
"57,734",median_family_income,18,2007,dollars
"59,587",median_family_income,19,2007,dollars
"60,510",median_family_income,20,2007,dollars
"50,291",median_family_income,21,2007,dollars
"50,727",median_family_income,22,2007,dollars
"56,266",median_family_income,23,2007,dollars
"82,404",median_family_income,24,2007,dollars
"78,497",median_family_income,25,2007,dollars
"59,618",median_family_income,26,2007,dollars
"69,172",median_family_income,27,2007,dollars
"44,769",median_family_income,28,2007,dollars
"55,947",median_family_income,29,2007,dollars
"53,497",median_family_income,30,2007,dollars
"58,587",median_family_income,31,2007,dollars
"62,842",median_family_income,32,2007,dollars
"74,625",median_family_income,33,2007,dollars
"81,823",median_family_income,34,2007,dollars
"49,658",median_family_income,35,2007,dollars
"64,602",median_family_income,36,2007,dollars
"55,028",median_family_income,37,2007,dollars
"58,827",median_family_income,38,2007,dollars
"58,374",median_family_income,39,2007,dollars
"51,787",median_family_income,40,2007,dollars
"59,152",median_family_income,41,2007,dollars
"60,825",median_family_income,42,2007,dollars
"70,187",median_family_income,44,2007,dollars
"52,913",median_family_income,45,2007,dollars
"53,910",median_family_income,46,2007,dollars
"51,945",median_family_income,47,2007,dollars
"55,742",median_family_income,48,2007,dollars
"62,432",median_family_income,49,2007,dollars
"61,561",median_family_income,50,2007,dollars
"70,894",median_family_income,51,2007,dollars
"66,642",median_family_income,53,2007,dollars
"46,338",median_family_income,54,2007,dollars
"62,804",median_family_income,55,2007,dollars
"63,947",median_family_income,56,2007,dollars
"46,086",median_family_income,01,2005,dollars
"67,084",median_family_income,02,2005,dollars
"51,458",median_family_income,04,2005,dollars
"43,134",median_family_income,05,2005,dollars
"61,476",median_family_income,06,2005,dollars
"62,470",median_family_income,08,2005,dollars
"75,541",median_family_income,09,2005,dollars
"63,863",median_family_income,10,2005,dollars
"51,411",median_family_income,11,2005,dollars
"50,465",median_family_income,12,2005,dollars
"53,744",median_family_income,13,2005,dollars
"66,472",median_family_income,15,2005,dollars
"48,775",median_family_income,16,2005,dollars
"61,174",median_family_income,17,2005,dollars
"54,077",median_family_income,18,2005,dollars
"54,971",median_family_income,19,2005,dollars
"53,998",median_family_income,20,2005,dollars
"46,214",median_family_income,21,2005,dollars
"45,730",median_family_income,22,2005,dollars
"52,338",median_family_income,23,2005,dollars
"74,879",median_family_income,24,2005,dollars
"71,655",median_family_income,25,2005,dollars
"57,277",median_family_income,26,2005,dollars
"63,998",median_family_income,27,2005,dollars
"40,917",median_family_income,28,2005,dollars
"51,477",median_family_income,29,2005,dollars
"47,959",median_family_income,30,2005,dollars
"55,073",median_family_income,31,2005,dollars
"57,079",median_family_income,32,2005,dollars
"67,354",median_family_income,33,2005,dollars
"75,311",median_family_income,34,2005,dollars
"44,097",median_family_income,35,2005,dollars
"59,686",median_family_income,36,2005,dollars
"49,339",median_family_income,37,2005,dollars
"53,103",median_family_income,38,2005,dollars
"54,086",median_family_income,39,2005,dollars
"45,990",median_family_income,40,2005,dollars
"52,698",median_family_income,41,2005,dollars
"55,904",median_family_income,42,2005,dollars
"64,657",median_family_income,44,2005,dollars
"48,100",median_family_income,45,2005,dollars
"50,461",median_family_income,46,2005,dollars
"47,950",median_family_income,47,2005,dollars
"49,769",median_family_income,48,2005,dollars
"54,595",median_family_income,49,2005,dollars
"57,170",median_family_income,50,2005,dollars
"65,174",median_family_income,51,2005,dollars
"60,077",median_family_income,53,2005,dollars
"42,821",median_family_income,54,2005,dollars
"58,647",median_family_income,55,2005,dollars
"55,343",median_family_income,56,2005,dollars
