value,variable,FIPS,Date,units
"4,925",manufacturing_establishments,01,2007,count
506,manufacturing_establishments,02,2007,count
"5,038",manufacturing_establishments,04,2007,count
"3,096",manufacturing_establishments,05,2007,count
"44,262",manufacturing_establishments,06,2007,count
"5,273",manufacturing_establishments,08,2007,count
"4,924",manufacturing_establishments,09,2007,count
650,manufacturing_establishments,10,2007,count
134,manufacturing_establishments,11,2007,count
"14,265",manufacturing_establishments,12,2007,count
"8,699",manufacturing_establishments,13,2007,count
971,manufacturing_establishments,15,2007,count
"1,960",manufacturing_establishments,16,2007,count
"15,692",manufacturing_establishments,17,2007,count
"8,956",manufacturing_establishments,18,2007,count
"3,796",manufacturing_establishments,19,2007,count
"3,184",manufacturing_establishments,20,2007,count
"4,143",manufacturing_establishments,21,2007,count
"3,399",manufacturing_establishments,22,2007,count
"1,813",manufacturing_establishments,23,2007,count
"3,626",manufacturing_establishments,24,2007,count
"7,656",manufacturing_establishments,25,2007,count
"13,603",manufacturing_establishments,26,2007,count
"7,940",manufacturing_establishments,27,2007,count
"2,613",manufacturing_establishments,28,2007,count
"6,868",manufacturing_establishments,29,2007,count
"1,301",manufacturing_establishments,30,2007,count
"1,990",manufacturing_establishments,31,2007,count
"2,022",manufacturing_establishments,32,2007,count
"2,080",manufacturing_establishments,33,2007,count
"9,216",manufacturing_establishments,34,2007,count
"1,540",manufacturing_establishments,35,2007,count
"18,727",manufacturing_establishments,36,2007,count
"10,105",manufacturing_establishments,37,2007,count
758,manufacturing_establishments,38,2007,count
"16,174",manufacturing_establishments,39,2007,count
"3,961",manufacturing_establishments,40,2007,count
"5,700",manufacturing_establishments,41,2007,count
"15,381",manufacturing_establishments,42,2007,count
"1,807",manufacturing_establishments,44,2007,count
"4,345",manufacturing_establishments,45,2007,count
"1,057",manufacturing_establishments,46,2007,count
"6,729",manufacturing_establishments,47,2007,count
"21,045",manufacturing_establishments,48,2007,count
"3,345",manufacturing_establishments,49,2007,count
"1,085",manufacturing_establishments,50,2007,count
"5,743",manufacturing_establishments,51,2007,count
"7,629",manufacturing_establishments,53,2007,count
"1,407",manufacturing_establishments,54,2007,count
"9,646",manufacturing_establishments,55,2007,count
570,manufacturing_establishments,56,2007,count
