value,variable,FIPS,Date,units
25.3,Divorces,01,1990,1000
2.9,Divorces,02,1990,1000
25.1,Divorces,04,1990,1000
16.8,Divorces,05,1990,1000
128.0,Divorces,06,1990,1000
18.4,Divorces,08,1990,1000
10.3,Divorces,09,1990,1000
3.0,Divorces,10,1990,1000
2.7,Divorces,11,1990,1000
81.7,Divorces,12,1990,1000
35.7,Divorces,13,1990,1000
5.2,Divorces,15,1990,1000
6.6,Divorces,16,1990,1000
44.3,Divorces,17,1990,1000
(NA),Divorces,18,1990,1000
11.1,Divorces,19,1990,1000
12.6,Divorces,20,1990,1000
21.8,Divorces,21,1990,1000
(NA),Divorces,22,1990,1000
5.3,Divorces,23,1990,1000
16.1,Divorces,24,1990,1000
16.8,Divorces,25,1990,1000
40.2,Divorces,26,1990,1000
15.4,Divorces,27,1990,1000
14.4,Divorces,28,1990,1000
26.4,Divorces,29,1990,1000
4.1,Divorces,30,1990,1000
6.5,Divorces,31,1990,1000
13.3,Divorces,32,1990,1000
5.3,Divorces,33,1990,1000
23.6,Divorces,34,1990,1000
7.7,Divorces,35,1990,1000
57.9,Divorces,36,1990,1000
34.0,Divorces,37,1990,1000
2.3,Divorces,38,1990,1000
51.0,Divorces,39,1990,1000
24.9,Divorces,40,1990,1000
15.9,Divorces,41,1990,1000
40.1,Divorces,42,1990,1000
3.8,Divorces,44,1990,1000
16.1,Divorces,45,1990,1000
2.6,Divorces,46,1990,1000
32.3,Divorces,47,1990,1000
94.0,Divorces,48,1990,1000
8.8,Divorces,49,1990,1000
2.6,Divorces,50,1990,1000
27.3,Divorces,51,1990,1000
28.8,Divorces,53,1990,1000
9.7,Divorces,54,1990,1000
17.8,Divorces,55,1990,1000
3.1,Divorces,56,1990,1000
23.5,Divorces,01,2000,1000
2.7,Divorces,02,2000,1000
21.6,Divorces,04,2000,1000
17.9,Divorces,05,2000,1000
(NA),Divorces,06,2000,1000
(NA),Divorces,08,2000,1000
6.5,Divorces,09,2000,1000
3.2,Divorces,10,2000,1000
1.5,Divorces,11,2000,1000
81.9,Divorces,12,2000,1000
30.7,Divorces,13,2000,1000
4.6,Divorces,15,2000,1000
6.9,Divorces,16,2000,1000
39.1,Divorces,17,2000,1000
(NA),Divorces,18,2000,1000
9.4,Divorces,19,2000,1000
10.6,Divorces,20,2000,1000
21.6,Divorces,21,2000,1000
(NA),Divorces,22,2000,1000
5.8,Divorces,23,2000,1000
17.0,Divorces,24,2000,1000
18.6,Divorces,25,2000,1000
39.4,Divorces,26,2000,1000
14.8,Divorces,27,2000,1000
14.4,Divorces,28,2000,1000
26.5,Divorces,29,2000,1000
2.1,Divorces,30,2000,1000
6.4,Divorces,31,2000,1000
18.1,Divorces,32,2000,1000
7.1,Divorces,33,2000,1000
25.6,Divorces,34,2000,1000
9.2,Divorces,35,2000,1000
62.8,Divorces,36,2000,1000
36.9,Divorces,37,2000,1000
2.0,Divorces,38,2000,1000
49.3,Divorces,39,2000,1000
12.4,Divorces,40,2000,1000
16.7,Divorces,41,2000,1000
37.9,Divorces,42,2000,1000
3.1,Divorces,44,2000,1000
14.4,Divorces,45,2000,1000
2.7,Divorces,46,2000,1000
33.8,Divorces,47,2000,1000
85.2,Divorces,48,2000,1000
9.7,Divorces,49,2000,1000
5.1,Divorces,50,2000,1000
30.2,Divorces,51,2000,1000
27.2,Divorces,53,2000,1000
9.3,Divorces,54,2000,1000
17.6,Divorces,55,2000,1000
2.8,Divorces,56,2000,1000
22.4,Divorces,01,2005,1000
2.9,Divorces,02,2005,1000
24.5,Divorces,04,2005,1000
16.7,Divorces,05,2005,1000
  (NA),Divorces,06,2005,1000
20.5,Divorces,08,2005,1000
10.6,Divorces,09,2005,1000
3.3,Divorces,10,2005,1000
1.1,Divorces,11,2005,1000
81.3,Divorces,12,2005,1000
  (NA),Divorces,13,2005,1000
  (NA),Divorces,15,2005,1000
7.1,Divorces,16,2005,1000
32.4,Divorces,17,2005,1000
  (NA),Divorces,18,2005,1000
8.1,Divorces,19,2005,1000
8.5,Divorces,20,2005,1000
19.3,Divorces,21,2005,1000
  (NA),Divorces,22,2005,1000
5.4,Divorces,23,2005,1000
17.2,Divorces,24,2005,1000
14.4,Divorces,25,2005,1000
34.6,Divorces,26,2005,1000
  (NA),Divorces,27,2005,1000
12.8,Divorces,28,2005,1000
21.0,Divorces,29,2005,1000
4.2,Divorces,30,2005,1000
5.9,Divorces,31,2005,1000
18.1,Divorces,32,2005,1000
5.0,Divorces,33,2005,1000
25.3,Divorces,34,2005,1000
8.8,Divorces,35,2005,1000
54.7,Divorces,36,2005,1000
35.7,Divorces,37,2005,1000
1.9,Divorces,38,2005,1000
40.2,Divorces,39,2005,1000
20.0,Divorces,40,2005,1000
15.0,Divorces,41,2005,1000
29.1,Divorces,42,2005,1000
3.2,Divorces,44,2005,1000
12.4,Divorces,45,2005,1000
2.2,Divorces,46,2005,1000
27.8,Divorces,47,2005,1000
76.0,Divorces,48,2005,1000
10.0,Divorces,49,2005,1000
2.2,Divorces,50,2005,1000
30.1,Divorces,51,2005,1000
27.0,Divorces,53,2005,1000
9.2,Divorces,54,2005,1000
16.3,Divorces,55,2005,1000
2.7,Divorces,56,2005,1000
22.9,Divorces,01,2006,1000
2.8,Divorces,02,2006,1000
24.3,Divorces,04,2006,1000
16.5,Divorces,05,2006,1000
  (NA),Divorces,06,2006,1000
21.1,Divorces,08,2006,1000
11.0,Divorces,09,2006,1000
3.2,Divorces,10,2006,1000
1.2,Divorces,11,2006,1000
86.0,Divorces,12,2006,1000
  (NA),Divorces,13,2006,1000
  (NA),Divorces,15,2006,1000
7.4,Divorces,16,2006,1000
32.2,Divorces,17,2006,1000
  (NA),Divorces,18,2006,1000
7.9,Divorces,19,2006,1000
8.5,Divorces,20,2006,1000
21.1,Divorces,21,2006,1000
  (NA),Divorces,22,2006,1000
5.6,Divorces,23,2006,1000
17.1,Divorces,24,2006,1000
14.6,Divorces,25,2006,1000
35.0,Divorces,26,2006,1000
  (NA),Divorces,27,2006,1000
14.0,Divorces,28,2006,1000
22.2,Divorces,29,2006,1000
4.2,Divorces,30,2006,1000
6.1,Divorces,31,2006,1000
17.0,Divorces,32,2006,1000
5.3,Divorces,33,2006,1000
25.8,Divorces,34,2006,1000
8.4,Divorces,35,2006,1000
59.5,Divorces,36,2006,1000
35.8,Divorces,37,2006,1000
2.0,Divorces,38,2006,1000
40.1,Divorces,39,2006,1000
19.0,Divorces,40,2006,1000
14.9,Divorces,41,2006,1000
35.3,Divorces,42,2006,1000
3.2,Divorces,44,2006,1000
12.8,Divorces,45,2006,1000
2.5,Divorces,46,2006,1000
28.1,Divorces,47,2006,1000
79.5,Divorces,48,2006,1000
9.9,Divorces,49,2006,1000
2.4,Divorces,50,2006,1000
30.6,Divorces,51,2006,1000
26.2,Divorces,53,2006,1000
9.2,Divorces,54,2006,1000
16.7,Divorces,55,2006,1000
2.7,Divorces,56,2006,1000
21.3,Divorces,01,2007,1000
2.9,Divorces,02,2007,1000
24.5,Divorces,04,2007,1000
16.9,Divorces,05,2007,1000
  (NA),Divorces,06,2007,1000
21.2,Divorces,08,2007,1000
11.2,Divorces,09,2007,1000
3.2,Divorces,10,2007,1000
1.0,Divorces,11,2007,1000
84.4,Divorces,12,2007,1000
  (NA),Divorces,13,2007,1000
  (NA),Divorces,15,2007,1000
7.3,Divorces,16,2007,1000
33.2,Divorces,17,2007,1000
  (NA),Divorces,18,2007,1000
7.6,Divorces,19,2007,1000
9.4,Divorces,20,2007,1000
19.7,Divorces,21,2007,1000
  (NA),Divorces,22,2007,1000
5.6,Divorces,23,2007,1000
16.7,Divorces,24,2007,1000
14.6,Divorces,25,2007,1000
34.5,Divorces,26,2007,1000
  (NA),Divorces,27,2007,1000
13.1,Divorces,28,2007,1000
22.2,Divorces,29,2007,1000
3.9,Divorces,30,2007,1000
6.2,Divorces,31,2007,1000
16.6,Divorces,32,2007,1000
5.0,Divorces,33,2007,1000
25.7,Divorces,34,2007,1000
8.4,Divorces,35,2007,1000
55.1,Divorces,36,2007,1000
36.2,Divorces,37,2007,1000
1.9,Divorces,38,2007,1000
38.9,Divorces,39,2007,1000
19.0,Divorces,40,2007,1000
14.5,Divorces,41,2007,1000
35.5,Divorces,42,2007,1000
3.0,Divorces,44,2007,1000
13.2,Divorces,45,2007,1000
2.4,Divorces,46,2007,1000
26.5,Divorces,47,2007,1000
77.8,Divorces,48,2007,1000
9.5,Divorces,49,2007,1000
2.3,Divorces,50,2007,1000
29.5,Divorces,51,2007,1000
26.1,Divorces,53,2007,1000
9.3,Divorces,54,2007,1000
16.5,Divorces,55,2007,1000
2.6,Divorces,56,2007,1000
19.5,Divorces,01,2008,1000
2.9,Divorces,02,2008,1000
24.0,Divorces,04,2008,1000
15.9,Divorces,05,2008,1000
(NA),Divorces,06,2008,1000
21.0,Divorces,08,2008,1000
11.4,Divorces,09,2008,1000
3.1,Divorces,10,2008,1000
1.5,Divorces,11,2008,1000
82.1,Divorces,12,2008,1000
(NA),Divorces,13,2008,1000
(NA),Divorces,15,2008,1000
7.2,Divorces,16,2008,1000
32.2,Divorces,17,2008,1000
(NA),Divorces,18,2008,1000
7.3,Divorces,19,2008,1000
10.0,Divorces,20,2008,1000
21.0,Divorces,21,2008,1000
(NA),Divorces,22,2008,1000
4.7,Divorces,23,2008,1000
16.2,Divorces,24,2008,1000
13.0,Divorces,25,2008,1000
33.8,Divorces,26,2008,1000
(NA),Divorces,27,2008,1000
13.0,Divorces,28,2008,1000
22.5,Divorces,29,2008,1000
3.4,Divorces,30,2008,1000
6.1,Divorces,31,2008,1000
16.9,Divorces,32,2008,1000
4.9,Divorces,33,2008,1000
25.8,Divorces,34,2008,1000
8.1,Divorces,35,2008,1000
52.3,Divorces,36,2008,1000
35.1,Divorces,37,2008,1000
1.8,Divorces,38,2008,1000
39.0,Divorces,39,2008,1000
18.1,Divorces,40,2008,1000
15.0,Divorces,41,2008,1000
34.1,Divorces,42,2008,1000
2.8,Divorces,44,2008,1000
11.4,Divorces,45,2008,1000
2.5,Divorces,46,2008,1000
26.4,Divorces,47,2008,1000
77.6,Divorces,48,2008,1000
9.5,Divorces,49,2008,1000
2.2,Divorces,50,2008,1000
29.7,Divorces,51,2008,1000
24.6,Divorces,53,2008,1000
8.6,Divorces,54,2008,1000
17.1,Divorces,55,2008,1000
2.7,Divorces,56,2008,1000
