value,variable,FIPS,Date,units
"131,695",foreign_born,1,2008,count
"44,296",foreign_born,2,2008,count
"932,518",foreign_born,4,2008,count
"109,257",foreign_born,5,2008,count
"9,859,027",foreign_born,6,2008,count
"499,179",foreign_born,8,2008,count
"454,002",foreign_born,9,2008,count
"66,793",foreign_born,10,2008,count
"77,884",foreign_born,11,2008,count
"3,391,511",foreign_born,12,2008,count
"910,473",foreign_born,13,2008,count
"229,348",foreign_born,15,2008,count
"89,489",foreign_born,16,2008,count
"1,782,423",foreign_born,17,2008,count
"256,125",foreign_born,18,2008,count
"112,289",foreign_born,19,2008,count
"164,118",foreign_born,20,2008,count
"119,503",foreign_born,21,2008,count
"134,704",foreign_born,22,2008,count
"39,378",foreign_born,23,2008,count
"697,609",foreign_born,24,2008,count
"937,200",foreign_born,25,2008,count
"582,742",foreign_born,26,2008,count
"340,657",foreign_born,27,2008,count
"60,555",foreign_born,28,2008,count
"215,214",foreign_born,29,2008,count
"21,285",foreign_born,30,2008,count
"97,815",foreign_born,31,2008,count
"490,717",foreign_born,32,2008,count
"65,581",foreign_born,33,2008,count
"1,718,034",foreign_born,34,2008,count
"191,025",foreign_born,35,2008,count
"4,236,768",foreign_born,36,2008,count
"641,130",foreign_born,37,2008,count
"15,013",foreign_born,38,2008,count
"427,040",foreign_born,39,2008,count
"183,249",foreign_born,40,2008,count
"366,405",foreign_born,41,2008,count
"660,426",foreign_born,42,2008,count
"128,453",foreign_born,44,2008,count
"195,069",foreign_born,45,2008,count
"14,894",foreign_born,46,2008,count
"248,483",foreign_born,47,2008,count
"3,887,224",foreign_born,48,2008,count
"226,440",foreign_born,49,2008,count
"24,525",foreign_born,50,2008,count
"795,712",foreign_born,51,2008,count
"804,364",foreign_born,53,2008,count
"23,273",foreign_born,54,2008,count
"247,649",foreign_born,55,2008,count
"12,372",foreign_born,56,2008,count
