value,variable,FIPS,Date,units
82,children_without_health_insurance,1,2007,1000
21,children_without_health_insurance,2,2007,1000
234,children_without_health_insurance,4,2007,1000
44,children_without_health_insurance,5,2007,1000
"1,013",children_without_health_insurance,6,2007,1000
157,children_without_health_insurance,8,2007,1000
43,children_without_health_insurance,9,2007,1000
16,children_without_health_insurance,10,2007,1000
7,children_without_health_insurance,11,2007,1000
785,children_without_health_insurance,12,2007,1000
289,children_without_health_insurance,13,2007,1000
14,children_without_health_insurance,15,2007,1000
46,children_without_health_insurance,16,2007,1000
210,children_without_health_insurance,17,2007,1000
83,children_without_health_insurance,18,2007,1000
34,children_without_health_insurance,19,2007,1000
54,children_without_health_insurance,20,2007,1000
82,children_without_health_insurance,21,2007,1000
137,children_without_health_insurance,22,2007,1000
14,children_without_health_insurance,23,2007,1000
146,children_without_health_insurance,24,2007,1000
43,children_without_health_insurance,25,2007,1000
149,children_without_health_insurance,26,2007,1000
80,children_without_health_insurance,27,2007,1000
94,children_without_health_insurance,28,2007,1000
150,children_without_health_insurance,29,2007,1000
28,children_without_health_insurance,30,2007,1000
45,children_without_health_insurance,31,2007,1000
94,children_without_health_insurance,32,2007,1000
19,children_without_health_insurance,33,2007,1000
270,children_without_health_insurance,34,2007,1000
77,children_without_health_insurance,35,2007,1000
395,children_without_health_insurance,36,2007,1000
272,children_without_health_insurance,37,2007,1000
11,children_without_health_insurance,38,2007,1000
239,children_without_health_insurance,39,2007,1000
116,children_without_health_insurance,40,2007,1000
92,children_without_health_insurance,41,2007,1000
207,children_without_health_insurance,42,2007,1000
21,children_without_health_insurance,44,2007,1000
152,children_without_health_insurance,45,2007,1000
16,children_without_health_insurance,46,2007,1000
135,children_without_health_insurance,47,2007,1000
"1,435",children_without_health_insurance,48,2007,1000
87,children_without_health_insurance,49,2007,1000
12,children_without_health_insurance,50,2007,1000
187,children_without_health_insurance,51,2007,1000
106,children_without_health_insurance,53,2007,1000
18,children_without_health_insurance,54,2007,1000
77,children_without_health_insurance,55,2007,1000
12,children_without_health_insurance,56,2007,1000
