value,variable,FIPS,Date,units
"170,993",family_income_75000_to_99999,01,2007,count
"26,413",family_income_75000_to_99999,02,2007,count
"217,132",family_income_75000_to_99999,04,2007,count
"89,124",family_income_75000_to_99999,05,2007,count
"1,141,470",family_income_75000_to_99999,06,2007,count
"191,040",family_income_75000_to_99999,08,2007,count
"139,730",family_income_75000_to_99999,09,2007,count
"35,912",family_income_75000_to_99999,10,2007,count
"11,511",family_income_75000_to_99999,11,2007,count
"633,754",family_income_75000_to_99999,12,2007,count
"328,717",family_income_75000_to_99999,13,2007,count
"52,760",family_income_75000_to_99999,15,2007,count
"58,099",family_income_75000_to_99999,16,2007,count
"492,906",family_income_75000_to_99999,17,2007,count
"265,679",family_income_75000_to_99999,18,2007,count
"131,049",family_income_75000_to_99999,19,2007,count
"113,596",family_income_75000_to_99999,20,2007,count
"153,714",family_income_75000_to_99999,21,2007,count
"140,477",family_income_75000_to_99999,22,2007,count
"52,753",family_income_75000_to_99999,23,2007,count
"218,590",family_income_75000_to_99999,24,2007,count
"250,572",family_income_75000_to_99999,25,2007,count
"383,730",family_income_75000_to_99999,26,2007,count
"236,623",family_income_75000_to_99999,27,2007,count
"85,689",family_income_75000_to_99999,28,2007,count
"222,250",family_income_75000_to_99999,29,2007,count
"34,069",family_income_75000_to_99999,30,2007,count
"74,074",family_income_75000_to_99999,31,2007,count
"101,711",family_income_75000_to_99999,32,2007,count
"61,735",family_income_75000_to_99999,33,2007,count
"339,007",family_income_75000_to_99999,34,2007,count
"60,988",family_income_75000_to_99999,35,2007,count
"635,804",family_income_75000_to_99999,36,2007,count
"324,279",family_income_75000_to_99999,37,2007,count
"26,673",family_income_75000_to_99999,38,2007,count
"445,602",family_income_75000_to_99999,39,2007,count
"125,976",family_income_75000_to_99999,40,2007,count
"144,107",family_income_75000_to_99999,41,2007,count
"479,245",family_income_75000_to_99999,42,2007,count
"44,456",family_income_75000_to_99999,44,2007,count
"164,248",family_income_75000_to_99999,45,2007,count
"30,405",family_income_75000_to_99999,46,2007,count
"202,620",family_income_75000_to_99999,47,2007,count
"760,830",family_income_75000_to_99999,48,2007,count
"103,710",family_income_75000_to_99999,49,2007,count
"26,632",family_income_75000_to_99999,50,2007,count
"294,005",family_income_75000_to_99999,51,2007,count
"255,593",family_income_75000_to_99999,53,2007,count
"62,028",family_income_75000_to_99999,54,2007,count
"252,240",family_income_75000_to_99999,55,2007,count
"23,378",family_income_75000_to_99999,56,2007,count
"143,418",family_income_75000_to_99999,01,2005,count
"26,235",family_income_75000_to_99999,02,2005,count
"185,473",family_income_75000_to_99999,04,2005,count
"80,424",family_income_75000_to_99999,05,2005,count
"1,137,025",family_income_75000_to_99999,06,2005,count
"180,213",family_income_75000_to_99999,08,2005,count
"150,438",family_income_75000_to_99999,09,2005,count
"35,553",family_income_75000_to_99999,10,2005,count
"10,284",family_income_75000_to_99999,11,2005,count
"570,806",family_income_75000_to_99999,12,2005,count
"311,082",family_income_75000_to_99999,13,2005,count
"49,079",family_income_75000_to_99999,15,2005,count
"48,526",family_income_75000_to_99999,16,2005,count
"472,223",family_income_75000_to_99999,17,2005,count
"238,459",family_income_75000_to_99999,18,2005,count
"118,300",family_income_75000_to_99999,19,2005,count
"99,976",family_income_75000_to_99999,20,2005,count
"135,861",family_income_75000_to_99999,21,2005,count
"138,441",family_income_75000_to_99999,22,2005,count
"48,323",family_income_75000_to_99999,23,2005,count
"230,668",family_income_75000_to_99999,24,2005,count
"252,575",family_income_75000_to_99999,25,2005,count
"382,262",family_income_75000_to_99999,26,2005,count
"224,814",family_income_75000_to_99999,27,2005,count
"77,123",family_income_75000_to_99999,28,2005,count
"201,585",family_income_75000_to_99999,29,2005,count
"27,759",family_income_75000_to_99999,30,2005,count
"67,233",family_income_75000_to_99999,31,2005,count
"87,565",family_income_75000_to_99999,32,2005,count
"58,954",family_income_75000_to_99999,33,2005,count
"330,293",family_income_75000_to_99999,34,2005,count
"51,963",family_income_75000_to_99999,35,2005,count
"623,551",family_income_75000_to_99999,36,2005,count
"282,177",family_income_75000_to_99999,37,2005,count
"23,226",family_income_75000_to_99999,38,2005,count
"425,832",family_income_75000_to_99999,39,2005,count
"106,769",family_income_75000_to_99999,40,2005,count
"125,392",family_income_75000_to_99999,41,2005,count
"462,128",family_income_75000_to_99999,42,2005,count
"40,909",family_income_75000_to_99999,44,2005,count
"134,745",family_income_75000_to_99999,45,2005,count
"26,389",family_income_75000_to_99999,46,2005,count
"194,479",family_income_75000_to_99999,47,2005,count
"690,882",family_income_75000_to_99999,48,2005,count
"85,466",family_income_75000_to_99999,49,2005,count
"22,611",family_income_75000_to_99999,50,2005,count
"289,301",family_income_75000_to_99999,51,2005,count
"233,069",family_income_75000_to_99999,53,2005,count
"51,622",family_income_75000_to_99999,54,2005,count
"242,502",family_income_75000_to_99999,55,2005,count
"21,103",family_income_75000_to_99999,56,2005,count
