value,variable,FIPS,Date,units
2.4,Percent_Commuting_To_Work_Other,1003,2011,percent
1.4,Percent_Commuting_To_Work_Other,1015,2011,percent
0.7,Percent_Commuting_To_Work_Other,1043,2011,percent
NA,Percent_Commuting_To_Work_Other,1049,2011,percent
1.5,Percent_Commuting_To_Work_Other,1051,2011,percent
0.6,Percent_Commuting_To_Work_Other,1055,2011,percent
2.6,Percent_Commuting_To_Work_Other,1069,2011,percent
0.9,Percent_Commuting_To_Work_Other,1073,2011,percent
1.4,Percent_Commuting_To_Work_Other,1077,2011,percent
1.8,Percent_Commuting_To_Work_Other,1081,2011,percent
0.7,Percent_Commuting_To_Work_Other,1083,2011,percent
1.9,Percent_Commuting_To_Work_Other,1089,2011,percent
1.6,Percent_Commuting_To_Work_Other,1095,2011,percent
0.6,Percent_Commuting_To_Work_Other,1097,2011,percent
0.3,Percent_Commuting_To_Work_Other,1101,2011,percent
0.2,Percent_Commuting_To_Work_Other,1103,2011,percent
NA,Percent_Commuting_To_Work_Other,1115,2011,percent
0.8,Percent_Commuting_To_Work_Other,1117,2011,percent
0.4,Percent_Commuting_To_Work_Other,1121,2011,percent
0.4,Percent_Commuting_To_Work_Other,1125,2011,percent
1,Percent_Commuting_To_Work_Other,1127,2011,percent
3.3,Percent_Commuting_To_Work_Other,2020,2011,percent
3.2,Percent_Commuting_To_Work_Other,2090,2011,percent
6.4,Percent_Commuting_To_Work_Other,2170,2011,percent
4.1,Percent_Commuting_To_Work_Other,4001,2011,percent
2.8,Percent_Commuting_To_Work_Other,4003,2011,percent
5,Percent_Commuting_To_Work_Other,4005,2011,percent
2.7,Percent_Commuting_To_Work_Other,4013,2011,percent
1.8,Percent_Commuting_To_Work_Other,4015,2011,percent
1.9,Percent_Commuting_To_Work_Other,4017,2011,percent
3.5,Percent_Commuting_To_Work_Other,4019,2011,percent
3,Percent_Commuting_To_Work_Other,4021,2011,percent
2.2,Percent_Commuting_To_Work_Other,4025,2011,percent
1.9,Percent_Commuting_To_Work_Other,4027,2011,percent
1.7,Percent_Commuting_To_Work_Other,5007,2011,percent
0.9,Percent_Commuting_To_Work_Other,5031,2011,percent
1.6,Percent_Commuting_To_Work_Other,5045,2011,percent
3.8,Percent_Commuting_To_Work_Other,5051,2011,percent
1.2,Percent_Commuting_To_Work_Other,5069,2011,percent
0.5,Percent_Commuting_To_Work_Other,5085,2011,percent
1.1,Percent_Commuting_To_Work_Other,5119,2011,percent
0.4,Percent_Commuting_To_Work_Other,5125,2011,percent
1,Percent_Commuting_To_Work_Other,5131,2011,percent
1.5,Percent_Commuting_To_Work_Other,5143,2011,percent
0.6,Percent_Commuting_To_Work_Other,5145,2011,percent
3.5,Percent_Commuting_To_Work_Other,6001,2011,percent
4.2,Percent_Commuting_To_Work_Other,6007,2011,percent
1.7,Percent_Commuting_To_Work_Other,6013,2011,percent
2.5,Percent_Commuting_To_Work_Other,6017,2011,percent
2.9,Percent_Commuting_To_Work_Other,6019,2011,percent
2.3,Percent_Commuting_To_Work_Other,6023,2011,percent
2.1,Percent_Commuting_To_Work_Other,6025,2011,percent
2.6,Percent_Commuting_To_Work_Other,6029,2011,percent
1.4,Percent_Commuting_To_Work_Other,6031,2011,percent
2.2,Percent_Commuting_To_Work_Other,6033,2011,percent
2,Percent_Commuting_To_Work_Other,6037,2011,percent
3.2,Percent_Commuting_To_Work_Other,6039,2011,percent
3.2,Percent_Commuting_To_Work_Other,6041,2011,percent
1.6,Percent_Commuting_To_Work_Other,6045,2011,percent
4.2,Percent_Commuting_To_Work_Other,6047,2011,percent
7.5,Percent_Commuting_To_Work_Other,6053,2011,percent
2.5,Percent_Commuting_To_Work_Other,6055,2011,percent
1.5,Percent_Commuting_To_Work_Other,6057,2011,percent
2,Percent_Commuting_To_Work_Other,6059,2011,percent
2.1,Percent_Commuting_To_Work_Other,6061,2011,percent
1.6,Percent_Commuting_To_Work_Other,6065,2011,percent
2.1,Percent_Commuting_To_Work_Other,6067,2011,percent
1.2,Percent_Commuting_To_Work_Other,6071,2011,percent
1.8,Percent_Commuting_To_Work_Other,6073,2011,percent
5.8,Percent_Commuting_To_Work_Other,6075,2011,percent
1.7,Percent_Commuting_To_Work_Other,6077,2011,percent
4.1,Percent_Commuting_To_Work_Other,6079,2011,percent
2.3,Percent_Commuting_To_Work_Other,6081,2011,percent
5.1,Percent_Commuting_To_Work_Other,6083,2011,percent
3,Percent_Commuting_To_Work_Other,6085,2011,percent
5.1,Percent_Commuting_To_Work_Other,6087,2011,percent
1.1,Percent_Commuting_To_Work_Other,6089,2011,percent
1.5,Percent_Commuting_To_Work_Other,6095,2011,percent
3,Percent_Commuting_To_Work_Other,6097,2011,percent
1.6,Percent_Commuting_To_Work_Other,6099,2011,percent
1.5,Percent_Commuting_To_Work_Other,6101,2011,percent
2.2,Percent_Commuting_To_Work_Other,6107,2011,percent
2,Percent_Commuting_To_Work_Other,6111,2011,percent
9,Percent_Commuting_To_Work_Other,6113,2011,percent
2.1,Percent_Commuting_To_Work_Other,6115,2011,percent
1.5,Percent_Commuting_To_Work_Other,8001,2011,percent
1.5,Percent_Commuting_To_Work_Other,8005,2011,percent
5.6,Percent_Commuting_To_Work_Other,8013,2011,percent
3.6,Percent_Commuting_To_Work_Other,8031,2011,percent
0.8,Percent_Commuting_To_Work_Other,8035,2011,percent
1.5,Percent_Commuting_To_Work_Other,8041,2011,percent
1.8,Percent_Commuting_To_Work_Other,8059,2011,percent
5.5,Percent_Commuting_To_Work_Other,8069,2011,percent
2.3,Percent_Commuting_To_Work_Other,8077,2011,percent
0.7,Percent_Commuting_To_Work_Other,8101,2011,percent
4,Percent_Commuting_To_Work_Other,8123,2011,percent
1.4,Percent_Commuting_To_Work_Other,9001,2011,percent
1.5,Percent_Commuting_To_Work_Other,9003,2011,percent
0.5,Percent_Commuting_To_Work_Other,9005,2011,percent
1.6,Percent_Commuting_To_Work_Other,9007,2011,percent
1.3,Percent_Commuting_To_Work_Other,9009,2011,percent
1.2,Percent_Commuting_To_Work_Other,9011,2011,percent
0.2,Percent_Commuting_To_Work_Other,9013,2011,percent
0.5,Percent_Commuting_To_Work_Other,9015,2011,percent
1,Percent_Commuting_To_Work_Other,10001,2011,percent
0.9,Percent_Commuting_To_Work_Other,10003,2011,percent
1.2,Percent_Commuting_To_Work_Other,10005,2011,percent
4.2,Percent_Commuting_To_Work_Other,11001,2011,percent
4.9,Percent_Commuting_To_Work_Other,12001,2011,percent
1.2,Percent_Commuting_To_Work_Other,12005,2011,percent
2.5,Percent_Commuting_To_Work_Other,12009,2011,percent
1.6,Percent_Commuting_To_Work_Other,12011,2011,percent
6.7,Percent_Commuting_To_Work_Other,12015,2011,percent
1.1,Percent_Commuting_To_Work_Other,12017,2011,percent
0.8,Percent_Commuting_To_Work_Other,12019,2011,percent
3.9,Percent_Commuting_To_Work_Other,12021,2011,percent
NA,Percent_Commuting_To_Work_Other,12023,2011,percent
1.9,Percent_Commuting_To_Work_Other,12031,2011,percent
1.4,Percent_Commuting_To_Work_Other,12033,2011,percent
NA,Percent_Commuting_To_Work_Other,12035,2011,percent
0.9,Percent_Commuting_To_Work_Other,12053,2011,percent
1.3,Percent_Commuting_To_Work_Other,12055,2011,percent
2.1,Percent_Commuting_To_Work_Other,12057,2011,percent
2.4,Percent_Commuting_To_Work_Other,12061,2011,percent
2.1,Percent_Commuting_To_Work_Other,12069,2011,percent
2.2,Percent_Commuting_To_Work_Other,12071,2011,percent
1.3,Percent_Commuting_To_Work_Other,12073,2011,percent
3.2,Percent_Commuting_To_Work_Other,12081,2011,percent
2.1,Percent_Commuting_To_Work_Other,12083,2011,percent
1.2,Percent_Commuting_To_Work_Other,12085,2011,percent
2,Percent_Commuting_To_Work_Other,12086,2011,percent
8.9,Percent_Commuting_To_Work_Other,12087,2011,percent
3.4,Percent_Commuting_To_Work_Other,12089,2011,percent
3.5,Percent_Commuting_To_Work_Other,12091,2011,percent
2.1,Percent_Commuting_To_Work_Other,12095,2011,percent
3.4,Percent_Commuting_To_Work_Other,12097,2011,percent
1.8,Percent_Commuting_To_Work_Other,12099,2011,percent
1.7,Percent_Commuting_To_Work_Other,12101,2011,percent
2.4,Percent_Commuting_To_Work_Other,12103,2011,percent
2.6,Percent_Commuting_To_Work_Other,12105,2011,percent
0.9,Percent_Commuting_To_Work_Other,12107,2011,percent
1.3,Percent_Commuting_To_Work_Other,12109,2011,percent
1.1,Percent_Commuting_To_Work_Other,12111,2011,percent
1.2,Percent_Commuting_To_Work_Other,12113,2011,percent
1.8,Percent_Commuting_To_Work_Other,12115,2011,percent
1.6,Percent_Commuting_To_Work_Other,12117,2011,percent
5.4,Percent_Commuting_To_Work_Other,12119,2011,percent
2.8,Percent_Commuting_To_Work_Other,12127,2011,percent
1.3,Percent_Commuting_To_Work_Other,13013,2011,percent
2,Percent_Commuting_To_Work_Other,13015,2011,percent
0.9,Percent_Commuting_To_Work_Other,13021,2011,percent
0.8,Percent_Commuting_To_Work_Other,13031,2011,percent
1,Percent_Commuting_To_Work_Other,13045,2011,percent
1.6,Percent_Commuting_To_Work_Other,13051,2011,percent
0.3,Percent_Commuting_To_Work_Other,13057,2011,percent
4.4,Percent_Commuting_To_Work_Other,13059,2011,percent
1.8,Percent_Commuting_To_Work_Other,13063,2011,percent
1.5,Percent_Commuting_To_Work_Other,13067,2011,percent
0.3,Percent_Commuting_To_Work_Other,13073,2011,percent
0.1,Percent_Commuting_To_Work_Other,13077,2011,percent
1.6,Percent_Commuting_To_Work_Other,13089,2011,percent
1.6,Percent_Commuting_To_Work_Other,13095,2011,percent
0.1,Percent_Commuting_To_Work_Other,13097,2011,percent
2.5,Percent_Commuting_To_Work_Other,13113,2011,percent
1.8,Percent_Commuting_To_Work_Other,13115,2011,percent
NA,Percent_Commuting_To_Work_Other,13117,2011,percent
1.5,Percent_Commuting_To_Work_Other,13121,2011,percent
1.4,Percent_Commuting_To_Work_Other,13127,2011,percent
2.8,Percent_Commuting_To_Work_Other,13135,2011,percent
0.5,Percent_Commuting_To_Work_Other,13139,2011,percent
0.9,Percent_Commuting_To_Work_Other,13151,2011,percent
0.8,Percent_Commuting_To_Work_Other,13153,2011,percent
1.8,Percent_Commuting_To_Work_Other,13179,2011,percent
4.6,Percent_Commuting_To_Work_Other,13185,2011,percent
1.1,Percent_Commuting_To_Work_Other,13215,2011,percent
0.2,Percent_Commuting_To_Work_Other,13217,2011,percent
0.6,Percent_Commuting_To_Work_Other,13223,2011,percent
1.1,Percent_Commuting_To_Work_Other,13245,2011,percent
2.4,Percent_Commuting_To_Work_Other,13247,2011,percent
7.4,Percent_Commuting_To_Work_Other,13285,2011,percent
0.6,Percent_Commuting_To_Work_Other,13295,2011,percent
0.6,Percent_Commuting_To_Work_Other,13297,2011,percent
1.9,Percent_Commuting_To_Work_Other,13313,2011,percent
2.5,Percent_Commuting_To_Work_Other,15001,2011,percent
3.5,Percent_Commuting_To_Work_Other,15003,2011,percent
1.6,Percent_Commuting_To_Work_Other,15007,2011,percent
2.8,Percent_Commuting_To_Work_Other,15009,2011,percent
2.9,Percent_Commuting_To_Work_Other,16001,2011,percent
2.2,Percent_Commuting_To_Work_Other,16005,2011,percent
1.6,Percent_Commuting_To_Work_Other,16019,2011,percent
5.7,Percent_Commuting_To_Work_Other,16027,2011,percent
2.1,Percent_Commuting_To_Work_Other,16055,2011,percent
1.1,Percent_Commuting_To_Work_Other,16083,2011,percent
1.3,Percent_Commuting_To_Work_Other,17001,2011,percent
2.7,Percent_Commuting_To_Work_Other,17019,2011,percent
2.1,Percent_Commuting_To_Work_Other,17031,2011,percent
1.3,Percent_Commuting_To_Work_Other,17037,2011,percent
1,Percent_Commuting_To_Work_Other,17043,2011,percent
1.7,Percent_Commuting_To_Work_Other,17089,2011,percent
2.3,Percent_Commuting_To_Work_Other,17091,2011,percent
1.7,Percent_Commuting_To_Work_Other,17093,2011,percent
1.7,Percent_Commuting_To_Work_Other,17097,2011,percent
1.8,Percent_Commuting_To_Work_Other,17099,2011,percent
0.6,Percent_Commuting_To_Work_Other,17111,2011,percent
2.4,Percent_Commuting_To_Work_Other,17113,2011,percent
1.4,Percent_Commuting_To_Work_Other,17115,2011,percent
1.5,Percent_Commuting_To_Work_Other,17119,2011,percent
1.2,Percent_Commuting_To_Work_Other,17143,2011,percent
1.5,Percent_Commuting_To_Work_Other,17161,2011,percent
0.9,Percent_Commuting_To_Work_Other,17163,2011,percent
1,Percent_Commuting_To_Work_Other,17167,2011,percent
0.5,Percent_Commuting_To_Work_Other,17179,2011,percent
1.3,Percent_Commuting_To_Work_Other,17183,2011,percent
1.8,Percent_Commuting_To_Work_Other,17197,2011,percent
1,Percent_Commuting_To_Work_Other,17199,2011,percent
0.7,Percent_Commuting_To_Work_Other,17201,2011,percent
0.9,Percent_Commuting_To_Work_Other,18003,2011,percent
1.5,Percent_Commuting_To_Work_Other,18005,2011,percent
0.8,Percent_Commuting_To_Work_Other,18019,2011,percent
2.4,Percent_Commuting_To_Work_Other,18035,2011,percent
3.2,Percent_Commuting_To_Work_Other,18039,2011,percent
0.4,Percent_Commuting_To_Work_Other,18043,2011,percent
0.8,Percent_Commuting_To_Work_Other,18053,2011,percent
1.1,Percent_Commuting_To_Work_Other,18057,2011,percent
1.2,Percent_Commuting_To_Work_Other,18059,2011,percent
0.2,Percent_Commuting_To_Work_Other,18063,2011,percent
1.9,Percent_Commuting_To_Work_Other,18067,2011,percent
0.7,Percent_Commuting_To_Work_Other,18081,2011,percent
1.8,Percent_Commuting_To_Work_Other,18085,2011,percent
0.7,Percent_Commuting_To_Work_Other,18089,2011,percent
1.2,Percent_Commuting_To_Work_Other,18091,2011,percent
0.9,Percent_Commuting_To_Work_Other,18095,2011,percent
1,Percent_Commuting_To_Work_Other,18097,2011,percent
3.9,Percent_Commuting_To_Work_Other,18105,2011,percent
1.4,Percent_Commuting_To_Work_Other,18109,2011,percent
1.1,Percent_Commuting_To_Work_Other,18127,2011,percent
1.8,Percent_Commuting_To_Work_Other,18141,2011,percent
1.7,Percent_Commuting_To_Work_Other,18157,2011,percent
1.4,Percent_Commuting_To_Work_Other,18163,2011,percent
1.1,Percent_Commuting_To_Work_Other,18167,2011,percent
2,Percent_Commuting_To_Work_Other,18177,2011,percent
1.1,Percent_Commuting_To_Work_Other,19013,2011,percent
0.8,Percent_Commuting_To_Work_Other,19049,2011,percent
0.9,Percent_Commuting_To_Work_Other,19061,2011,percent
3.1,Percent_Commuting_To_Work_Other,19103,2011,percent
1.3,Percent_Commuting_To_Work_Other,19113,2011,percent
0.9,Percent_Commuting_To_Work_Other,19153,2011,percent
0.9,Percent_Commuting_To_Work_Other,19155,2011,percent
1.1,Percent_Commuting_To_Work_Other,19163,2011,percent
1.8,Percent_Commuting_To_Work_Other,19169,2011,percent
3.7,Percent_Commuting_To_Work_Other,19193,2011,percent
0.6,Percent_Commuting_To_Work_Other,20015,2011,percent
2,Percent_Commuting_To_Work_Other,20045,2011,percent
0.5,Percent_Commuting_To_Work_Other,20091,2011,percent
0.6,Percent_Commuting_To_Work_Other,20103,2011,percent
2.3,Percent_Commuting_To_Work_Other,20161,2011,percent
1,Percent_Commuting_To_Work_Other,20173,2011,percent
1.1,Percent_Commuting_To_Work_Other,20177,2011,percent
1.1,Percent_Commuting_To_Work_Other,20209,2011,percent
1.1,Percent_Commuting_To_Work_Other,21015,2011,percent
0.4,Percent_Commuting_To_Work_Other,21029,2011,percent
0.9,Percent_Commuting_To_Work_Other,21037,2011,percent
1.7,Percent_Commuting_To_Work_Other,21047,2011,percent
0.3,Percent_Commuting_To_Work_Other,21059,2011,percent
2.4,Percent_Commuting_To_Work_Other,21067,2011,percent
1.3,Percent_Commuting_To_Work_Other,21093,2011,percent
1.6,Percent_Commuting_To_Work_Other,21111,2011,percent
0.6,Percent_Commuting_To_Work_Other,21117,2011,percent
1,Percent_Commuting_To_Work_Other,21145,2011,percent
1.3,Percent_Commuting_To_Work_Other,21151,2011,percent
1,Percent_Commuting_To_Work_Other,21195,2011,percent
1.1,Percent_Commuting_To_Work_Other,21227,2011,percent
1.6,Percent_Commuting_To_Work_Other,22005,2011,percent
1.7,Percent_Commuting_To_Work_Other,22015,2011,percent
1.5,Percent_Commuting_To_Work_Other,22017,2011,percent
1.6,Percent_Commuting_To_Work_Other,22019,2011,percent
1.4,Percent_Commuting_To_Work_Other,22033,2011,percent
1.6,Percent_Commuting_To_Work_Other,22045,2011,percent
2.8,Percent_Commuting_To_Work_Other,22051,2011,percent
1.8,Percent_Commuting_To_Work_Other,22055,2011,percent
3.3,Percent_Commuting_To_Work_Other,22057,2011,percent
0.9,Percent_Commuting_To_Work_Other,22063,2011,percent
3.7,Percent_Commuting_To_Work_Other,22071,2011,percent
2.1,Percent_Commuting_To_Work_Other,22073,2011,percent
1.3,Percent_Commuting_To_Work_Other,22079,2011,percent
1.3,Percent_Commuting_To_Work_Other,22097,2011,percent
1.5,Percent_Commuting_To_Work_Other,22103,2011,percent
3.4,Percent_Commuting_To_Work_Other,22105,2011,percent
5.4,Percent_Commuting_To_Work_Other,22109,2011,percent
2,Percent_Commuting_To_Work_Other,23001,2011,percent
1.5,Percent_Commuting_To_Work_Other,23003,2011,percent
1.3,Percent_Commuting_To_Work_Other,23005,2011,percent
2.1,Percent_Commuting_To_Work_Other,23011,2011,percent
1.7,Percent_Commuting_To_Work_Other,23019,2011,percent
0.3,Percent_Commuting_To_Work_Other,23031,2011,percent
0.7,Percent_Commuting_To_Work_Other,24001,2011,percent
0.8,Percent_Commuting_To_Work_Other,24003,2011,percent
0.9,Percent_Commuting_To_Work_Other,24005,2011,percent
0.3,Percent_Commuting_To_Work_Other,24009,2011,percent
0.6,Percent_Commuting_To_Work_Other,24013,2011,percent
1,Percent_Commuting_To_Work_Other,24015,2011,percent
0.8,Percent_Commuting_To_Work_Other,24017,2011,percent
0.7,Percent_Commuting_To_Work_Other,24021,2011,percent
0.8,Percent_Commuting_To_Work_Other,24025,2011,percent
0.6,Percent_Commuting_To_Work_Other,24027,2011,percent
1.2,Percent_Commuting_To_Work_Other,24031,2011,percent
0.9,Percent_Commuting_To_Work_Other,24033,2011,percent
0.7,Percent_Commuting_To_Work_Other,24037,2011,percent
1.1,Percent_Commuting_To_Work_Other,24043,2011,percent
2.8,Percent_Commuting_To_Work_Other,24045,2011,percent
2.4,Percent_Commuting_To_Work_Other,24510,2011,percent
1,Percent_Commuting_To_Work_Other,25001,2011,percent
1.6,Percent_Commuting_To_Work_Other,25003,2011,percent
1.1,Percent_Commuting_To_Work_Other,25005,2011,percent
1.9,Percent_Commuting_To_Work_Other,25009,2011,percent
1.6,Percent_Commuting_To_Work_Other,25011,2011,percent
0.9,Percent_Commuting_To_Work_Other,25013,2011,percent
2.1,Percent_Commuting_To_Work_Other,25015,2011,percent
2.2,Percent_Commuting_To_Work_Other,25017,2011,percent
1.2,Percent_Commuting_To_Work_Other,25021,2011,percent
0.7,Percent_Commuting_To_Work_Other,25023,2011,percent
2.4,Percent_Commuting_To_Work_Other,25025,2011,percent
0.8,Percent_Commuting_To_Work_Other,25027,2011,percent
1.3,Percent_Commuting_To_Work_Other,26005,2011,percent
0.5,Percent_Commuting_To_Work_Other,26017,2011,percent
1,Percent_Commuting_To_Work_Other,26021,2011,percent
1.2,Percent_Commuting_To_Work_Other,26025,2011,percent
0.7,Percent_Commuting_To_Work_Other,26037,2011,percent
1.4,Percent_Commuting_To_Work_Other,26045,2011,percent
0.6,Percent_Commuting_To_Work_Other,26049,2011,percent
1.9,Percent_Commuting_To_Work_Other,26055,2011,percent
2.8,Percent_Commuting_To_Work_Other,26065,2011,percent
2,Percent_Commuting_To_Work_Other,26073,2011,percent
1.4,Percent_Commuting_To_Work_Other,26075,2011,percent
0.9,Percent_Commuting_To_Work_Other,26077,2011,percent
1.4,Percent_Commuting_To_Work_Other,26081,2011,percent
0.3,Percent_Commuting_To_Work_Other,26087,2011,percent
1.1,Percent_Commuting_To_Work_Other,26091,2011,percent
0.7,Percent_Commuting_To_Work_Other,26093,2011,percent
0.6,Percent_Commuting_To_Work_Other,26099,2011,percent
1.3,Percent_Commuting_To_Work_Other,26103,2011,percent
2.2,Percent_Commuting_To_Work_Other,26111,2011,percent
1.1,Percent_Commuting_To_Work_Other,26115,2011,percent
0.9,Percent_Commuting_To_Work_Other,26121,2011,percent
0.8,Percent_Commuting_To_Work_Other,26125,2011,percent
0.6,Percent_Commuting_To_Work_Other,26139,2011,percent
0.9,Percent_Commuting_To_Work_Other,26145,2011,percent
1,Percent_Commuting_To_Work_Other,26147,2011,percent
1.6,Percent_Commuting_To_Work_Other,26155,2011,percent
1.7,Percent_Commuting_To_Work_Other,26159,2011,percent
2.6,Percent_Commuting_To_Work_Other,26161,2011,percent
1.5,Percent_Commuting_To_Work_Other,26163,2011,percent
0.9,Percent_Commuting_To_Work_Other,27003,2011,percent
0.5,Percent_Commuting_To_Work_Other,27019,2011,percent
1,Percent_Commuting_To_Work_Other,27037,2011,percent
2.4,Percent_Commuting_To_Work_Other,27053,2011,percent
1.3,Percent_Commuting_To_Work_Other,27109,2011,percent
1.9,Percent_Commuting_To_Work_Other,27123,2011,percent
1.7,Percent_Commuting_To_Work_Other,27137,2011,percent
0.8,Percent_Commuting_To_Work_Other,27139,2011,percent
1.9,Percent_Commuting_To_Work_Other,27141,2011,percent
1.3,Percent_Commuting_To_Work_Other,27145,2011,percent
1,Percent_Commuting_To_Work_Other,27163,2011,percent
0.5,Percent_Commuting_To_Work_Other,27171,2011,percent
0.7,Percent_Commuting_To_Work_Other,28033,2011,percent
3,Percent_Commuting_To_Work_Other,28035,2011,percent
1.6,Percent_Commuting_To_Work_Other,28047,2011,percent
1.6,Percent_Commuting_To_Work_Other,28049,2011,percent
1.3,Percent_Commuting_To_Work_Other,28059,2011,percent
3.5,Percent_Commuting_To_Work_Other,28067,2011,percent
0.5,Percent_Commuting_To_Work_Other,28075,2011,percent
0.4,Percent_Commuting_To_Work_Other,28081,2011,percent
0.3,Percent_Commuting_To_Work_Other,28089,2011,percent
1.2,Percent_Commuting_To_Work_Other,28121,2011,percent
2.4,Percent_Commuting_To_Work_Other,29019,2011,percent
1.6,Percent_Commuting_To_Work_Other,29021,2011,percent
3.4,Percent_Commuting_To_Work_Other,29031,2011,percent
0.4,Percent_Commuting_To_Work_Other,29037,2011,percent
1,Percent_Commuting_To_Work_Other,29043,2011,percent
0.5,Percent_Commuting_To_Work_Other,29047,2011,percent
1.3,Percent_Commuting_To_Work_Other,29051,2011,percent
0.8,Percent_Commuting_To_Work_Other,29071,2011,percent
1.1,Percent_Commuting_To_Work_Other,29077,2011,percent
1.6,Percent_Commuting_To_Work_Other,29095,2011,percent
1.4,Percent_Commuting_To_Work_Other,29097,2011,percent
0.5,Percent_Commuting_To_Work_Other,29099,2011,percent
2,Percent_Commuting_To_Work_Other,29165,2011,percent
0.9,Percent_Commuting_To_Work_Other,29183,2011,percent
1.5,Percent_Commuting_To_Work_Other,29187,2011,percent
1,Percent_Commuting_To_Work_Other,29189,2011,percent
1.4,Percent_Commuting_To_Work_Other,29510,2011,percent
1.7,Percent_Commuting_To_Work_Other,30013,2011,percent
1.9,Percent_Commuting_To_Work_Other,30029,2011,percent
6.2,Percent_Commuting_To_Work_Other,30031,2011,percent
4,Percent_Commuting_To_Work_Other,30063,2011,percent
1.7,Percent_Commuting_To_Work_Other,30111,2011,percent
1.2,Percent_Commuting_To_Work_Other,31055,2011,percent
1.5,Percent_Commuting_To_Work_Other,31109,2011,percent
0.9,Percent_Commuting_To_Work_Other,31153,2011,percent
1.9,Percent_Commuting_To_Work_Other,32003,2011,percent
2.9,Percent_Commuting_To_Work_Other,32031,2011,percent
1,Percent_Commuting_To_Work_Other,33005,2011,percent
4.7,Percent_Commuting_To_Work_Other,33009,2011,percent
0.8,Percent_Commuting_To_Work_Other,33011,2011,percent
1.5,Percent_Commuting_To_Work_Other,33013,2011,percent
0.8,Percent_Commuting_To_Work_Other,33015,2011,percent
1.3,Percent_Commuting_To_Work_Other,33017,2011,percent
2.6,Percent_Commuting_To_Work_Other,34001,2011,percent
1.3,Percent_Commuting_To_Work_Other,34003,2011,percent
1,Percent_Commuting_To_Work_Other,34005,2011,percent
0.9,Percent_Commuting_To_Work_Other,34007,2011,percent
1.3,Percent_Commuting_To_Work_Other,34009,2011,percent
1.6,Percent_Commuting_To_Work_Other,34011,2011,percent
1.9,Percent_Commuting_To_Work_Other,34013,2011,percent
1.4,Percent_Commuting_To_Work_Other,34015,2011,percent
1,Percent_Commuting_To_Work_Other,34017,2011,percent
0.7,Percent_Commuting_To_Work_Other,34019,2011,percent
1.9,Percent_Commuting_To_Work_Other,34021,2011,percent
1.4,Percent_Commuting_To_Work_Other,34023,2011,percent
1.1,Percent_Commuting_To_Work_Other,34025,2011,percent
0.8,Percent_Commuting_To_Work_Other,34027,2011,percent
1.4,Percent_Commuting_To_Work_Other,34029,2011,percent
3.2,Percent_Commuting_To_Work_Other,34031,2011,percent
1.7,Percent_Commuting_To_Work_Other,34033,2011,percent
1,Percent_Commuting_To_Work_Other,34035,2011,percent
1.1,Percent_Commuting_To_Work_Other,34037,2011,percent
5.8,Percent_Commuting_To_Work_Other,34039,2011,percent
1.2,Percent_Commuting_To_Work_Other,34041,2011,percent
2.7,Percent_Commuting_To_Work_Other,35001,2011,percent
2.3,Percent_Commuting_To_Work_Other,35005,2011,percent
1.2,Percent_Commuting_To_Work_Other,35013,2011,percent
2.5,Percent_Commuting_To_Work_Other,35025,2011,percent
1.8,Percent_Commuting_To_Work_Other,35031,2011,percent
0,Percent_Commuting_To_Work_Other,35035,2011,percent
1.8,Percent_Commuting_To_Work_Other,35043,2011,percent
0.9,Percent_Commuting_To_Work_Other,35045,2011,percent
4.7,Percent_Commuting_To_Work_Other,35049,2011,percent
1.6,Percent_Commuting_To_Work_Other,35061,2011,percent
1.5,Percent_Commuting_To_Work_Other,36001,2011,percent
2.4,Percent_Commuting_To_Work_Other,36005,2011,percent
1.2,Percent_Commuting_To_Work_Other,36007,2011,percent
0.8,Percent_Commuting_To_Work_Other,36009,2011,percent
0.9,Percent_Commuting_To_Work_Other,36011,2011,percent
1.7,Percent_Commuting_To_Work_Other,36013,2011,percent
0.9,Percent_Commuting_To_Work_Other,36015,2011,percent
3.3,Percent_Commuting_To_Work_Other,36019,2011,percent
1.1,Percent_Commuting_To_Work_Other,36027,2011,percent
1.6,Percent_Commuting_To_Work_Other,36029,2011,percent
0.7,Percent_Commuting_To_Work_Other,36045,2011,percent
2.4,Percent_Commuting_To_Work_Other,36047,2011,percent
1.2,Percent_Commuting_To_Work_Other,36051,2011,percent
0.4,Percent_Commuting_To_Work_Other,36053,2011,percent
1.2,Percent_Commuting_To_Work_Other,36055,2011,percent
1,Percent_Commuting_To_Work_Other,36059,2011,percent
4.8,Percent_Commuting_To_Work_Other,36061,2011,percent
0.5,Percent_Commuting_To_Work_Other,36063,2011,percent
1.1,Percent_Commuting_To_Work_Other,36065,2011,percent
1.1,Percent_Commuting_To_Work_Other,36067,2011,percent
1.6,Percent_Commuting_To_Work_Other,36069,2011,percent
2.2,Percent_Commuting_To_Work_Other,36071,2011,percent
1.3,Percent_Commuting_To_Work_Other,36075,2011,percent
1.2,Percent_Commuting_To_Work_Other,36079,2011,percent
1.5,Percent_Commuting_To_Work_Other,36081,2011,percent
1,Percent_Commuting_To_Work_Other,36083,2011,percent
0.8,Percent_Commuting_To_Work_Other,36085,2011,percent
1.9,Percent_Commuting_To_Work_Other,36087,2011,percent
1.6,Percent_Commuting_To_Work_Other,36089,2011,percent
1.7,Percent_Commuting_To_Work_Other,36091,2011,percent
1.1,Percent_Commuting_To_Work_Other,36093,2011,percent
1.4,Percent_Commuting_To_Work_Other,36101,2011,percent
1.4,Percent_Commuting_To_Work_Other,36103,2011,percent
1.1,Percent_Commuting_To_Work_Other,36105,2011,percent
2.1,Percent_Commuting_To_Work_Other,36109,2011,percent
1.3,Percent_Commuting_To_Work_Other,36111,2011,percent
1.4,Percent_Commuting_To_Work_Other,36113,2011,percent
0.7,Percent_Commuting_To_Work_Other,36117,2011,percent
1.7,Percent_Commuting_To_Work_Other,36119,2011,percent
1.2,Percent_Commuting_To_Work_Other,37001,2011,percent
NA,Percent_Commuting_To_Work_Other,37019,2011,percent
1.2,Percent_Commuting_To_Work_Other,37021,2011,percent
0.7,Percent_Commuting_To_Work_Other,37023,2011,percent
1,Percent_Commuting_To_Work_Other,37025,2011,percent
1.7,Percent_Commuting_To_Work_Other,37027,2011,percent
1.6,Percent_Commuting_To_Work_Other,37031,2011,percent
1.5,Percent_Commuting_To_Work_Other,37035,2011,percent
1.5,Percent_Commuting_To_Work_Other,37045,2011,percent
5.2,Percent_Commuting_To_Work_Other,37049,2011,percent
1.2,Percent_Commuting_To_Work_Other,37051,2011,percent
0.6,Percent_Commuting_To_Work_Other,37057,2011,percent
3.2,Percent_Commuting_To_Work_Other,37063,2011,percent
2.7,Percent_Commuting_To_Work_Other,37067,2011,percent
0.2,Percent_Commuting_To_Work_Other,37071,2011,percent
1.2,Percent_Commuting_To_Work_Other,37081,2011,percent
0.9,Percent_Commuting_To_Work_Other,37085,2011,percent
0.5,Percent_Commuting_To_Work_Other,37089,2011,percent
0.4,Percent_Commuting_To_Work_Other,37097,2011,percent
4.8,Percent_Commuting_To_Work_Other,37101,2011,percent
NA,Percent_Commuting_To_Work_Other,37109,2011,percent
0.8,Percent_Commuting_To_Work_Other,37119,2011,percent
0.4,Percent_Commuting_To_Work_Other,37125,2011,percent
0.7,Percent_Commuting_To_Work_Other,37127,2011,percent
1.7,Percent_Commuting_To_Work_Other,37129,2011,percent
1.1,Percent_Commuting_To_Work_Other,37133,2011,percent
3,Percent_Commuting_To_Work_Other,37135,2011,percent
1,Percent_Commuting_To_Work_Other,37147,2011,percent
0.6,Percent_Commuting_To_Work_Other,37151,2011,percent
1.4,Percent_Commuting_To_Work_Other,37155,2011,percent
0.8,Percent_Commuting_To_Work_Other,37157,2011,percent
1,Percent_Commuting_To_Work_Other,37159,2011,percent
0.1,Percent_Commuting_To_Work_Other,37161,2011,percent
0,Percent_Commuting_To_Work_Other,37171,2011,percent
1.4,Percent_Commuting_To_Work_Other,37179,2011,percent
1.2,Percent_Commuting_To_Work_Other,37183,2011,percent
0.4,Percent_Commuting_To_Work_Other,37191,2011,percent
1.5,Percent_Commuting_To_Work_Other,37193,2011,percent
3.1,Percent_Commuting_To_Work_Other,37195,2011,percent
1.4,Percent_Commuting_To_Work_Other,38015,2011,percent
2.2,Percent_Commuting_To_Work_Other,38017,2011,percent
1.3,Percent_Commuting_To_Work_Other,38035,2011,percent
0.8,Percent_Commuting_To_Work_Other,39003,2011,percent
1,Percent_Commuting_To_Work_Other,39007,2011,percent
0.4,Percent_Commuting_To_Work_Other,39013,2011,percent
1.5,Percent_Commuting_To_Work_Other,39017,2011,percent
0.8,Percent_Commuting_To_Work_Other,39023,2011,percent
0.4,Percent_Commuting_To_Work_Other,39025,2011,percent
1.1,Percent_Commuting_To_Work_Other,39029,2011,percent
1.3,Percent_Commuting_To_Work_Other,39035,2011,percent
0.4,Percent_Commuting_To_Work_Other,39041,2011,percent
0.5,Percent_Commuting_To_Work_Other,39043,2011,percent
2.6,Percent_Commuting_To_Work_Other,39045,2011,percent
1.4,Percent_Commuting_To_Work_Other,39049,2011,percent
1.3,Percent_Commuting_To_Work_Other,39055,2011,percent
1.5,Percent_Commuting_To_Work_Other,39057,2011,percent
1,Percent_Commuting_To_Work_Other,39061,2011,percent
0.9,Percent_Commuting_To_Work_Other,39063,2011,percent
0.8,Percent_Commuting_To_Work_Other,39081,2011,percent
1,Percent_Commuting_To_Work_Other,39085,2011,percent
1,Percent_Commuting_To_Work_Other,39089,2011,percent
0.7,Percent_Commuting_To_Work_Other,39093,2011,percent
0.7,Percent_Commuting_To_Work_Other,39095,2011,percent
1.2,Percent_Commuting_To_Work_Other,39099,2011,percent
0.1,Percent_Commuting_To_Work_Other,39101,2011,percent
1.2,Percent_Commuting_To_Work_Other,39103,2011,percent
1.3,Percent_Commuting_To_Work_Other,39109,2011,percent
1.6,Percent_Commuting_To_Work_Other,39113,2011,percent
0.3,Percent_Commuting_To_Work_Other,39119,2011,percent
1.3,Percent_Commuting_To_Work_Other,39133,2011,percent
0.5,Percent_Commuting_To_Work_Other,39139,2011,percent
1,Percent_Commuting_To_Work_Other,39141,2011,percent
0.8,Percent_Commuting_To_Work_Other,39145,2011,percent
0.7,Percent_Commuting_To_Work_Other,39151,2011,percent
0.7,Percent_Commuting_To_Work_Other,39153,2011,percent
1,Percent_Commuting_To_Work_Other,39155,2011,percent
2.3,Percent_Commuting_To_Work_Other,39157,2011,percent
0.9,Percent_Commuting_To_Work_Other,39165,2011,percent
1.5,Percent_Commuting_To_Work_Other,39169,2011,percent
2.1,Percent_Commuting_To_Work_Other,39173,2011,percent
0.8,Percent_Commuting_To_Work_Other,40017,2011,percent
1.7,Percent_Commuting_To_Work_Other,40027,2011,percent
2.3,Percent_Commuting_To_Work_Other,40031,2011,percent
0.1,Percent_Commuting_To_Work_Other,40037,2011,percent
2.1,Percent_Commuting_To_Work_Other,40101,2011,percent
1.3,Percent_Commuting_To_Work_Other,40109,2011,percent
1.5,Percent_Commuting_To_Work_Other,40119,2011,percent
1.1,Percent_Commuting_To_Work_Other,40125,2011,percent
0.9,Percent_Commuting_To_Work_Other,40131,2011,percent
1.5,Percent_Commuting_To_Work_Other,40143,2011,percent
0.2,Percent_Commuting_To_Work_Other,40145,2011,percent
8.9,Percent_Commuting_To_Work_Other,41003,2011,percent
1.3,Percent_Commuting_To_Work_Other,41005,2011,percent
1.8,Percent_Commuting_To_Work_Other,41017,2011,percent
1.3,Percent_Commuting_To_Work_Other,41019,2011,percent
3.2,Percent_Commuting_To_Work_Other,41029,2011,percent
2.3,Percent_Commuting_To_Work_Other,41033,2011,percent
2.2,Percent_Commuting_To_Work_Other,41035,2011,percent
5.1,Percent_Commuting_To_Work_Other,41039,2011,percent
2.3,Percent_Commuting_To_Work_Other,41043,2011,percent
2.6,Percent_Commuting_To_Work_Other,41047,2011,percent
6.5,Percent_Commuting_To_Work_Other,41051,2011,percent
2.7,Percent_Commuting_To_Work_Other,41053,2011,percent
1.8,Percent_Commuting_To_Work_Other,41059,2011,percent
1.6,Percent_Commuting_To_Work_Other,41067,2011,percent
1.1,Percent_Commuting_To_Work_Other,41071,2011,percent
2,Percent_Commuting_To_Work_Other,42001,2011,percent
1.5,Percent_Commuting_To_Work_Other,42003,2011,percent
0.9,Percent_Commuting_To_Work_Other,42005,2011,percent
0.7,Percent_Commuting_To_Work_Other,42007,2011,percent
1.6,Percent_Commuting_To_Work_Other,42011,2011,percent
1.5,Percent_Commuting_To_Work_Other,42013,2011,percent
0.9,Percent_Commuting_To_Work_Other,42017,2011,percent
0.8,Percent_Commuting_To_Work_Other,42019,2011,percent
2.2,Percent_Commuting_To_Work_Other,42021,2011,percent
0.5,Percent_Commuting_To_Work_Other,42025,2011,percent
2.1,Percent_Commuting_To_Work_Other,42027,2011,percent
0.9,Percent_Commuting_To_Work_Other,42029,2011,percent
1.2,Percent_Commuting_To_Work_Other,42033,2011,percent
0.6,Percent_Commuting_To_Work_Other,42037,2011,percent
1.7,Percent_Commuting_To_Work_Other,42039,2011,percent
0.7,Percent_Commuting_To_Work_Other,42041,2011,percent
1.5,Percent_Commuting_To_Work_Other,42043,2011,percent
1,Percent_Commuting_To_Work_Other,42045,2011,percent
1.2,Percent_Commuting_To_Work_Other,42049,2011,percent
0.7,Percent_Commuting_To_Work_Other,42051,2011,percent
0.6,Percent_Commuting_To_Work_Other,42055,2011,percent
1.1,Percent_Commuting_To_Work_Other,42063,2011,percent
1.1,Percent_Commuting_To_Work_Other,42069,2011,percent
2.1,Percent_Commuting_To_Work_Other,42071,2011,percent
1.2,Percent_Commuting_To_Work_Other,42073,2011,percent
1.9,Percent_Commuting_To_Work_Other,42075,2011,percent
0.4,Percent_Commuting_To_Work_Other,42077,2011,percent
0.8,Percent_Commuting_To_Work_Other,42079,2011,percent
0.8,Percent_Commuting_To_Work_Other,42081,2011,percent
1,Percent_Commuting_To_Work_Other,42085,2011,percent
0.4,Percent_Commuting_To_Work_Other,42089,2011,percent
0.8,Percent_Commuting_To_Work_Other,42091,2011,percent
0.3,Percent_Commuting_To_Work_Other,42095,2011,percent
1.5,Percent_Commuting_To_Work_Other,42097,2011,percent
3,Percent_Commuting_To_Work_Other,42101,2011,percent
0.9,Percent_Commuting_To_Work_Other,42107,2011,percent
1.8,Percent_Commuting_To_Work_Other,42111,2011,percent
0.8,Percent_Commuting_To_Work_Other,42125,2011,percent
0.9,Percent_Commuting_To_Work_Other,42129,2011,percent
1.3,Percent_Commuting_To_Work_Other,42133,2011,percent
0.4,Percent_Commuting_To_Work_Other,44003,2011,percent
2.1,Percent_Commuting_To_Work_Other,44005,2011,percent
1.3,Percent_Commuting_To_Work_Other,44007,2011,percent
0.6,Percent_Commuting_To_Work_Other,44009,2011,percent
1.9,Percent_Commuting_To_Work_Other,45003,2011,percent
2.4,Percent_Commuting_To_Work_Other,45007,2011,percent
3.4,Percent_Commuting_To_Work_Other,45013,2011,percent
1.9,Percent_Commuting_To_Work_Other,45015,2011,percent
1.6,Percent_Commuting_To_Work_Other,45019,2011,percent
0.9,Percent_Commuting_To_Work_Other,45031,2011,percent
1.1,Percent_Commuting_To_Work_Other,45035,2011,percent
1.1,Percent_Commuting_To_Work_Other,45041,2011,percent
0.9,Percent_Commuting_To_Work_Other,45045,2011,percent
NA,Percent_Commuting_To_Work_Other,45047,2011,percent
3.2,Percent_Commuting_To_Work_Other,45051,2011,percent
1.2,Percent_Commuting_To_Work_Other,45057,2011,percent
NA,Percent_Commuting_To_Work_Other,45059,2011,percent
2.8,Percent_Commuting_To_Work_Other,45063,2011,percent
0.7,Percent_Commuting_To_Work_Other,45073,2011,percent
0.9,Percent_Commuting_To_Work_Other,45075,2011,percent
0.7,Percent_Commuting_To_Work_Other,45077,2011,percent
2.3,Percent_Commuting_To_Work_Other,45079,2011,percent
0.5,Percent_Commuting_To_Work_Other,45083,2011,percent
2.1,Percent_Commuting_To_Work_Other,45085,2011,percent
1.3,Percent_Commuting_To_Work_Other,45091,2011,percent
2.2,Percent_Commuting_To_Work_Other,46099,2011,percent
0.6,Percent_Commuting_To_Work_Other,46103,2011,percent
0.4,Percent_Commuting_To_Work_Other,47001,2011,percent
0.7,Percent_Commuting_To_Work_Other,47009,2011,percent
1.1,Percent_Commuting_To_Work_Other,47011,2011,percent
1.3,Percent_Commuting_To_Work_Other,47037,2011,percent
1.1,Percent_Commuting_To_Work_Other,47059,2011,percent
1.1,Percent_Commuting_To_Work_Other,47065,2011,percent
1.1,Percent_Commuting_To_Work_Other,47093,2011,percent
1.3,Percent_Commuting_To_Work_Other,47113,2011,percent
0.9,Percent_Commuting_To_Work_Other,47119,2011,percent
1.7,Percent_Commuting_To_Work_Other,47125,2011,percent
NA,Percent_Commuting_To_Work_Other,47141,2011,percent
1.5,Percent_Commuting_To_Work_Other,47147,2011,percent
0.7,Percent_Commuting_To_Work_Other,47149,2011,percent
0.5,Percent_Commuting_To_Work_Other,47155,2011,percent
1.1,Percent_Commuting_To_Work_Other,47157,2011,percent
1.1,Percent_Commuting_To_Work_Other,47163,2011,percent
0.4,Percent_Commuting_To_Work_Other,47165,2011,percent
1.7,Percent_Commuting_To_Work_Other,47179,2011,percent
0.8,Percent_Commuting_To_Work_Other,47187,2011,percent
0.4,Percent_Commuting_To_Work_Other,47189,2011,percent
2.2,Percent_Commuting_To_Work_Other,48005,2011,percent
1.2,Percent_Commuting_To_Work_Other,48021,2011,percent
1.8,Percent_Commuting_To_Work_Other,48027,2011,percent
1.3,Percent_Commuting_To_Work_Other,48029,2011,percent
1.6,Percent_Commuting_To_Work_Other,48037,2011,percent
2.3,Percent_Commuting_To_Work_Other,48039,2011,percent
2.3,Percent_Commuting_To_Work_Other,48041,2011,percent
1.9,Percent_Commuting_To_Work_Other,48061,2011,percent
1.8,Percent_Commuting_To_Work_Other,48085,2011,percent
1.9,Percent_Commuting_To_Work_Other,48091,2011,percent
1.7,Percent_Commuting_To_Work_Other,48099,2011,percent
1.3,Percent_Commuting_To_Work_Other,48113,2011,percent
1,Percent_Commuting_To_Work_Other,48121,2011,percent
0.3,Percent_Commuting_To_Work_Other,48135,2011,percent
0.3,Percent_Commuting_To_Work_Other,48139,2011,percent
3,Percent_Commuting_To_Work_Other,48141,2011,percent
0.7,Percent_Commuting_To_Work_Other,48157,2011,percent
3.2,Percent_Commuting_To_Work_Other,48167,2011,percent
1,Percent_Commuting_To_Work_Other,48181,2011,percent
0.6,Percent_Commuting_To_Work_Other,48183,2011,percent
1.6,Percent_Commuting_To_Work_Other,48187,2011,percent
1.9,Percent_Commuting_To_Work_Other,48201,2011,percent
0.6,Percent_Commuting_To_Work_Other,48203,2011,percent
1.6,Percent_Commuting_To_Work_Other,48209,2011,percent
0.2,Percent_Commuting_To_Work_Other,48213,2011,percent
4,Percent_Commuting_To_Work_Other,48215,2011,percent
1.1,Percent_Commuting_To_Work_Other,48231,2011,percent
1.2,Percent_Commuting_To_Work_Other,48245,2011,percent
0.8,Percent_Commuting_To_Work_Other,48251,2011,percent
0.7,Percent_Commuting_To_Work_Other,48257,2011,percent
0.9,Percent_Commuting_To_Work_Other,48291,2011,percent
1.1,Percent_Commuting_To_Work_Other,48303,2011,percent
0.8,Percent_Commuting_To_Work_Other,48309,2011,percent
1.5,Percent_Commuting_To_Work_Other,48329,2011,percent
1.8,Percent_Commuting_To_Work_Other,48339,2011,percent
0.6,Percent_Commuting_To_Work_Other,48347,2011,percent
4.3,Percent_Commuting_To_Work_Other,48355,2011,percent
1.2,Percent_Commuting_To_Work_Other,48361,2011,percent
0.2,Percent_Commuting_To_Work_Other,48367,2011,percent
2,Percent_Commuting_To_Work_Other,48375,2011,percent
0.7,Percent_Commuting_To_Work_Other,48381,2011,percent
0.2,Percent_Commuting_To_Work_Other,48397,2011,percent
4.4,Percent_Commuting_To_Work_Other,48409,2011,percent
0.8,Percent_Commuting_To_Work_Other,48423,2011,percent
1.2,Percent_Commuting_To_Work_Other,48439,2011,percent
4.6,Percent_Commuting_To_Work_Other,48441,2011,percent
1.8,Percent_Commuting_To_Work_Other,48451,2011,percent
3.4,Percent_Commuting_To_Work_Other,48453,2011,percent
0.8,Percent_Commuting_To_Work_Other,48469,2011,percent
1.7,Percent_Commuting_To_Work_Other,48471,2011,percent
0.5,Percent_Commuting_To_Work_Other,48479,2011,percent
0.8,Percent_Commuting_To_Work_Other,48485,2011,percent
1.1,Percent_Commuting_To_Work_Other,48491,2011,percent
3.7,Percent_Commuting_To_Work_Other,49005,2011,percent
1.3,Percent_Commuting_To_Work_Other,49011,2011,percent
1.8,Percent_Commuting_To_Work_Other,49035,2011,percent
2.2,Percent_Commuting_To_Work_Other,49049,2011,percent
3,Percent_Commuting_To_Work_Other,49053,2011,percent
1.3,Percent_Commuting_To_Work_Other,49057,2011,percent
2.4,Percent_Commuting_To_Work_Other,50007,2011,percent
0.9,Percent_Commuting_To_Work_Other,51003,2011,percent
2.3,Percent_Commuting_To_Work_Other,51013,2011,percent
0.6,Percent_Commuting_To_Work_Other,51015,2011,percent
1.1,Percent_Commuting_To_Work_Other,51019,2011,percent
0.7,Percent_Commuting_To_Work_Other,51041,2011,percent
1.1,Percent_Commuting_To_Work_Other,51059,2011,percent
1,Percent_Commuting_To_Work_Other,51061,2011,percent
1,Percent_Commuting_To_Work_Other,51069,2011,percent
0.4,Percent_Commuting_To_Work_Other,51085,2011,percent
1.4,Percent_Commuting_To_Work_Other,51087,2011,percent
1.5,Percent_Commuting_To_Work_Other,51095,2011,percent
0.9,Percent_Commuting_To_Work_Other,51107,2011,percent
1.6,Percent_Commuting_To_Work_Other,51121,2011,percent
0.9,Percent_Commuting_To_Work_Other,51153,2011,percent
1,Percent_Commuting_To_Work_Other,51161,2011,percent
1.8,Percent_Commuting_To_Work_Other,51165,2011,percent
1.1,Percent_Commuting_To_Work_Other,51177,2011,percent
0.8,Percent_Commuting_To_Work_Other,51179,2011,percent
1.1,Percent_Commuting_To_Work_Other,51199,2011,percent
1.5,Percent_Commuting_To_Work_Other,51510,2011,percent
1.9,Percent_Commuting_To_Work_Other,51550,2011,percent
1.3,Percent_Commuting_To_Work_Other,51650,2011,percent
0.5,Percent_Commuting_To_Work_Other,51680,2011,percent
1.5,Percent_Commuting_To_Work_Other,51700,2011,percent
2.2,Percent_Commuting_To_Work_Other,51710,2011,percent
2.9,Percent_Commuting_To_Work_Other,51740,2011,percent
2.5,Percent_Commuting_To_Work_Other,51760,2011,percent
1.9,Percent_Commuting_To_Work_Other,51770,2011,percent
2,Percent_Commuting_To_Work_Other,51800,2011,percent
1.4,Percent_Commuting_To_Work_Other,51810,2011,percent
1.6,Percent_Commuting_To_Work_Other,53005,2011,percent
1.3,Percent_Commuting_To_Work_Other,53007,2011,percent
2.2,Percent_Commuting_To_Work_Other,53009,2011,percent
1.6,Percent_Commuting_To_Work_Other,53011,2011,percent
1.2,Percent_Commuting_To_Work_Other,53015,2011,percent
0.3,Percent_Commuting_To_Work_Other,53021,2011,percent
1.7,Percent_Commuting_To_Work_Other,53025,2011,percent
3.3,Percent_Commuting_To_Work_Other,53027,2011,percent
1.7,Percent_Commuting_To_Work_Other,53029,2011,percent
2.5,Percent_Commuting_To_Work_Other,53033,2011,percent
1.5,Percent_Commuting_To_Work_Other,53035,2011,percent
0.8,Percent_Commuting_To_Work_Other,53041,2011,percent
1.5,Percent_Commuting_To_Work_Other,53053,2011,percent
2,Percent_Commuting_To_Work_Other,53057,2011,percent
1.5,Percent_Commuting_To_Work_Other,53061,2011,percent
1.2,Percent_Commuting_To_Work_Other,53063,2011,percent
2.6,Percent_Commuting_To_Work_Other,53067,2011,percent
3.4,Percent_Commuting_To_Work_Other,53073,2011,percent
1.5,Percent_Commuting_To_Work_Other,53077,2011,percent
0.7,Percent_Commuting_To_Work_Other,54003,2011,percent
1.6,Percent_Commuting_To_Work_Other,54011,2011,percent
0.5,Percent_Commuting_To_Work_Other,54033,2011,percent
0.3,Percent_Commuting_To_Work_Other,54039,2011,percent
0.4,Percent_Commuting_To_Work_Other,54061,2011,percent
2,Percent_Commuting_To_Work_Other,54081,2011,percent
0.5,Percent_Commuting_To_Work_Other,54107,2011,percent
1.7,Percent_Commuting_To_Work_Other,55009,2011,percent
3.1,Percent_Commuting_To_Work_Other,55025,2011,percent
0.8,Percent_Commuting_To_Work_Other,55027,2011,percent
2.1,Percent_Commuting_To_Work_Other,55035,2011,percent
2.1,Percent_Commuting_To_Work_Other,55039,2011,percent
0.9,Percent_Commuting_To_Work_Other,55055,2011,percent
1.5,Percent_Commuting_To_Work_Other,55059,2011,percent
3,Percent_Commuting_To_Work_Other,55063,2011,percent
1.2,Percent_Commuting_To_Work_Other,55071,2011,percent
1.2,Percent_Commuting_To_Work_Other,55073,2011,percent
1.5,Percent_Commuting_To_Work_Other,55079,2011,percent
1.8,Percent_Commuting_To_Work_Other,55087,2011,percent
1,Percent_Commuting_To_Work_Other,55089,2011,percent
1.5,Percent_Commuting_To_Work_Other,55097,2011,percent
1.3,Percent_Commuting_To_Work_Other,55101,2011,percent
1.3,Percent_Commuting_To_Work_Other,55105,2011,percent
0.3,Percent_Commuting_To_Work_Other,55109,2011,percent
1.4,Percent_Commuting_To_Work_Other,55117,2011,percent
1.3,Percent_Commuting_To_Work_Other,55127,2011,percent
0.9,Percent_Commuting_To_Work_Other,55131,2011,percent
0.8,Percent_Commuting_To_Work_Other,55133,2011,percent
1.3,Percent_Commuting_To_Work_Other,55139,2011,percent
2.2,Percent_Commuting_To_Work_Other,55141,2011,percent
3.2,Percent_Commuting_To_Work_Other,56021,2011,percent
0.4,Percent_Commuting_To_Work_Other,56025,2011,percent
0.2,Percent_Commuting_To_Work_Other,72013,2011,percent
3.2,Percent_Commuting_To_Work_Other,72021,2011,percent
1.8,Percent_Commuting_To_Work_Other,72025,2011,percent
0.7,Percent_Commuting_To_Work_Other,72031,2011,percent
1.4,Percent_Commuting_To_Work_Other,72061,2011,percent
0.8,Percent_Commuting_To_Work_Other,72097,2011,percent
1.8,Percent_Commuting_To_Work_Other,72113,2011,percent
2.2,Percent_Commuting_To_Work_Other,72127,2011,percent
NA,Percent_Commuting_To_Work_Other,72135,2011,percent
4.7,Percent_Commuting_To_Work_Other,72137,2011,percent
5.1,Percent_Commuting_To_Work_Other,72139,2011,percent
