value,variable,FIPS,Date,units
57.4,Percent_Employed_Civilian_Labor_Force,1003,2011,percent
50.6,Percent_Employed_Civilian_Labor_Force,1015,2011,percent
50.8,Percent_Employed_Civilian_Labor_Force,1043,2011,percent
51.4,Percent_Employed_Civilian_Labor_Force,1049,2011,percent
53,Percent_Employed_Civilian_Labor_Force,1051,2011,percent
46.7,Percent_Employed_Civilian_Labor_Force,1055,2011,percent
55.9,Percent_Employed_Civilian_Labor_Force,1069,2011,percent
54.2,Percent_Employed_Civilian_Labor_Force,1073,2011,percent
54.3,Percent_Employed_Civilian_Labor_Force,1077,2011,percent
53.9,Percent_Employed_Civilian_Labor_Force,1081,2011,percent
51.9,Percent_Employed_Civilian_Labor_Force,1083,2011,percent
59,Percent_Employed_Civilian_Labor_Force,1089,2011,percent
49.2,Percent_Employed_Civilian_Labor_Force,1095,2011,percent
52.6,Percent_Employed_Civilian_Labor_Force,1097,2011,percent
54.2,Percent_Employed_Civilian_Labor_Force,1101,2011,percent
58.1,Percent_Employed_Civilian_Labor_Force,1103,2011,percent
50.6,Percent_Employed_Civilian_Labor_Force,1115,2011,percent
64.9,Percent_Employed_Civilian_Labor_Force,1117,2011,percent
42.9,Percent_Employed_Civilian_Labor_Force,1121,2011,percent
51.4,Percent_Employed_Civilian_Labor_Force,1125,2011,percent
43.8,Percent_Employed_Civilian_Labor_Force,1127,2011,percent
65.2,Percent_Employed_Civilian_Labor_Force,2020,2011,percent
61.9,Percent_Employed_Civilian_Labor_Force,2090,2011,percent
55.8,Percent_Employed_Civilian_Labor_Force,2170,2011,percent
37.9,Percent_Employed_Civilian_Labor_Force,4001,2011,percent
41.8,Percent_Employed_Civilian_Labor_Force,4003,2011,percent
59.6,Percent_Employed_Civilian_Labor_Force,4005,2011,percent
58,Percent_Employed_Civilian_Labor_Force,4013,2011,percent
41.5,Percent_Employed_Civilian_Labor_Force,4015,2011,percent
40.2,Percent_Employed_Civilian_Labor_Force,4017,2011,percent
51.3,Percent_Employed_Civilian_Labor_Force,4019,2011,percent
41.2,Percent_Employed_Civilian_Labor_Force,4021,2011,percent
44.7,Percent_Employed_Civilian_Labor_Force,4025,2011,percent
43.1,Percent_Employed_Civilian_Labor_Force,4027,2011,percent
59.8,Percent_Employed_Civilian_Labor_Force,5007,2011,percent
53.7,Percent_Employed_Civilian_Labor_Force,5031,2011,percent
61.1,Percent_Employed_Civilian_Labor_Force,5045,2011,percent
50.5,Percent_Employed_Civilian_Labor_Force,5051,2011,percent
48.8,Percent_Employed_Civilian_Labor_Force,5069,2011,percent
59.9,Percent_Employed_Civilian_Labor_Force,5085,2011,percent
59.6,Percent_Employed_Civilian_Labor_Force,5119,2011,percent
59.2,Percent_Employed_Civilian_Labor_Force,5125,2011,percent
54.8,Percent_Employed_Civilian_Labor_Force,5131,2011,percent
61.7,Percent_Employed_Civilian_Labor_Force,5143,2011,percent
52.9,Percent_Employed_Civilian_Labor_Force,5145,2011,percent
59,Percent_Employed_Civilian_Labor_Force,6001,2011,percent
46.7,Percent_Employed_Civilian_Labor_Force,6007,2011,percent
57.7,Percent_Employed_Civilian_Labor_Force,6013,2011,percent
53.4,Percent_Employed_Civilian_Labor_Force,6017,2011,percent
51.4,Percent_Employed_Civilian_Labor_Force,6019,2011,percent
50.7,Percent_Employed_Civilian_Labor_Force,6023,2011,percent
44.7,Percent_Employed_Civilian_Labor_Force,6025,2011,percent
50.6,Percent_Employed_Civilian_Labor_Force,6029,2011,percent
43.7,Percent_Employed_Civilian_Labor_Force,6031,2011,percent
48.1,Percent_Employed_Civilian_Labor_Force,6033,2011,percent
56.6,Percent_Employed_Civilian_Labor_Force,6037,2011,percent
44.2,Percent_Employed_Civilian_Labor_Force,6039,2011,percent
58.9,Percent_Employed_Civilian_Labor_Force,6041,2011,percent
53.6,Percent_Employed_Civilian_Labor_Force,6045,2011,percent
49.6,Percent_Employed_Civilian_Labor_Force,6047,2011,percent
52.1,Percent_Employed_Civilian_Labor_Force,6053,2011,percent
58.8,Percent_Employed_Civilian_Labor_Force,6055,2011,percent
51.1,Percent_Employed_Civilian_Labor_Force,6057,2011,percent
60,Percent_Employed_Civilian_Labor_Force,6059,2011,percent
54.5,Percent_Employed_Civilian_Labor_Force,6061,2011,percent
51,Percent_Employed_Civilian_Labor_Force,6065,2011,percent
54.5,Percent_Employed_Civilian_Labor_Force,6067,2011,percent
51.1,Percent_Employed_Civilian_Labor_Force,6071,2011,percent
55,Percent_Employed_Civilian_Labor_Force,6073,2011,percent
63,Percent_Employed_Civilian_Labor_Force,6075,2011,percent
51,Percent_Employed_Civilian_Labor_Force,6077,2011,percent
52,Percent_Employed_Civilian_Labor_Force,6079,2011,percent
62.5,Percent_Employed_Civilian_Labor_Force,6081,2011,percent
58.4,Percent_Employed_Civilian_Labor_Force,6083,2011,percent
60.4,Percent_Employed_Civilian_Labor_Force,6085,2011,percent
59.4,Percent_Employed_Civilian_Labor_Force,6087,2011,percent
47.1,Percent_Employed_Civilian_Labor_Force,6089,2011,percent
55.4,Percent_Employed_Civilian_Labor_Force,6095,2011,percent
58.8,Percent_Employed_Civilian_Labor_Force,6097,2011,percent
51.1,Percent_Employed_Civilian_Labor_Force,6099,2011,percent
50.4,Percent_Employed_Civilian_Labor_Force,6101,2011,percent
52.3,Percent_Employed_Civilian_Labor_Force,6107,2011,percent
60.3,Percent_Employed_Civilian_Labor_Force,6111,2011,percent
54.5,Percent_Employed_Civilian_Labor_Force,6113,2011,percent
43.9,Percent_Employed_Civilian_Labor_Force,6115,2011,percent
62.9,Percent_Employed_Civilian_Labor_Force,8001,2011,percent
65.4,Percent_Employed_Civilian_Labor_Force,8005,2011,percent
64.9,Percent_Employed_Civilian_Labor_Force,8013,2011,percent
64.2,Percent_Employed_Civilian_Labor_Force,8031,2011,percent
72.3,Percent_Employed_Civilian_Labor_Force,8035,2011,percent
56.5,Percent_Employed_Civilian_Labor_Force,8041,2011,percent
64.2,Percent_Employed_Civilian_Labor_Force,8059,2011,percent
62.3,Percent_Employed_Civilian_Labor_Force,8069,2011,percent
58.5,Percent_Employed_Civilian_Labor_Force,8077,2011,percent
52.5,Percent_Employed_Civilian_Labor_Force,8101,2011,percent
60.5,Percent_Employed_Civilian_Labor_Force,8123,2011,percent
61.7,Percent_Employed_Civilian_Labor_Force,9001,2011,percent
60,Percent_Employed_Civilian_Labor_Force,9003,2011,percent
62.8,Percent_Employed_Civilian_Labor_Force,9005,2011,percent
63.6,Percent_Employed_Civilian_Labor_Force,9007,2011,percent
59.5,Percent_Employed_Civilian_Labor_Force,9009,2011,percent
58.2,Percent_Employed_Civilian_Labor_Force,9011,2011,percent
61.8,Percent_Employed_Civilian_Labor_Force,9013,2011,percent
61,Percent_Employed_Civilian_Labor_Force,9015,2011,percent
55.5,Percent_Employed_Civilian_Labor_Force,10001,2011,percent
60.3,Percent_Employed_Civilian_Labor_Force,10003,2011,percent
53.1,Percent_Employed_Civilian_Labor_Force,10005,2011,percent
59.4,Percent_Employed_Civilian_Labor_Force,11001,2011,percent
54,Percent_Employed_Civilian_Labor_Force,12001,2011,percent
56,Percent_Employed_Civilian_Labor_Force,12005,2011,percent
49.4,Percent_Employed_Civilian_Labor_Force,12009,2011,percent
59.1,Percent_Employed_Civilian_Labor_Force,12011,2011,percent
40.6,Percent_Employed_Civilian_Labor_Force,12015,2011,percent
34.4,Percent_Employed_Civilian_Labor_Force,12017,2011,percent
54.4,Percent_Employed_Civilian_Labor_Force,12019,2011,percent
49.5,Percent_Employed_Civilian_Labor_Force,12021,2011,percent
42.2,Percent_Employed_Civilian_Labor_Force,12023,2011,percent
57.4,Percent_Employed_Civilian_Labor_Force,12031,2011,percent
53.1,Percent_Employed_Civilian_Labor_Force,12033,2011,percent
NA,Percent_Employed_Civilian_Labor_Force,12035,2011,percent
38.1,Percent_Employed_Civilian_Labor_Force,12053,2011,percent
36.2,Percent_Employed_Civilian_Labor_Force,12055,2011,percent
57.1,Percent_Employed_Civilian_Labor_Force,12057,2011,percent
44.6,Percent_Employed_Civilian_Labor_Force,12061,2011,percent
48.3,Percent_Employed_Civilian_Labor_Force,12069,2011,percent
46,Percent_Employed_Civilian_Labor_Force,12071,2011,percent
59.1,Percent_Employed_Civilian_Labor_Force,12073,2011,percent
48,Percent_Employed_Civilian_Labor_Force,12081,2011,percent
41.3,Percent_Employed_Civilian_Labor_Force,12083,2011,percent
47.4,Percent_Employed_Civilian_Labor_Force,12085,2011,percent
54.7,Percent_Employed_Civilian_Labor_Force,12086,2011,percent
57.9,Percent_Employed_Civilian_Labor_Force,12087,2011,percent
49.1,Percent_Employed_Civilian_Labor_Force,12089,2011,percent
55.6,Percent_Employed_Civilian_Labor_Force,12091,2011,percent
60.3,Percent_Employed_Civilian_Labor_Force,12095,2011,percent
57.6,Percent_Employed_Civilian_Labor_Force,12097,2011,percent
51.9,Percent_Employed_Civilian_Labor_Force,12099,2011,percent
45.5,Percent_Employed_Civilian_Labor_Force,12101,2011,percent
51.8,Percent_Employed_Civilian_Labor_Force,12103,2011,percent
47.3,Percent_Employed_Civilian_Labor_Force,12105,2011,percent
38,Percent_Employed_Civilian_Labor_Force,12107,2011,percent
58.9,Percent_Employed_Civilian_Labor_Force,12109,2011,percent
47.4,Percent_Employed_Civilian_Labor_Force,12111,2011,percent
52.2,Percent_Employed_Civilian_Labor_Force,12113,2011,percent
45.5,Percent_Employed_Civilian_Labor_Force,12115,2011,percent
59.3,Percent_Employed_Civilian_Labor_Force,12117,2011,percent
NA,Percent_Employed_Civilian_Labor_Force,12119,2011,percent
45.3,Percent_Employed_Civilian_Labor_Force,12127,2011,percent
59.9,Percent_Employed_Civilian_Labor_Force,13013,2011,percent
53.3,Percent_Employed_Civilian_Labor_Force,13015,2011,percent
50.4,Percent_Employed_Civilian_Labor_Force,13021,2011,percent
52.6,Percent_Employed_Civilian_Labor_Force,13031,2011,percent
52.3,Percent_Employed_Civilian_Labor_Force,13045,2011,percent
53.6,Percent_Employed_Civilian_Labor_Force,13051,2011,percent
65.3,Percent_Employed_Civilian_Labor_Force,13057,2011,percent
49.6,Percent_Employed_Civilian_Labor_Force,13059,2011,percent
56.6,Percent_Employed_Civilian_Labor_Force,13063,2011,percent
64.2,Percent_Employed_Civilian_Labor_Force,13067,2011,percent
61.6,Percent_Employed_Civilian_Labor_Force,13073,2011,percent
59,Percent_Employed_Civilian_Labor_Force,13077,2011,percent
58.9,Percent_Employed_Civilian_Labor_Force,13089,2011,percent
46.4,Percent_Employed_Civilian_Labor_Force,13095,2011,percent
59.6,Percent_Employed_Civilian_Labor_Force,13097,2011,percent
55.4,Percent_Employed_Civilian_Labor_Force,13113,2011,percent
50.1,Percent_Employed_Civilian_Labor_Force,13115,2011,percent
56.2,Percent_Employed_Civilian_Labor_Force,13117,2011,percent
59.9,Percent_Employed_Civilian_Labor_Force,13121,2011,percent
55.5,Percent_Employed_Civilian_Labor_Force,13127,2011,percent
62.2,Percent_Employed_Civilian_Labor_Force,13135,2011,percent
57.6,Percent_Employed_Civilian_Labor_Force,13139,2011,percent
58.3,Percent_Employed_Civilian_Labor_Force,13151,2011,percent
57.7,Percent_Employed_Civilian_Labor_Force,13153,2011,percent
52,Percent_Employed_Civilian_Labor_Force,13179,2011,percent
48.9,Percent_Employed_Civilian_Labor_Force,13185,2011,percent
48.6,Percent_Employed_Civilian_Labor_Force,13215,2011,percent
53.7,Percent_Employed_Civilian_Labor_Force,13217,2011,percent
62.4,Percent_Employed_Civilian_Labor_Force,13223,2011,percent
49.2,Percent_Employed_Civilian_Labor_Force,13245,2011,percent
57,Percent_Employed_Civilian_Labor_Force,13247,2011,percent
52.6,Percent_Employed_Civilian_Labor_Force,13285,2011,percent
51.8,Percent_Employed_Civilian_Labor_Force,13295,2011,percent
55.2,Percent_Employed_Civilian_Labor_Force,13297,2011,percent
57.6,Percent_Employed_Civilian_Labor_Force,13313,2011,percent
51.8,Percent_Employed_Civilian_Labor_Force,15001,2011,percent
57.1,Percent_Employed_Civilian_Labor_Force,15003,2011,percent
60,Percent_Employed_Civilian_Labor_Force,15007,2011,percent
62.5,Percent_Employed_Civilian_Labor_Force,15009,2011,percent
60.1,Percent_Employed_Civilian_Labor_Force,16001,2011,percent
59.2,Percent_Employed_Civilian_Labor_Force,16005,2011,percent
63.4,Percent_Employed_Civilian_Labor_Force,16019,2011,percent
53,Percent_Employed_Civilian_Labor_Force,16027,2011,percent
56.4,Percent_Employed_Civilian_Labor_Force,16055,2011,percent
56.9,Percent_Employed_Civilian_Labor_Force,16083,2011,percent
60.8,Percent_Employed_Civilian_Labor_Force,17001,2011,percent
56.6,Percent_Employed_Civilian_Labor_Force,17019,2011,percent
57.5,Percent_Employed_Civilian_Labor_Force,17031,2011,percent
61,Percent_Employed_Civilian_Labor_Force,17037,2011,percent
64.6,Percent_Employed_Civilian_Labor_Force,17043,2011,percent
64,Percent_Employed_Civilian_Labor_Force,17089,2011,percent
54.1,Percent_Employed_Civilian_Labor_Force,17091,2011,percent
66.8,Percent_Employed_Civilian_Labor_Force,17093,2011,percent
61,Percent_Employed_Civilian_Labor_Force,17097,2011,percent
59.6,Percent_Employed_Civilian_Labor_Force,17099,2011,percent
63.3,Percent_Employed_Civilian_Labor_Force,17111,2011,percent
63.7,Percent_Employed_Civilian_Labor_Force,17113,2011,percent
54.6,Percent_Employed_Civilian_Labor_Force,17115,2011,percent
56.3,Percent_Employed_Civilian_Labor_Force,17119,2011,percent
56.8,Percent_Employed_Civilian_Labor_Force,17143,2011,percent
58,Percent_Employed_Civilian_Labor_Force,17161,2011,percent
56.7,Percent_Employed_Civilian_Labor_Force,17163,2011,percent
59.9,Percent_Employed_Civilian_Labor_Force,17167,2011,percent
59.9,Percent_Employed_Civilian_Labor_Force,17179,2011,percent
49.9,Percent_Employed_Civilian_Labor_Force,17183,2011,percent
62.2,Percent_Employed_Civilian_Labor_Force,17197,2011,percent
54.5,Percent_Employed_Civilian_Labor_Force,17199,2011,percent
56.4,Percent_Employed_Civilian_Labor_Force,17201,2011,percent
59.5,Percent_Employed_Civilian_Labor_Force,18003,2011,percent
60,Percent_Employed_Civilian_Labor_Force,18005,2011,percent
61.9,Percent_Employed_Civilian_Labor_Force,18019,2011,percent
49,Percent_Employed_Civilian_Labor_Force,18035,2011,percent
58.3,Percent_Employed_Civilian_Labor_Force,18039,2011,percent
61.2,Percent_Employed_Civilian_Labor_Force,18043,2011,percent
49,Percent_Employed_Civilian_Labor_Force,18053,2011,percent
69.4,Percent_Employed_Civilian_Labor_Force,18057,2011,percent
61.2,Percent_Employed_Civilian_Labor_Force,18059,2011,percent
61.5,Percent_Employed_Civilian_Labor_Force,18063,2011,percent
53,Percent_Employed_Civilian_Labor_Force,18067,2011,percent
62.7,Percent_Employed_Civilian_Labor_Force,18081,2011,percent
62.9,Percent_Employed_Civilian_Labor_Force,18085,2011,percent
54.4,Percent_Employed_Civilian_Labor_Force,18089,2011,percent
52.3,Percent_Employed_Civilian_Labor_Force,18091,2011,percent
49.5,Percent_Employed_Civilian_Labor_Force,18095,2011,percent
59.1,Percent_Employed_Civilian_Labor_Force,18097,2011,percent
55.7,Percent_Employed_Civilian_Labor_Force,18105,2011,percent
55.8,Percent_Employed_Civilian_Labor_Force,18109,2011,percent
59.4,Percent_Employed_Civilian_Labor_Force,18127,2011,percent
57.6,Percent_Employed_Civilian_Labor_Force,18141,2011,percent
58.6,Percent_Employed_Civilian_Labor_Force,18157,2011,percent
58.8,Percent_Employed_Civilian_Labor_Force,18163,2011,percent
54.8,Percent_Employed_Civilian_Labor_Force,18167,2011,percent
53.3,Percent_Employed_Civilian_Labor_Force,18177,2011,percent
62.4,Percent_Employed_Civilian_Labor_Force,19013,2011,percent
NA,Percent_Employed_Civilian_Labor_Force,19049,2011,percent
65.8,Percent_Employed_Civilian_Labor_Force,19061,2011,percent
68.5,Percent_Employed_Civilian_Labor_Force,19103,2011,percent
67,Percent_Employed_Civilian_Labor_Force,19113,2011,percent
66.5,Percent_Employed_Civilian_Labor_Force,19153,2011,percent
62.8,Percent_Employed_Civilian_Labor_Force,19155,2011,percent
61.3,Percent_Employed_Civilian_Labor_Force,19163,2011,percent
63,Percent_Employed_Civilian_Labor_Force,19169,2011,percent
63.9,Percent_Employed_Civilian_Labor_Force,19193,2011,percent
62.2,Percent_Employed_Civilian_Labor_Force,20015,2011,percent
67.1,Percent_Employed_Civilian_Labor_Force,20045,2011,percent
70.2,Percent_Employed_Civilian_Labor_Force,20091,2011,percent
54,Percent_Employed_Civilian_Labor_Force,20103,2011,percent
54,Percent_Employed_Civilian_Labor_Force,20161,2011,percent
62,Percent_Employed_Civilian_Labor_Force,20173,2011,percent
60.3,Percent_Employed_Civilian_Labor_Force,20177,2011,percent
56.4,Percent_Employed_Civilian_Labor_Force,20209,2011,percent
65.3,Percent_Employed_Civilian_Labor_Force,21015,2011,percent
62.2,Percent_Employed_Civilian_Labor_Force,21029,2011,percent
63.1,Percent_Employed_Civilian_Labor_Force,21037,2011,percent
43.2,Percent_Employed_Civilian_Labor_Force,21047,2011,percent
57.2,Percent_Employed_Civilian_Labor_Force,21059,2011,percent
62.7,Percent_Employed_Civilian_Labor_Force,21067,2011,percent
52.6,Percent_Employed_Civilian_Labor_Force,21093,2011,percent
57.7,Percent_Employed_Civilian_Labor_Force,21111,2011,percent
60.8,Percent_Employed_Civilian_Labor_Force,21117,2011,percent
57,Percent_Employed_Civilian_Labor_Force,21145,2011,percent
53.5,Percent_Employed_Civilian_Labor_Force,21151,2011,percent
40.1,Percent_Employed_Civilian_Labor_Force,21195,2011,percent
62.4,Percent_Employed_Civilian_Labor_Force,21227,2011,percent
63.1,Percent_Employed_Civilian_Labor_Force,22005,2011,percent
59.6,Percent_Employed_Civilian_Labor_Force,22015,2011,percent
57.1,Percent_Employed_Civilian_Labor_Force,22017,2011,percent
54.5,Percent_Employed_Civilian_Labor_Force,22019,2011,percent
61.6,Percent_Employed_Civilian_Labor_Force,22033,2011,percent
55.7,Percent_Employed_Civilian_Labor_Force,22045,2011,percent
60.2,Percent_Employed_Civilian_Labor_Force,22051,2011,percent
62.6,Percent_Employed_Civilian_Labor_Force,22055,2011,percent
55,Percent_Employed_Civilian_Labor_Force,22057,2011,percent
61.3,Percent_Employed_Civilian_Labor_Force,22063,2011,percent
53.8,Percent_Employed_Civilian_Labor_Force,22071,2011,percent
55.5,Percent_Employed_Civilian_Labor_Force,22073,2011,percent
49,Percent_Employed_Civilian_Labor_Force,22079,2011,percent
50.5,Percent_Employed_Civilian_Labor_Force,22097,2011,percent
56.5,Percent_Employed_Civilian_Labor_Force,22103,2011,percent
54.8,Percent_Employed_Civilian_Labor_Force,22105,2011,percent
57.5,Percent_Employed_Civilian_Labor_Force,22109,2011,percent
59,Percent_Employed_Civilian_Labor_Force,23001,2011,percent
50.9,Percent_Employed_Civilian_Labor_Force,23003,2011,percent
64.5,Percent_Employed_Civilian_Labor_Force,23005,2011,percent
59.2,Percent_Employed_Civilian_Labor_Force,23011,2011,percent
55.8,Percent_Employed_Civilian_Labor_Force,23019,2011,percent
62.6,Percent_Employed_Civilian_Labor_Force,23031,2011,percent
48,Percent_Employed_Civilian_Labor_Force,24001,2011,percent
64.8,Percent_Employed_Civilian_Labor_Force,24003,2011,percent
61,Percent_Employed_Civilian_Labor_Force,24005,2011,percent
65.4,Percent_Employed_Civilian_Labor_Force,24009,2011,percent
65,Percent_Employed_Civilian_Labor_Force,24013,2011,percent
62.9,Percent_Employed_Civilian_Labor_Force,24015,2011,percent
63.1,Percent_Employed_Civilian_Labor_Force,24017,2011,percent
67.3,Percent_Employed_Civilian_Labor_Force,24021,2011,percent
62.5,Percent_Employed_Civilian_Labor_Force,24025,2011,percent
68.6,Percent_Employed_Civilian_Labor_Force,24027,2011,percent
66.9,Percent_Employed_Civilian_Labor_Force,24031,2011,percent
65.6,Percent_Employed_Civilian_Labor_Force,24033,2011,percent
61.5,Percent_Employed_Civilian_Labor_Force,24037,2011,percent
57.3,Percent_Employed_Civilian_Labor_Force,24043,2011,percent
54.8,Percent_Employed_Civilian_Labor_Force,24045,2011,percent
52.7,Percent_Employed_Civilian_Labor_Force,24510,2011,percent
55.1,Percent_Employed_Civilian_Labor_Force,25001,2011,percent
55.8,Percent_Employed_Civilian_Labor_Force,25003,2011,percent
60,Percent_Employed_Civilian_Labor_Force,25005,2011,percent
61.5,Percent_Employed_Civilian_Labor_Force,25009,2011,percent
63.3,Percent_Employed_Civilian_Labor_Force,25011,2011,percent
56.7,Percent_Employed_Civilian_Labor_Force,25013,2011,percent
60.5,Percent_Employed_Civilian_Labor_Force,25015,2011,percent
64.4,Percent_Employed_Civilian_Labor_Force,25017,2011,percent
63.6,Percent_Employed_Civilian_Labor_Force,25021,2011,percent
61.4,Percent_Employed_Civilian_Labor_Force,25023,2011,percent
59.6,Percent_Employed_Civilian_Labor_Force,25025,2011,percent
60.8,Percent_Employed_Civilian_Labor_Force,25027,2011,percent
57.7,Percent_Employed_Civilian_Labor_Force,26005,2011,percent
51.8,Percent_Employed_Civilian_Labor_Force,26017,2011,percent
52.6,Percent_Employed_Civilian_Labor_Force,26021,2011,percent
49.5,Percent_Employed_Civilian_Labor_Force,26025,2011,percent
59.7,Percent_Employed_Civilian_Labor_Force,26037,2011,percent
54.1,Percent_Employed_Civilian_Labor_Force,26045,2011,percent
47.7,Percent_Employed_Civilian_Labor_Force,26049,2011,percent
57.9,Percent_Employed_Civilian_Labor_Force,26055,2011,percent
55.9,Percent_Employed_Civilian_Labor_Force,26065,2011,percent
53.3,Percent_Employed_Civilian_Labor_Force,26073,2011,percent
49.9,Percent_Employed_Civilian_Labor_Force,26075,2011,percent
57.5,Percent_Employed_Civilian_Labor_Force,26077,2011,percent
62.2,Percent_Employed_Civilian_Labor_Force,26081,2011,percent
52.3,Percent_Employed_Civilian_Labor_Force,26087,2011,percent
53.8,Percent_Employed_Civilian_Labor_Force,26091,2011,percent
62,Percent_Employed_Civilian_Labor_Force,26093,2011,percent
55.8,Percent_Employed_Civilian_Labor_Force,26099,2011,percent
51.9,Percent_Employed_Civilian_Labor_Force,26103,2011,percent
54.1,Percent_Employed_Civilian_Labor_Force,26111,2011,percent
55.5,Percent_Employed_Civilian_Labor_Force,26115,2011,percent
48.5,Percent_Employed_Civilian_Labor_Force,26121,2011,percent
59.2,Percent_Employed_Civilian_Labor_Force,26125,2011,percent
61.2,Percent_Employed_Civilian_Labor_Force,26139,2011,percent
50.8,Percent_Employed_Civilian_Labor_Force,26145,2011,percent
52.3,Percent_Employed_Civilian_Labor_Force,26147,2011,percent
52.4,Percent_Employed_Civilian_Labor_Force,26155,2011,percent
54.3,Percent_Employed_Civilian_Labor_Force,26159,2011,percent
58.6,Percent_Employed_Civilian_Labor_Force,26161,2011,percent
47.3,Percent_Employed_Civilian_Labor_Force,26163,2011,percent
66.9,Percent_Employed_Civilian_Labor_Force,27003,2011,percent
73.4,Percent_Employed_Civilian_Labor_Force,27019,2011,percent
69.7,Percent_Employed_Civilian_Labor_Force,27037,2011,percent
66.1,Percent_Employed_Civilian_Labor_Force,27053,2011,percent
71.1,Percent_Employed_Civilian_Labor_Force,27109,2011,percent
62.6,Percent_Employed_Civilian_Labor_Force,27123,2011,percent
56.2,Percent_Employed_Civilian_Labor_Force,27137,2011,percent
73.2,Percent_Employed_Civilian_Labor_Force,27139,2011,percent
66.8,Percent_Employed_Civilian_Labor_Force,27141,2011,percent
66.1,Percent_Employed_Civilian_Labor_Force,27145,2011,percent
67.2,Percent_Employed_Civilian_Labor_Force,27163,2011,percent
68.9,Percent_Employed_Civilian_Labor_Force,27171,2011,percent
62.1,Percent_Employed_Civilian_Labor_Force,28033,2011,percent
57.9,Percent_Employed_Civilian_Labor_Force,28035,2011,percent
55.7,Percent_Employed_Civilian_Labor_Force,28047,2011,percent
55,Percent_Employed_Civilian_Labor_Force,28049,2011,percent
54.2,Percent_Employed_Civilian_Labor_Force,28059,2011,percent
50.1,Percent_Employed_Civilian_Labor_Force,28067,2011,percent
51.4,Percent_Employed_Civilian_Labor_Force,28075,2011,percent
59.3,Percent_Employed_Civilian_Labor_Force,28081,2011,percent
60.4,Percent_Employed_Civilian_Labor_Force,28089,2011,percent
61.1,Percent_Employed_Civilian_Labor_Force,28121,2011,percent
65,Percent_Employed_Civilian_Labor_Force,29019,2011,percent
59.3,Percent_Employed_Civilian_Labor_Force,29021,2011,percent
58.4,Percent_Employed_Civilian_Labor_Force,29031,2011,percent
61,Percent_Employed_Civilian_Labor_Force,29037,2011,percent
62.5,Percent_Employed_Civilian_Labor_Force,29043,2011,percent
65.9,Percent_Employed_Civilian_Labor_Force,29047,2011,percent
59.2,Percent_Employed_Civilian_Labor_Force,29051,2011,percent
58.6,Percent_Employed_Civilian_Labor_Force,29071,2011,percent
58.4,Percent_Employed_Civilian_Labor_Force,29077,2011,percent
59.4,Percent_Employed_Civilian_Labor_Force,29095,2011,percent
58.7,Percent_Employed_Civilian_Labor_Force,29097,2011,percent
60.9,Percent_Employed_Civilian_Labor_Force,29099,2011,percent
66.5,Percent_Employed_Civilian_Labor_Force,29165,2011,percent
67.3,Percent_Employed_Civilian_Labor_Force,29183,2011,percent
45.7,Percent_Employed_Civilian_Labor_Force,29187,2011,percent
60.3,Percent_Employed_Civilian_Labor_Force,29189,2011,percent
54.2,Percent_Employed_Civilian_Labor_Force,29510,2011,percent
56.3,Percent_Employed_Civilian_Labor_Force,30013,2011,percent
61.1,Percent_Employed_Civilian_Labor_Force,30029,2011,percent
65.3,Percent_Employed_Civilian_Labor_Force,30031,2011,percent
62.7,Percent_Employed_Civilian_Labor_Force,30063,2011,percent
64.1,Percent_Employed_Civilian_Labor_Force,30111,2011,percent
66.5,Percent_Employed_Civilian_Labor_Force,31055,2011,percent
67.8,Percent_Employed_Civilian_Labor_Force,31109,2011,percent
67.7,Percent_Employed_Civilian_Labor_Force,31153,2011,percent
56.7,Percent_Employed_Civilian_Labor_Force,32003,2011,percent
59.2,Percent_Employed_Civilian_Labor_Force,32031,2011,percent
60.5,Percent_Employed_Civilian_Labor_Force,33005,2011,percent
57.1,Percent_Employed_Civilian_Labor_Force,33009,2011,percent
65.6,Percent_Employed_Civilian_Labor_Force,33011,2011,percent
63.5,Percent_Employed_Civilian_Labor_Force,33013,2011,percent
68.1,Percent_Employed_Civilian_Labor_Force,33015,2011,percent
62.7,Percent_Employed_Civilian_Labor_Force,33017,2011,percent
56.5,Percent_Employed_Civilian_Labor_Force,34001,2011,percent
60.9,Percent_Employed_Civilian_Labor_Force,34003,2011,percent
61.4,Percent_Employed_Civilian_Labor_Force,34005,2011,percent
57.8,Percent_Employed_Civilian_Labor_Force,34007,2011,percent
52.8,Percent_Employed_Civilian_Labor_Force,34009,2011,percent
51.9,Percent_Employed_Civilian_Labor_Force,34011,2011,percent
55.7,Percent_Employed_Civilian_Labor_Force,34013,2011,percent
60.8,Percent_Employed_Civilian_Labor_Force,34015,2011,percent
61.6,Percent_Employed_Civilian_Labor_Force,34017,2011,percent
63.9,Percent_Employed_Civilian_Labor_Force,34019,2011,percent
59.6,Percent_Employed_Civilian_Labor_Force,34021,2011,percent
60.7,Percent_Employed_Civilian_Labor_Force,34023,2011,percent
60,Percent_Employed_Civilian_Labor_Force,34025,2011,percent
62.9,Percent_Employed_Civilian_Labor_Force,34027,2011,percent
51.2,Percent_Employed_Civilian_Labor_Force,34029,2011,percent
55.6,Percent_Employed_Civilian_Labor_Force,34031,2011,percent
54.5,Percent_Employed_Civilian_Labor_Force,34033,2011,percent
64.2,Percent_Employed_Civilian_Labor_Force,34035,2011,percent
62.7,Percent_Employed_Civilian_Labor_Force,34037,2011,percent
60.7,Percent_Employed_Civilian_Labor_Force,34039,2011,percent
60.8,Percent_Employed_Civilian_Labor_Force,34041,2011,percent
57.1,Percent_Employed_Civilian_Labor_Force,35001,2011,percent
55,Percent_Employed_Civilian_Labor_Force,35005,2011,percent
52.1,Percent_Employed_Civilian_Labor_Force,35013,2011,percent
56.1,Percent_Employed_Civilian_Labor_Force,35025,2011,percent
42.4,Percent_Employed_Civilian_Labor_Force,35031,2011,percent
44.9,Percent_Employed_Civilian_Labor_Force,35035,2011,percent
54.1,Percent_Employed_Civilian_Labor_Force,35043,2011,percent
55,Percent_Employed_Civilian_Labor_Force,35045,2011,percent
60.6,Percent_Employed_Civilian_Labor_Force,35049,2011,percent
46.4,Percent_Employed_Civilian_Labor_Force,35061,2011,percent
61,Percent_Employed_Civilian_Labor_Force,36001,2011,percent
50,Percent_Employed_Civilian_Labor_Force,36005,2011,percent
52.5,Percent_Employed_Civilian_Labor_Force,36007,2011,percent
53.7,Percent_Employed_Civilian_Labor_Force,36009,2011,percent
56.8,Percent_Employed_Civilian_Labor_Force,36011,2011,percent
53.7,Percent_Employed_Civilian_Labor_Force,36013,2011,percent
53.9,Percent_Employed_Civilian_Labor_Force,36015,2011,percent
54,Percent_Employed_Civilian_Labor_Force,36019,2011,percent
57.5,Percent_Employed_Civilian_Labor_Force,36027,2011,percent
57,Percent_Employed_Civilian_Labor_Force,36029,2011,percent
47.2,Percent_Employed_Civilian_Labor_Force,36045,2011,percent
54.7,Percent_Employed_Civilian_Labor_Force,36047,2011,percent
57.5,Percent_Employed_Civilian_Labor_Force,36051,2011,percent
53.4,Percent_Employed_Civilian_Labor_Force,36053,2011,percent
58.2,Percent_Employed_Civilian_Labor_Force,36055,2011,percent
59.7,Percent_Employed_Civilian_Labor_Force,36059,2011,percent
60.8,Percent_Employed_Civilian_Labor_Force,36061,2011,percent
57.3,Percent_Employed_Civilian_Labor_Force,36063,2011,percent
54.8,Percent_Employed_Civilian_Labor_Force,36065,2011,percent
57.4,Percent_Employed_Civilian_Labor_Force,36067,2011,percent
59.2,Percent_Employed_Civilian_Labor_Force,36069,2011,percent
59,Percent_Employed_Civilian_Labor_Force,36071,2011,percent
52.3,Percent_Employed_Civilian_Labor_Force,36075,2011,percent
64.2,Percent_Employed_Civilian_Labor_Force,36079,2011,percent
57.4,Percent_Employed_Civilian_Labor_Force,36081,2011,percent
61.5,Percent_Employed_Civilian_Labor_Force,36083,2011,percent
54.8,Percent_Employed_Civilian_Labor_Force,36085,2011,percent
60,Percent_Employed_Civilian_Labor_Force,36087,2011,percent
50,Percent_Employed_Civilian_Labor_Force,36089,2011,percent
62.7,Percent_Employed_Civilian_Labor_Force,36091,2011,percent
60.3,Percent_Employed_Civilian_Labor_Force,36093,2011,percent
53.9,Percent_Employed_Civilian_Labor_Force,36101,2011,percent
60.7,Percent_Employed_Civilian_Labor_Force,36103,2011,percent
52.2,Percent_Employed_Civilian_Labor_Force,36105,2011,percent
57.8,Percent_Employed_Civilian_Labor_Force,36109,2011,percent
55.6,Percent_Employed_Civilian_Labor_Force,36111,2011,percent
57.3,Percent_Employed_Civilian_Labor_Force,36113,2011,percent
59.6,Percent_Employed_Civilian_Labor_Force,36117,2011,percent
58.9,Percent_Employed_Civilian_Labor_Force,36119,2011,percent
57.8,Percent_Employed_Civilian_Labor_Force,37001,2011,percent
40.4,Percent_Employed_Civilian_Labor_Force,37019,2011,percent
57.3,Percent_Employed_Civilian_Labor_Force,37021,2011,percent
47.2,Percent_Employed_Civilian_Labor_Force,37023,2011,percent
57.8,Percent_Employed_Civilian_Labor_Force,37025,2011,percent
49.1,Percent_Employed_Civilian_Labor_Force,37027,2011,percent
50.9,Percent_Employed_Civilian_Labor_Force,37031,2011,percent
55.5,Percent_Employed_Civilian_Labor_Force,37035,2011,percent
52.2,Percent_Employed_Civilian_Labor_Force,37045,2011,percent
48.1,Percent_Employed_Civilian_Labor_Force,37049,2011,percent
47.3,Percent_Employed_Civilian_Labor_Force,37051,2011,percent
56.4,Percent_Employed_Civilian_Labor_Force,37057,2011,percent
62,Percent_Employed_Civilian_Labor_Force,37063,2011,percent
56.7,Percent_Employed_Civilian_Labor_Force,37067,2011,percent
56.3,Percent_Employed_Civilian_Labor_Force,37071,2011,percent
58,Percent_Employed_Civilian_Labor_Force,37081,2011,percent
52.3,Percent_Employed_Civilian_Labor_Force,37085,2011,percent
50.3,Percent_Employed_Civilian_Labor_Force,37089,2011,percent
55.2,Percent_Employed_Civilian_Labor_Force,37097,2011,percent
60.5,Percent_Employed_Civilian_Labor_Force,37101,2011,percent
58.3,Percent_Employed_Civilian_Labor_Force,37109,2011,percent
64,Percent_Employed_Civilian_Labor_Force,37119,2011,percent
46.9,Percent_Employed_Civilian_Labor_Force,37125,2011,percent
52.9,Percent_Employed_Civilian_Labor_Force,37127,2011,percent
55,Percent_Employed_Civilian_Labor_Force,37129,2011,percent
45.1,Percent_Employed_Civilian_Labor_Force,37133,2011,percent
60.5,Percent_Employed_Civilian_Labor_Force,37135,2011,percent
55.9,Percent_Employed_Civilian_Labor_Force,37147,2011,percent
55.1,Percent_Employed_Civilian_Labor_Force,37151,2011,percent
46.2,Percent_Employed_Civilian_Labor_Force,37155,2011,percent
48.9,Percent_Employed_Civilian_Labor_Force,37157,2011,percent
50.4,Percent_Employed_Civilian_Labor_Force,37159,2011,percent
46.3,Percent_Employed_Civilian_Labor_Force,37161,2011,percent
53.7,Percent_Employed_Civilian_Labor_Force,37171,2011,percent
60.4,Percent_Employed_Civilian_Labor_Force,37179,2011,percent
64.7,Percent_Employed_Civilian_Labor_Force,37183,2011,percent
53.1,Percent_Employed_Civilian_Labor_Force,37191,2011,percent
45.4,Percent_Employed_Civilian_Labor_Force,37193,2011,percent
54,Percent_Employed_Civilian_Labor_Force,37195,2011,percent
71.3,Percent_Employed_Civilian_Labor_Force,38015,2011,percent
74.9,Percent_Employed_Civilian_Labor_Force,38017,2011,percent
65.6,Percent_Employed_Civilian_Labor_Force,38035,2011,percent
54.4,Percent_Employed_Civilian_Labor_Force,39003,2011,percent
50.5,Percent_Employed_Civilian_Labor_Force,39007,2011,percent
50,Percent_Employed_Civilian_Labor_Force,39013,2011,percent
60,Percent_Employed_Civilian_Labor_Force,39017,2011,percent
51.5,Percent_Employed_Civilian_Labor_Force,39023,2011,percent
62.1,Percent_Employed_Civilian_Labor_Force,39025,2011,percent
50,Percent_Employed_Civilian_Labor_Force,39029,2011,percent
55,Percent_Employed_Civilian_Labor_Force,39035,2011,percent
69.3,Percent_Employed_Civilian_Labor_Force,39041,2011,percent
55.9,Percent_Employed_Civilian_Labor_Force,39043,2011,percent
60.4,Percent_Employed_Civilian_Labor_Force,39045,2011,percent
62.4,Percent_Employed_Civilian_Labor_Force,39049,2011,percent
64.3,Percent_Employed_Civilian_Labor_Force,39055,2011,percent
53.8,Percent_Employed_Civilian_Labor_Force,39057,2011,percent
58.3,Percent_Employed_Civilian_Labor_Force,39061,2011,percent
60.1,Percent_Employed_Civilian_Labor_Force,39063,2011,percent
51.1,Percent_Employed_Civilian_Labor_Force,39081,2011,percent
62.2,Percent_Employed_Civilian_Labor_Force,39085,2011,percent
61.4,Percent_Employed_Civilian_Labor_Force,39089,2011,percent
56.8,Percent_Employed_Civilian_Labor_Force,39093,2011,percent
53.7,Percent_Employed_Civilian_Labor_Force,39095,2011,percent
52.9,Percent_Employed_Civilian_Labor_Force,39099,2011,percent
45.8,Percent_Employed_Civilian_Labor_Force,39101,2011,percent
63.4,Percent_Employed_Civilian_Labor_Force,39103,2011,percent
59,Percent_Employed_Civilian_Labor_Force,39109,2011,percent
54,Percent_Employed_Civilian_Labor_Force,39113,2011,percent
54.1,Percent_Employed_Civilian_Labor_Force,39119,2011,percent
60.2,Percent_Employed_Civilian_Labor_Force,39133,2011,percent
52.2,Percent_Employed_Civilian_Labor_Force,39139,2011,percent
48.1,Percent_Employed_Civilian_Labor_Force,39141,2011,percent
43.8,Percent_Employed_Civilian_Labor_Force,39145,2011,percent
56.3,Percent_Employed_Civilian_Labor_Force,39151,2011,percent
57.7,Percent_Employed_Civilian_Labor_Force,39153,2011,percent
51.6,Percent_Employed_Civilian_Labor_Force,39155,2011,percent
58.5,Percent_Employed_Civilian_Labor_Force,39157,2011,percent
62.1,Percent_Employed_Civilian_Labor_Force,39165,2011,percent
59.7,Percent_Employed_Civilian_Labor_Force,39169,2011,percent
61,Percent_Employed_Civilian_Labor_Force,39173,2011,percent
64.8,Percent_Employed_Civilian_Labor_Force,40017,2011,percent
62.8,Percent_Employed_Civilian_Labor_Force,40027,2011,percent
52.1,Percent_Employed_Civilian_Labor_Force,40031,2011,percent
49.4,Percent_Employed_Civilian_Labor_Force,40037,2011,percent
45.4,Percent_Employed_Civilian_Labor_Force,40101,2011,percent
60.1,Percent_Employed_Civilian_Labor_Force,40109,2011,percent
59,Percent_Employed_Civilian_Labor_Force,40119,2011,percent
53.3,Percent_Employed_Civilian_Labor_Force,40125,2011,percent
58.9,Percent_Employed_Civilian_Labor_Force,40131,2011,percent
62.8,Percent_Employed_Civilian_Labor_Force,40143,2011,percent
55.8,Percent_Employed_Civilian_Labor_Force,40145,2011,percent
51,Percent_Employed_Civilian_Labor_Force,41003,2011,percent
56.1,Percent_Employed_Civilian_Labor_Force,41005,2011,percent
54,Percent_Employed_Civilian_Labor_Force,41017,2011,percent
45.2,Percent_Employed_Civilian_Labor_Force,41019,2011,percent
50,Percent_Employed_Civilian_Labor_Force,41029,2011,percent
39.1,Percent_Employed_Civilian_Labor_Force,41033,2011,percent
45.8,Percent_Employed_Civilian_Labor_Force,41035,2011,percent
51.2,Percent_Employed_Civilian_Labor_Force,41039,2011,percent
50.8,Percent_Employed_Civilian_Labor_Force,41043,2011,percent
51.9,Percent_Employed_Civilian_Labor_Force,41047,2011,percent
61.6,Percent_Employed_Civilian_Labor_Force,41051,2011,percent
52.4,Percent_Employed_Civilian_Labor_Force,41053,2011,percent
56.9,Percent_Employed_Civilian_Labor_Force,41059,2011,percent
63.6,Percent_Employed_Civilian_Labor_Force,41067,2011,percent
58.2,Percent_Employed_Civilian_Labor_Force,41071,2011,percent
60.7,Percent_Employed_Civilian_Labor_Force,42001,2011,percent
58.2,Percent_Employed_Civilian_Labor_Force,42003,2011,percent
52.9,Percent_Employed_Civilian_Labor_Force,42005,2011,percent
55.5,Percent_Employed_Civilian_Labor_Force,42007,2011,percent
58.5,Percent_Employed_Civilian_Labor_Force,42011,2011,percent
54.8,Percent_Employed_Civilian_Labor_Force,42013,2011,percent
62.9,Percent_Employed_Civilian_Labor_Force,42017,2011,percent
60.4,Percent_Employed_Civilian_Labor_Force,42019,2011,percent
49.2,Percent_Employed_Civilian_Labor_Force,42021,2011,percent
49.4,Percent_Employed_Civilian_Labor_Force,42025,2011,percent
56.8,Percent_Employed_Civilian_Labor_Force,42027,2011,percent
63,Percent_Employed_Civilian_Labor_Force,42029,2011,percent
51.8,Percent_Employed_Civilian_Labor_Force,42033,2011,percent
52.9,Percent_Employed_Civilian_Labor_Force,42037,2011,percent
52.4,Percent_Employed_Civilian_Labor_Force,42039,2011,percent
61.5,Percent_Employed_Civilian_Labor_Force,42041,2011,percent
61,Percent_Employed_Civilian_Labor_Force,42043,2011,percent
58.5,Percent_Employed_Civilian_Labor_Force,42045,2011,percent
57.3,Percent_Employed_Civilian_Labor_Force,42049,2011,percent
47.2,Percent_Employed_Civilian_Labor_Force,42051,2011,percent
57.9,Percent_Employed_Civilian_Labor_Force,42055,2011,percent
51.1,Percent_Employed_Civilian_Labor_Force,42063,2011,percent
56.6,Percent_Employed_Civilian_Labor_Force,42069,2011,percent
62.1,Percent_Employed_Civilian_Labor_Force,42071,2011,percent
54.3,Percent_Employed_Civilian_Labor_Force,42073,2011,percent
59.6,Percent_Employed_Civilian_Labor_Force,42075,2011,percent
57.9,Percent_Employed_Civilian_Labor_Force,42077,2011,percent
55.7,Percent_Employed_Civilian_Labor_Force,42079,2011,percent
56.3,Percent_Employed_Civilian_Labor_Force,42081,2011,percent
51.8,Percent_Employed_Civilian_Labor_Force,42085,2011,percent
53,Percent_Employed_Civilian_Labor_Force,42089,2011,percent
63.4,Percent_Employed_Civilian_Labor_Force,42091,2011,percent
58.5,Percent_Employed_Civilian_Labor_Force,42095,2011,percent
52.3,Percent_Employed_Civilian_Labor_Force,42097,2011,percent
48.5,Percent_Employed_Civilian_Labor_Force,42101,2011,percent
51.7,Percent_Employed_Civilian_Labor_Force,42107,2011,percent
51.7,Percent_Employed_Civilian_Labor_Force,42111,2011,percent
57.9,Percent_Employed_Civilian_Labor_Force,42125,2011,percent
56.6,Percent_Employed_Civilian_Labor_Force,42129,2011,percent
60.8,Percent_Employed_Civilian_Labor_Force,42133,2011,percent
62.2,Percent_Employed_Civilian_Labor_Force,44003,2011,percent
58.3,Percent_Employed_Civilian_Labor_Force,44005,2011,percent
58.1,Percent_Employed_Civilian_Labor_Force,44007,2011,percent
63.7,Percent_Employed_Civilian_Labor_Force,44009,2011,percent
52.1,Percent_Employed_Civilian_Labor_Force,45003,2011,percent
52.5,Percent_Employed_Civilian_Labor_Force,45007,2011,percent
48.7,Percent_Employed_Civilian_Labor_Force,45013,2011,percent
54.1,Percent_Employed_Civilian_Labor_Force,45015,2011,percent
57.6,Percent_Employed_Civilian_Labor_Force,45019,2011,percent
49.8,Percent_Employed_Civilian_Labor_Force,45031,2011,percent
56,Percent_Employed_Civilian_Labor_Force,45035,2011,percent
52.5,Percent_Employed_Civilian_Labor_Force,45041,2011,percent
57.6,Percent_Employed_Civilian_Labor_Force,45045,2011,percent
50.3,Percent_Employed_Civilian_Labor_Force,45047,2011,percent
54.7,Percent_Employed_Civilian_Labor_Force,45051,2011,percent
52.3,Percent_Employed_Civilian_Labor_Force,45057,2011,percent
47.3,Percent_Employed_Civilian_Labor_Force,45059,2011,percent
60.3,Percent_Employed_Civilian_Labor_Force,45063,2011,percent
45.6,Percent_Employed_Civilian_Labor_Force,45073,2011,percent
46.2,Percent_Employed_Civilian_Labor_Force,45075,2011,percent
50.4,Percent_Employed_Civilian_Labor_Force,45077,2011,percent
55.3,Percent_Employed_Civilian_Labor_Force,45079,2011,percent
55.3,Percent_Employed_Civilian_Labor_Force,45083,2011,percent
48.3,Percent_Employed_Civilian_Labor_Force,45085,2011,percent
58.8,Percent_Employed_Civilian_Labor_Force,45091,2011,percent
70.8,Percent_Employed_Civilian_Labor_Force,46099,2011,percent
60.6,Percent_Employed_Civilian_Labor_Force,46103,2011,percent
51.8,Percent_Employed_Civilian_Labor_Force,47001,2011,percent
53.9,Percent_Employed_Civilian_Labor_Force,47009,2011,percent
52.1,Percent_Employed_Civilian_Labor_Force,47011,2011,percent
62.6,Percent_Employed_Civilian_Labor_Force,47037,2011,percent
50.5,Percent_Employed_Civilian_Labor_Force,47059,2011,percent
55.8,Percent_Employed_Civilian_Labor_Force,47065,2011,percent
60.9,Percent_Employed_Civilian_Labor_Force,47093,2011,percent
51.6,Percent_Employed_Civilian_Labor_Force,47113,2011,percent
59.4,Percent_Employed_Civilian_Labor_Force,47119,2011,percent
51,Percent_Employed_Civilian_Labor_Force,47125,2011,percent
49.6,Percent_Employed_Civilian_Labor_Force,47141,2011,percent
59.7,Percent_Employed_Civilian_Labor_Force,47147,2011,percent
63.5,Percent_Employed_Civilian_Labor_Force,47149,2011,percent
59,Percent_Employed_Civilian_Labor_Force,47155,2011,percent
57.4,Percent_Employed_Civilian_Labor_Force,47157,2011,percent
50.7,Percent_Employed_Civilian_Labor_Force,47163,2011,percent
60.7,Percent_Employed_Civilian_Labor_Force,47165,2011,percent
53.7,Percent_Employed_Civilian_Labor_Force,47179,2011,percent
63.8,Percent_Employed_Civilian_Labor_Force,47187,2011,percent
61.5,Percent_Employed_Civilian_Labor_Force,47189,2011,percent
55.4,Percent_Employed_Civilian_Labor_Force,48005,2011,percent
56.5,Percent_Employed_Civilian_Labor_Force,48021,2011,percent
51.8,Percent_Employed_Civilian_Labor_Force,48027,2011,percent
57.4,Percent_Employed_Civilian_Labor_Force,48029,2011,percent
49.1,Percent_Employed_Civilian_Labor_Force,48037,2011,percent
61.7,Percent_Employed_Civilian_Labor_Force,48039,2011,percent
57.6,Percent_Employed_Civilian_Labor_Force,48041,2011,percent
48.5,Percent_Employed_Civilian_Labor_Force,48061,2011,percent
68.1,Percent_Employed_Civilian_Labor_Force,48085,2011,percent
55.8,Percent_Employed_Civilian_Labor_Force,48091,2011,percent
32.4,Percent_Employed_Civilian_Labor_Force,48099,2011,percent
61.7,Percent_Employed_Civilian_Labor_Force,48113,2011,percent
69.6,Percent_Employed_Civilian_Labor_Force,48121,2011,percent
63.6,Percent_Employed_Civilian_Labor_Force,48135,2011,percent
63,Percent_Employed_Civilian_Labor_Force,48139,2011,percent
52.3,Percent_Employed_Civilian_Labor_Force,48141,2011,percent
65.3,Percent_Employed_Civilian_Labor_Force,48157,2011,percent
58.3,Percent_Employed_Civilian_Labor_Force,48167,2011,percent
56.4,Percent_Employed_Civilian_Labor_Force,48181,2011,percent
60.2,Percent_Employed_Civilian_Labor_Force,48183,2011,percent
63.3,Percent_Employed_Civilian_Labor_Force,48187,2011,percent
61.9,Percent_Employed_Civilian_Labor_Force,48201,2011,percent
58,Percent_Employed_Civilian_Labor_Force,48203,2011,percent
62.4,Percent_Employed_Civilian_Labor_Force,48209,2011,percent
49.1,Percent_Employed_Civilian_Labor_Force,48213,2011,percent
52.1,Percent_Employed_Civilian_Labor_Force,48215,2011,percent
53.7,Percent_Employed_Civilian_Labor_Force,48231,2011,percent
51.5,Percent_Employed_Civilian_Labor_Force,48245,2011,percent
57.3,Percent_Employed_Civilian_Labor_Force,48251,2011,percent
60.2,Percent_Employed_Civilian_Labor_Force,48257,2011,percent
47.5,Percent_Employed_Civilian_Labor_Force,48291,2011,percent
63.9,Percent_Employed_Civilian_Labor_Force,48303,2011,percent
56.8,Percent_Employed_Civilian_Labor_Force,48309,2011,percent
65.1,Percent_Employed_Civilian_Labor_Force,48329,2011,percent
60.8,Percent_Employed_Civilian_Labor_Force,48339,2011,percent
51.1,Percent_Employed_Civilian_Labor_Force,48347,2011,percent
58.2,Percent_Employed_Civilian_Labor_Force,48355,2011,percent
52.4,Percent_Employed_Civilian_Labor_Force,48361,2011,percent
57.8,Percent_Employed_Civilian_Labor_Force,48367,2011,percent
57.1,Percent_Employed_Civilian_Labor_Force,48375,2011,percent
65.7,Percent_Employed_Civilian_Labor_Force,48381,2011,percent
64.5,Percent_Employed_Civilian_Labor_Force,48397,2011,percent
53.5,Percent_Employed_Civilian_Labor_Force,48409,2011,percent
55.6,Percent_Employed_Civilian_Labor_Force,48423,2011,percent
62.7,Percent_Employed_Civilian_Labor_Force,48439,2011,percent
54.2,Percent_Employed_Civilian_Labor_Force,48441,2011,percent
56.8,Percent_Employed_Civilian_Labor_Force,48451,2011,percent
66.2,Percent_Employed_Civilian_Labor_Force,48453,2011,percent
57.6,Percent_Employed_Civilian_Labor_Force,48469,2011,percent
41.5,Percent_Employed_Civilian_Labor_Force,48471,2011,percent
54.9,Percent_Employed_Civilian_Labor_Force,48479,2011,percent
51.6,Percent_Employed_Civilian_Labor_Force,48485,2011,percent
64.9,Percent_Employed_Civilian_Labor_Force,48491,2011,percent
64.6,Percent_Employed_Civilian_Labor_Force,49005,2011,percent
65.3,Percent_Employed_Civilian_Labor_Force,49011,2011,percent
65.8,Percent_Employed_Civilian_Labor_Force,49035,2011,percent
61.6,Percent_Employed_Civilian_Labor_Force,49049,2011,percent
51.2,Percent_Employed_Civilian_Labor_Force,49053,2011,percent
60.7,Percent_Employed_Civilian_Labor_Force,49057,2011,percent
66.3,Percent_Employed_Civilian_Labor_Force,50007,2011,percent
54.9,Percent_Employed_Civilian_Labor_Force,51003,2011,percent
75.4,Percent_Employed_Civilian_Labor_Force,51013,2011,percent
57.7,Percent_Employed_Civilian_Labor_Force,51015,2011,percent
60.6,Percent_Employed_Civilian_Labor_Force,51019,2011,percent
63.9,Percent_Employed_Civilian_Labor_Force,51041,2011,percent
67.4,Percent_Employed_Civilian_Labor_Force,51059,2011,percent
63.6,Percent_Employed_Civilian_Labor_Force,51061,2011,percent
60.6,Percent_Employed_Civilian_Labor_Force,51069,2011,percent
62.3,Percent_Employed_Civilian_Labor_Force,51085,2011,percent
64.4,Percent_Employed_Civilian_Labor_Force,51087,2011,percent
NA,Percent_Employed_Civilian_Labor_Force,51095,2011,percent
71.1,Percent_Employed_Civilian_Labor_Force,51107,2011,percent
54.8,Percent_Employed_Civilian_Labor_Force,51121,2011,percent
68,Percent_Employed_Civilian_Labor_Force,51153,2011,percent
60.2,Percent_Employed_Civilian_Labor_Force,51161,2011,percent
62.3,Percent_Employed_Civilian_Labor_Force,51165,2011,percent
62.8,Percent_Employed_Civilian_Labor_Force,51177,2011,percent
63.1,Percent_Employed_Civilian_Labor_Force,51179,2011,percent
58.5,Percent_Employed_Civilian_Labor_Force,51199,2011,percent
72.2,Percent_Employed_Civilian_Labor_Force,51510,2011,percent
59.2,Percent_Employed_Civilian_Labor_Force,51550,2011,percent
55.3,Percent_Employed_Civilian_Labor_Force,51650,2011,percent
51.3,Percent_Employed_Civilian_Labor_Force,51680,2011,percent
58.3,Percent_Employed_Civilian_Labor_Force,51700,2011,percent
52.6,Percent_Employed_Civilian_Labor_Force,51710,2011,percent
53.8,Percent_Employed_Civilian_Labor_Force,51740,2011,percent
56.7,Percent_Employed_Civilian_Labor_Force,51760,2011,percent
56.5,Percent_Employed_Civilian_Labor_Force,51770,2011,percent
59.9,Percent_Employed_Civilian_Labor_Force,51800,2011,percent
60.9,Percent_Employed_Civilian_Labor_Force,51810,2011,percent
56.2,Percent_Employed_Civilian_Labor_Force,53005,2011,percent
57.7,Percent_Employed_Civilian_Labor_Force,53007,2011,percent
45.3,Percent_Employed_Civilian_Labor_Force,53009,2011,percent
57.2,Percent_Employed_Civilian_Labor_Force,53011,2011,percent
46.3,Percent_Employed_Civilian_Labor_Force,53015,2011,percent
57.5,Percent_Employed_Civilian_Labor_Force,53021,2011,percent
57.4,Percent_Employed_Civilian_Labor_Force,53025,2011,percent
45.6,Percent_Employed_Civilian_Labor_Force,53027,2011,percent
49.1,Percent_Employed_Civilian_Labor_Force,53029,2011,percent
63.6,Percent_Employed_Civilian_Labor_Force,53033,2011,percent
50.6,Percent_Employed_Civilian_Labor_Force,53035,2011,percent
47.6,Percent_Employed_Civilian_Labor_Force,53041,2011,percent
54.9,Percent_Employed_Civilian_Labor_Force,53053,2011,percent
53.3,Percent_Employed_Civilian_Labor_Force,53057,2011,percent
60.3,Percent_Employed_Civilian_Labor_Force,53061,2011,percent
55.3,Percent_Employed_Civilian_Labor_Force,53063,2011,percent
57.3,Percent_Employed_Civilian_Labor_Force,53067,2011,percent
57.9,Percent_Employed_Civilian_Labor_Force,53073,2011,percent
54.5,Percent_Employed_Civilian_Labor_Force,53077,2011,percent
57.5,Percent_Employed_Civilian_Labor_Force,54003,2011,percent
49.5,Percent_Employed_Civilian_Labor_Force,54011,2011,percent
51.9,Percent_Employed_Civilian_Labor_Force,54033,2011,percent
54.4,Percent_Employed_Civilian_Labor_Force,54039,2011,percent
52.1,Percent_Employed_Civilian_Labor_Force,54061,2011,percent
47.5,Percent_Employed_Civilian_Labor_Force,54081,2011,percent
50.6,Percent_Employed_Civilian_Labor_Force,54107,2011,percent
65.4,Percent_Employed_Civilian_Labor_Force,55009,2011,percent
69.1,Percent_Employed_Civilian_Labor_Force,55025,2011,percent
60.5,Percent_Employed_Civilian_Labor_Force,55027,2011,percent
63.6,Percent_Employed_Civilian_Labor_Force,55035,2011,percent
65.8,Percent_Employed_Civilian_Labor_Force,55039,2011,percent
67.3,Percent_Employed_Civilian_Labor_Force,55055,2011,percent
59.4,Percent_Employed_Civilian_Labor_Force,55059,2011,percent
65,Percent_Employed_Civilian_Labor_Force,55063,2011,percent
63.6,Percent_Employed_Civilian_Labor_Force,55071,2011,percent
63.5,Percent_Employed_Civilian_Labor_Force,55073,2011,percent
57.8,Percent_Employed_Civilian_Labor_Force,55079,2011,percent
67.6,Percent_Employed_Civilian_Labor_Force,55087,2011,percent
63.3,Percent_Employed_Civilian_Labor_Force,55089,2011,percent
61.8,Percent_Employed_Civilian_Labor_Force,55097,2011,percent
60.2,Percent_Employed_Civilian_Labor_Force,55101,2011,percent
59.5,Percent_Employed_Civilian_Labor_Force,55105,2011,percent
67.8,Percent_Employed_Civilian_Labor_Force,55109,2011,percent
63.5,Percent_Employed_Civilian_Labor_Force,55117,2011,percent
61.3,Percent_Employed_Civilian_Labor_Force,55127,2011,percent
69.3,Percent_Employed_Civilian_Labor_Force,55131,2011,percent
65,Percent_Employed_Civilian_Labor_Force,55133,2011,percent
60.9,Percent_Employed_Civilian_Labor_Force,55139,2011,percent
59.6,Percent_Employed_Civilian_Labor_Force,55141,2011,percent
62.4,Percent_Employed_Civilian_Labor_Force,56021,2011,percent
64.9,Percent_Employed_Civilian_Labor_Force,56025,2011,percent
32.6,Percent_Employed_Civilian_Labor_Force,72013,2011,percent
40.9,Percent_Employed_Civilian_Labor_Force,72021,2011,percent
41.7,Percent_Employed_Civilian_Labor_Force,72025,2011,percent
46.4,Percent_Employed_Civilian_Labor_Force,72031,2011,percent
49.3,Percent_Employed_Civilian_Labor_Force,72061,2011,percent
28,Percent_Employed_Civilian_Labor_Force,72097,2011,percent
36.1,Percent_Employed_Civilian_Labor_Force,72113,2011,percent
44.6,Percent_Employed_Civilian_Labor_Force,72127,2011,percent
48.2,Percent_Employed_Civilian_Labor_Force,72135,2011,percent
41.9,Percent_Employed_Civilian_Labor_Force,72137,2011,percent
49.4,Percent_Employed_Civilian_Labor_Force,72139,2011,percent
