value,variable,FIPS,Date,units
5.1,Percent_Inflation_Adjusted_Income_and_Benefits_of_10000_to_14999,1003,2011,percent
8.2,Percent_Inflation_Adjusted_Income_and_Benefits_of_10000_to_14999,1015,2011,percent
6.9,Percent_Inflation_Adjusted_Income_and_Benefits_of_10000_to_14999,1043,2011,percent
10.6,Percent_Inflation_Adjusted_Income_and_Benefits_of_10000_to_14999,1049,2011,percent
5,Percent_Inflation_Adjusted_Income_and_Benefits_of_10000_to_14999,1051,2011,percent
9.5,Percent_Inflation_Adjusted_Income_and_Benefits_of_10000_to_14999,1055,2011,percent
6.2,Percent_Inflation_Adjusted_Income_and_Benefits_of_10000_to_14999,1069,2011,percent
6.9,Percent_Inflation_Adjusted_Income_and_Benefits_of_10000_to_14999,1073,2011,percent
7.5,Percent_Inflation_Adjusted_Income_and_Benefits_of_10000_to_14999,1077,2011,percent
7.5,Percent_Inflation_Adjusted_Income_and_Benefits_of_10000_to_14999,1081,2011,percent
9.2,Percent_Inflation_Adjusted_Income_and_Benefits_of_10000_to_14999,1083,2011,percent
5.4,Percent_Inflation_Adjusted_Income_and_Benefits_of_10000_to_14999,1089,2011,percent
9.3,Percent_Inflation_Adjusted_Income_and_Benefits_of_10000_to_14999,1095,2011,percent
6.8,Percent_Inflation_Adjusted_Income_and_Benefits_of_10000_to_14999,1097,2011,percent
6.6,Percent_Inflation_Adjusted_Income_and_Benefits_of_10000_to_14999,1101,2011,percent
5.5,Percent_Inflation_Adjusted_Income_and_Benefits_of_10000_to_14999,1103,2011,percent
4.7,Percent_Inflation_Adjusted_Income_and_Benefits_of_10000_to_14999,1115,2011,percent
2.4,Percent_Inflation_Adjusted_Income_and_Benefits_of_10000_to_14999,1117,2011,percent
13,Percent_Inflation_Adjusted_Income_and_Benefits_of_10000_to_14999,1121,2011,percent
8.5,Percent_Inflation_Adjusted_Income_and_Benefits_of_10000_to_14999,1125,2011,percent
8.7,Percent_Inflation_Adjusted_Income_and_Benefits_of_10000_to_14999,1127,2011,percent
3.2,Percent_Inflation_Adjusted_Income_and_Benefits_of_10000_to_14999,2020,2011,percent
3.3,Percent_Inflation_Adjusted_Income_and_Benefits_of_10000_to_14999,2090,2011,percent
3.4,Percent_Inflation_Adjusted_Income_and_Benefits_of_10000_to_14999,2170,2011,percent
9.3,Percent_Inflation_Adjusted_Income_and_Benefits_of_10000_to_14999,4001,2011,percent
7,Percent_Inflation_Adjusted_Income_and_Benefits_of_10000_to_14999,4003,2011,percent
5.5,Percent_Inflation_Adjusted_Income_and_Benefits_of_10000_to_14999,4005,2011,percent
5,Percent_Inflation_Adjusted_Income_and_Benefits_of_10000_to_14999,4013,2011,percent
9.1,Percent_Inflation_Adjusted_Income_and_Benefits_of_10000_to_14999,4015,2011,percent
8.2,Percent_Inflation_Adjusted_Income_and_Benefits_of_10000_to_14999,4017,2011,percent
6.8,Percent_Inflation_Adjusted_Income_and_Benefits_of_10000_to_14999,4019,2011,percent
4,Percent_Inflation_Adjusted_Income_and_Benefits_of_10000_to_14999,4021,2011,percent
6.1,Percent_Inflation_Adjusted_Income_and_Benefits_of_10000_to_14999,4025,2011,percent
6.9,Percent_Inflation_Adjusted_Income_and_Benefits_of_10000_to_14999,4027,2011,percent
3.1,Percent_Inflation_Adjusted_Income_and_Benefits_of_10000_to_14999,5007,2011,percent
8.7,Percent_Inflation_Adjusted_Income_and_Benefits_of_10000_to_14999,5031,2011,percent
4.5,Percent_Inflation_Adjusted_Income_and_Benefits_of_10000_to_14999,5045,2011,percent
7.4,Percent_Inflation_Adjusted_Income_and_Benefits_of_10000_to_14999,5051,2011,percent
9.9,Percent_Inflation_Adjusted_Income_and_Benefits_of_10000_to_14999,5069,2011,percent
5.7,Percent_Inflation_Adjusted_Income_and_Benefits_of_10000_to_14999,5085,2011,percent
6.6,Percent_Inflation_Adjusted_Income_and_Benefits_of_10000_to_14999,5119,2011,percent
4,Percent_Inflation_Adjusted_Income_and_Benefits_of_10000_to_14999,5125,2011,percent
9.1,Percent_Inflation_Adjusted_Income_and_Benefits_of_10000_to_14999,5131,2011,percent
7.3,Percent_Inflation_Adjusted_Income_and_Benefits_of_10000_to_14999,5143,2011,percent
6.6,Percent_Inflation_Adjusted_Income_and_Benefits_of_10000_to_14999,5145,2011,percent
4.9,Percent_Inflation_Adjusted_Income_and_Benefits_of_10000_to_14999,6001,2011,percent
9.1,Percent_Inflation_Adjusted_Income_and_Benefits_of_10000_to_14999,6007,2011,percent
3.8,Percent_Inflation_Adjusted_Income_and_Benefits_of_10000_to_14999,6013,2011,percent
4,Percent_Inflation_Adjusted_Income_and_Benefits_of_10000_to_14999,6017,2011,percent
7.4,Percent_Inflation_Adjusted_Income_and_Benefits_of_10000_to_14999,6019,2011,percent
7.1,Percent_Inflation_Adjusted_Income_and_Benefits_of_10000_to_14999,6023,2011,percent
8.6,Percent_Inflation_Adjusted_Income_and_Benefits_of_10000_to_14999,6025,2011,percent
8.1,Percent_Inflation_Adjusted_Income_and_Benefits_of_10000_to_14999,6029,2011,percent
3.9,Percent_Inflation_Adjusted_Income_and_Benefits_of_10000_to_14999,6031,2011,percent
6.1,Percent_Inflation_Adjusted_Income_and_Benefits_of_10000_to_14999,6033,2011,percent
6.1,Percent_Inflation_Adjusted_Income_and_Benefits_of_10000_to_14999,6037,2011,percent
4.9,Percent_Inflation_Adjusted_Income_and_Benefits_of_10000_to_14999,6039,2011,percent
4.3,Percent_Inflation_Adjusted_Income_and_Benefits_of_10000_to_14999,6041,2011,percent
8.2,Percent_Inflation_Adjusted_Income_and_Benefits_of_10000_to_14999,6045,2011,percent
8,Percent_Inflation_Adjusted_Income_and_Benefits_of_10000_to_14999,6047,2011,percent
4.4,Percent_Inflation_Adjusted_Income_and_Benefits_of_10000_to_14999,6053,2011,percent
5.4,Percent_Inflation_Adjusted_Income_and_Benefits_of_10000_to_14999,6055,2011,percent
5.3,Percent_Inflation_Adjusted_Income_and_Benefits_of_10000_to_14999,6057,2011,percent
3.9,Percent_Inflation_Adjusted_Income_and_Benefits_of_10000_to_14999,6059,2011,percent
3.3,Percent_Inflation_Adjusted_Income_and_Benefits_of_10000_to_14999,6061,2011,percent
5.6,Percent_Inflation_Adjusted_Income_and_Benefits_of_10000_to_14999,6065,2011,percent
6.1,Percent_Inflation_Adjusted_Income_and_Benefits_of_10000_to_14999,6067,2011,percent
5.7,Percent_Inflation_Adjusted_Income_and_Benefits_of_10000_to_14999,6071,2011,percent
4.6,Percent_Inflation_Adjusted_Income_and_Benefits_of_10000_to_14999,6073,2011,percent
6,Percent_Inflation_Adjusted_Income_and_Benefits_of_10000_to_14999,6075,2011,percent
5.7,Percent_Inflation_Adjusted_Income_and_Benefits_of_10000_to_14999,6077,2011,percent
5.5,Percent_Inflation_Adjusted_Income_and_Benefits_of_10000_to_14999,6079,2011,percent
2.7,Percent_Inflation_Adjusted_Income_and_Benefits_of_10000_to_14999,6081,2011,percent
4.5,Percent_Inflation_Adjusted_Income_and_Benefits_of_10000_to_14999,6083,2011,percent
3.9,Percent_Inflation_Adjusted_Income_and_Benefits_of_10000_to_14999,6085,2011,percent
5.4,Percent_Inflation_Adjusted_Income_and_Benefits_of_10000_to_14999,6087,2011,percent
9.1,Percent_Inflation_Adjusted_Income_and_Benefits_of_10000_to_14999,6089,2011,percent
4.2,Percent_Inflation_Adjusted_Income_and_Benefits_of_10000_to_14999,6095,2011,percent
4.6,Percent_Inflation_Adjusted_Income_and_Benefits_of_10000_to_14999,6097,2011,percent
7.9,Percent_Inflation_Adjusted_Income_and_Benefits_of_10000_to_14999,6099,2011,percent
4.5,Percent_Inflation_Adjusted_Income_and_Benefits_of_10000_to_14999,6101,2011,percent
7.2,Percent_Inflation_Adjusted_Income_and_Benefits_of_10000_to_14999,6107,2011,percent
3.8,Percent_Inflation_Adjusted_Income_and_Benefits_of_10000_to_14999,6111,2011,percent
8.1,Percent_Inflation_Adjusted_Income_and_Benefits_of_10000_to_14999,6113,2011,percent
6.9,Percent_Inflation_Adjusted_Income_and_Benefits_of_10000_to_14999,6115,2011,percent
4.2,Percent_Inflation_Adjusted_Income_and_Benefits_of_10000_to_14999,8001,2011,percent
4.5,Percent_Inflation_Adjusted_Income_and_Benefits_of_10000_to_14999,8005,2011,percent
3.9,Percent_Inflation_Adjusted_Income_and_Benefits_of_10000_to_14999,8013,2011,percent
5.6,Percent_Inflation_Adjusted_Income_and_Benefits_of_10000_to_14999,8031,2011,percent
1.7,Percent_Inflation_Adjusted_Income_and_Benefits_of_10000_to_14999,8035,2011,percent
5,Percent_Inflation_Adjusted_Income_and_Benefits_of_10000_to_14999,8041,2011,percent
3.1,Percent_Inflation_Adjusted_Income_and_Benefits_of_10000_to_14999,8059,2011,percent
5.1,Percent_Inflation_Adjusted_Income_and_Benefits_of_10000_to_14999,8069,2011,percent
6.5,Percent_Inflation_Adjusted_Income_and_Benefits_of_10000_to_14999,8077,2011,percent
6.3,Percent_Inflation_Adjusted_Income_and_Benefits_of_10000_to_14999,8101,2011,percent
4.4,Percent_Inflation_Adjusted_Income_and_Benefits_of_10000_to_14999,8123,2011,percent
3.1,Percent_Inflation_Adjusted_Income_and_Benefits_of_10000_to_14999,9001,2011,percent
5.1,Percent_Inflation_Adjusted_Income_and_Benefits_of_10000_to_14999,9003,2011,percent
2.5,Percent_Inflation_Adjusted_Income_and_Benefits_of_10000_to_14999,9005,2011,percent
3.1,Percent_Inflation_Adjusted_Income_and_Benefits_of_10000_to_14999,9007,2011,percent
5.1,Percent_Inflation_Adjusted_Income_and_Benefits_of_10000_to_14999,9009,2011,percent
5.2,Percent_Inflation_Adjusted_Income_and_Benefits_of_10000_to_14999,9011,2011,percent
4.5,Percent_Inflation_Adjusted_Income_and_Benefits_of_10000_to_14999,9013,2011,percent
5.6,Percent_Inflation_Adjusted_Income_and_Benefits_of_10000_to_14999,9015,2011,percent
6.3,Percent_Inflation_Adjusted_Income_and_Benefits_of_10000_to_14999,10001,2011,percent
4.1,Percent_Inflation_Adjusted_Income_and_Benefits_of_10000_to_14999,10003,2011,percent
3.9,Percent_Inflation_Adjusted_Income_and_Benefits_of_10000_to_14999,10005,2011,percent
4.3,Percent_Inflation_Adjusted_Income_and_Benefits_of_10000_to_14999,11001,2011,percent
6.6,Percent_Inflation_Adjusted_Income_and_Benefits_of_10000_to_14999,12001,2011,percent
5.9,Percent_Inflation_Adjusted_Income_and_Benefits_of_10000_to_14999,12005,2011,percent
5.1,Percent_Inflation_Adjusted_Income_and_Benefits_of_10000_to_14999,12009,2011,percent
6.1,Percent_Inflation_Adjusted_Income_and_Benefits_of_10000_to_14999,12011,2011,percent
7.1,Percent_Inflation_Adjusted_Income_and_Benefits_of_10000_to_14999,12015,2011,percent
7.1,Percent_Inflation_Adjusted_Income_and_Benefits_of_10000_to_14999,12017,2011,percent
3,Percent_Inflation_Adjusted_Income_and_Benefits_of_10000_to_14999,12019,2011,percent
5.9,Percent_Inflation_Adjusted_Income_and_Benefits_of_10000_to_14999,12021,2011,percent
10.7,Percent_Inflation_Adjusted_Income_and_Benefits_of_10000_to_14999,12023,2011,percent
6.2,Percent_Inflation_Adjusted_Income_and_Benefits_of_10000_to_14999,12031,2011,percent
6,Percent_Inflation_Adjusted_Income_and_Benefits_of_10000_to_14999,12033,2011,percent
8.9,Percent_Inflation_Adjusted_Income_and_Benefits_of_10000_to_14999,12035,2011,percent
7.9,Percent_Inflation_Adjusted_Income_and_Benefits_of_10000_to_14999,12053,2011,percent
7.4,Percent_Inflation_Adjusted_Income_and_Benefits_of_10000_to_14999,12055,2011,percent
5.9,Percent_Inflation_Adjusted_Income_and_Benefits_of_10000_to_14999,12057,2011,percent
7.4,Percent_Inflation_Adjusted_Income_and_Benefits_of_10000_to_14999,12061,2011,percent
4.9,Percent_Inflation_Adjusted_Income_and_Benefits_of_10000_to_14999,12069,2011,percent
5,Percent_Inflation_Adjusted_Income_and_Benefits_of_10000_to_14999,12071,2011,percent
5.8,Percent_Inflation_Adjusted_Income_and_Benefits_of_10000_to_14999,12073,2011,percent
7.1,Percent_Inflation_Adjusted_Income_and_Benefits_of_10000_to_14999,12081,2011,percent
7.5,Percent_Inflation_Adjusted_Income_and_Benefits_of_10000_to_14999,12083,2011,percent
7.1,Percent_Inflation_Adjusted_Income_and_Benefits_of_10000_to_14999,12085,2011,percent
7.5,Percent_Inflation_Adjusted_Income_and_Benefits_of_10000_to_14999,12086,2011,percent
8,Percent_Inflation_Adjusted_Income_and_Benefits_of_10000_to_14999,12087,2011,percent
4.7,Percent_Inflation_Adjusted_Income_and_Benefits_of_10000_to_14999,12089,2011,percent
6.2,Percent_Inflation_Adjusted_Income_and_Benefits_of_10000_to_14999,12091,2011,percent
5.9,Percent_Inflation_Adjusted_Income_and_Benefits_of_10000_to_14999,12095,2011,percent
5.5,Percent_Inflation_Adjusted_Income_and_Benefits_of_10000_to_14999,12097,2011,percent
6.3,Percent_Inflation_Adjusted_Income_and_Benefits_of_10000_to_14999,12099,2011,percent
7.1,Percent_Inflation_Adjusted_Income_and_Benefits_of_10000_to_14999,12101,2011,percent
5.9,Percent_Inflation_Adjusted_Income_and_Benefits_of_10000_to_14999,12103,2011,percent
6.6,Percent_Inflation_Adjusted_Income_and_Benefits_of_10000_to_14999,12105,2011,percent
10,Percent_Inflation_Adjusted_Income_and_Benefits_of_10000_to_14999,12107,2011,percent
3.3,Percent_Inflation_Adjusted_Income_and_Benefits_of_10000_to_14999,12109,2011,percent
7.1,Percent_Inflation_Adjusted_Income_and_Benefits_of_10000_to_14999,12111,2011,percent
3.6,Percent_Inflation_Adjusted_Income_and_Benefits_of_10000_to_14999,12113,2011,percent
4.9,Percent_Inflation_Adjusted_Income_and_Benefits_of_10000_to_14999,12115,2011,percent
4.2,Percent_Inflation_Adjusted_Income_and_Benefits_of_10000_to_14999,12117,2011,percent
6.2,Percent_Inflation_Adjusted_Income_and_Benefits_of_10000_to_14999,12119,2011,percent
7.4,Percent_Inflation_Adjusted_Income_and_Benefits_of_10000_to_14999,12127,2011,percent
7.9,Percent_Inflation_Adjusted_Income_and_Benefits_of_10000_to_14999,13013,2011,percent
6.9,Percent_Inflation_Adjusted_Income_and_Benefits_of_10000_to_14999,13015,2011,percent
9.8,Percent_Inflation_Adjusted_Income_and_Benefits_of_10000_to_14999,13021,2011,percent
6.9,Percent_Inflation_Adjusted_Income_and_Benefits_of_10000_to_14999,13031,2011,percent
6.7,Percent_Inflation_Adjusted_Income_and_Benefits_of_10000_to_14999,13045,2011,percent
6,Percent_Inflation_Adjusted_Income_and_Benefits_of_10000_to_14999,13051,2011,percent
3.5,Percent_Inflation_Adjusted_Income_and_Benefits_of_10000_to_14999,13057,2011,percent
7.6,Percent_Inflation_Adjusted_Income_and_Benefits_of_10000_to_14999,13059,2011,percent
7.8,Percent_Inflation_Adjusted_Income_and_Benefits_of_10000_to_14999,13063,2011,percent
3.9,Percent_Inflation_Adjusted_Income_and_Benefits_of_10000_to_14999,13067,2011,percent
2.7,Percent_Inflation_Adjusted_Income_and_Benefits_of_10000_to_14999,13073,2011,percent
3.8,Percent_Inflation_Adjusted_Income_and_Benefits_of_10000_to_14999,13077,2011,percent
5.5,Percent_Inflation_Adjusted_Income_and_Benefits_of_10000_to_14999,13089,2011,percent
7.7,Percent_Inflation_Adjusted_Income_and_Benefits_of_10000_to_14999,13095,2011,percent
5,Percent_Inflation_Adjusted_Income_and_Benefits_of_10000_to_14999,13097,2011,percent
2.3,Percent_Inflation_Adjusted_Income_and_Benefits_of_10000_to_14999,13113,2011,percent
7.8,Percent_Inflation_Adjusted_Income_and_Benefits_of_10000_to_14999,13115,2011,percent
5.2,Percent_Inflation_Adjusted_Income_and_Benefits_of_10000_to_14999,13117,2011,percent
5.1,Percent_Inflation_Adjusted_Income_and_Benefits_of_10000_to_14999,13121,2011,percent
4.6,Percent_Inflation_Adjusted_Income_and_Benefits_of_10000_to_14999,13127,2011,percent
3.1,Percent_Inflation_Adjusted_Income_and_Benefits_of_10000_to_14999,13135,2011,percent
7.4,Percent_Inflation_Adjusted_Income_and_Benefits_of_10000_to_14999,13139,2011,percent
3.8,Percent_Inflation_Adjusted_Income_and_Benefits_of_10000_to_14999,13151,2011,percent
6.4,Percent_Inflation_Adjusted_Income_and_Benefits_of_10000_to_14999,13153,2011,percent
4.2,Percent_Inflation_Adjusted_Income_and_Benefits_of_10000_to_14999,13179,2011,percent
7.5,Percent_Inflation_Adjusted_Income_and_Benefits_of_10000_to_14999,13185,2011,percent
6.2,Percent_Inflation_Adjusted_Income_and_Benefits_of_10000_to_14999,13215,2011,percent
3.8,Percent_Inflation_Adjusted_Income_and_Benefits_of_10000_to_14999,13217,2011,percent
5,Percent_Inflation_Adjusted_Income_and_Benefits_of_10000_to_14999,13223,2011,percent
7.2,Percent_Inflation_Adjusted_Income_and_Benefits_of_10000_to_14999,13245,2011,percent
5.4,Percent_Inflation_Adjusted_Income_and_Benefits_of_10000_to_14999,13247,2011,percent
7.2,Percent_Inflation_Adjusted_Income_and_Benefits_of_10000_to_14999,13285,2011,percent
13.7,Percent_Inflation_Adjusted_Income_and_Benefits_of_10000_to_14999,13295,2011,percent
3.1,Percent_Inflation_Adjusted_Income_and_Benefits_of_10000_to_14999,13297,2011,percent
5.6,Percent_Inflation_Adjusted_Income_and_Benefits_of_10000_to_14999,13313,2011,percent
5.5,Percent_Inflation_Adjusted_Income_and_Benefits_of_10000_to_14999,15001,2011,percent
4.1,Percent_Inflation_Adjusted_Income_and_Benefits_of_10000_to_14999,15003,2011,percent
2.8,Percent_Inflation_Adjusted_Income_and_Benefits_of_10000_to_14999,15007,2011,percent
3.5,Percent_Inflation_Adjusted_Income_and_Benefits_of_10000_to_14999,15009,2011,percent
5.5,Percent_Inflation_Adjusted_Income_and_Benefits_of_10000_to_14999,16001,2011,percent
6.7,Percent_Inflation_Adjusted_Income_and_Benefits_of_10000_to_14999,16005,2011,percent
6.7,Percent_Inflation_Adjusted_Income_and_Benefits_of_10000_to_14999,16019,2011,percent
6.4,Percent_Inflation_Adjusted_Income_and_Benefits_of_10000_to_14999,16027,2011,percent
4.7,Percent_Inflation_Adjusted_Income_and_Benefits_of_10000_to_14999,16055,2011,percent
6.6,Percent_Inflation_Adjusted_Income_and_Benefits_of_10000_to_14999,16083,2011,percent
8.1,Percent_Inflation_Adjusted_Income_and_Benefits_of_10000_to_14999,17001,2011,percent
4.6,Percent_Inflation_Adjusted_Income_and_Benefits_of_10000_to_14999,17019,2011,percent
5.2,Percent_Inflation_Adjusted_Income_and_Benefits_of_10000_to_14999,17031,2011,percent
6.9,Percent_Inflation_Adjusted_Income_and_Benefits_of_10000_to_14999,17037,2011,percent
2.7,Percent_Inflation_Adjusted_Income_and_Benefits_of_10000_to_14999,17043,2011,percent
3.3,Percent_Inflation_Adjusted_Income_and_Benefits_of_10000_to_14999,17089,2011,percent
4.4,Percent_Inflation_Adjusted_Income_and_Benefits_of_10000_to_14999,17091,2011,percent
1.3,Percent_Inflation_Adjusted_Income_and_Benefits_of_10000_to_14999,17093,2011,percent
3.1,Percent_Inflation_Adjusted_Income_and_Benefits_of_10000_to_14999,17097,2011,percent
7,Percent_Inflation_Adjusted_Income_and_Benefits_of_10000_to_14999,17099,2011,percent
2.3,Percent_Inflation_Adjusted_Income_and_Benefits_of_10000_to_14999,17111,2011,percent
5.1,Percent_Inflation_Adjusted_Income_and_Benefits_of_10000_to_14999,17113,2011,percent
7.3,Percent_Inflation_Adjusted_Income_and_Benefits_of_10000_to_14999,17115,2011,percent
6.6,Percent_Inflation_Adjusted_Income_and_Benefits_of_10000_to_14999,17119,2011,percent
5.3,Percent_Inflation_Adjusted_Income_and_Benefits_of_10000_to_14999,17143,2011,percent
6.4,Percent_Inflation_Adjusted_Income_and_Benefits_of_10000_to_14999,17161,2011,percent
6.5,Percent_Inflation_Adjusted_Income_and_Benefits_of_10000_to_14999,17163,2011,percent
4.7,Percent_Inflation_Adjusted_Income_and_Benefits_of_10000_to_14999,17167,2011,percent
4.6,Percent_Inflation_Adjusted_Income_and_Benefits_of_10000_to_14999,17179,2011,percent
7.2,Percent_Inflation_Adjusted_Income_and_Benefits_of_10000_to_14999,17183,2011,percent
3.6,Percent_Inflation_Adjusted_Income_and_Benefits_of_10000_to_14999,17197,2011,percent
7.3,Percent_Inflation_Adjusted_Income_and_Benefits_of_10000_to_14999,17199,2011,percent
5.9,Percent_Inflation_Adjusted_Income_and_Benefits_of_10000_to_14999,17201,2011,percent
6.2,Percent_Inflation_Adjusted_Income_and_Benefits_of_10000_to_14999,18003,2011,percent
5.4,Percent_Inflation_Adjusted_Income_and_Benefits_of_10000_to_14999,18005,2011,percent
4.9,Percent_Inflation_Adjusted_Income_and_Benefits_of_10000_to_14999,18019,2011,percent
7.5,Percent_Inflation_Adjusted_Income_and_Benefits_of_10000_to_14999,18035,2011,percent
6.2,Percent_Inflation_Adjusted_Income_and_Benefits_of_10000_to_14999,18039,2011,percent
6.3,Percent_Inflation_Adjusted_Income_and_Benefits_of_10000_to_14999,18043,2011,percent
7.7,Percent_Inflation_Adjusted_Income_and_Benefits_of_10000_to_14999,18053,2011,percent
2.3,Percent_Inflation_Adjusted_Income_and_Benefits_of_10000_to_14999,18057,2011,percent
3.4,Percent_Inflation_Adjusted_Income_and_Benefits_of_10000_to_14999,18059,2011,percent
3.4,Percent_Inflation_Adjusted_Income_and_Benefits_of_10000_to_14999,18063,2011,percent
6.1,Percent_Inflation_Adjusted_Income_and_Benefits_of_10000_to_14999,18067,2011,percent
3.7,Percent_Inflation_Adjusted_Income_and_Benefits_of_10000_to_14999,18081,2011,percent
6,Percent_Inflation_Adjusted_Income_and_Benefits_of_10000_to_14999,18085,2011,percent
6.7,Percent_Inflation_Adjusted_Income_and_Benefits_of_10000_to_14999,18089,2011,percent
9.2,Percent_Inflation_Adjusted_Income_and_Benefits_of_10000_to_14999,18091,2011,percent
6.7,Percent_Inflation_Adjusted_Income_and_Benefits_of_10000_to_14999,18095,2011,percent
6.6,Percent_Inflation_Adjusted_Income_and_Benefits_of_10000_to_14999,18097,2011,percent
7.3,Percent_Inflation_Adjusted_Income_and_Benefits_of_10000_to_14999,18105,2011,percent
5.3,Percent_Inflation_Adjusted_Income_and_Benefits_of_10000_to_14999,18109,2011,percent
5.3,Percent_Inflation_Adjusted_Income_and_Benefits_of_10000_to_14999,18127,2011,percent
6.8,Percent_Inflation_Adjusted_Income_and_Benefits_of_10000_to_14999,18141,2011,percent
6.2,Percent_Inflation_Adjusted_Income_and_Benefits_of_10000_to_14999,18157,2011,percent
7.2,Percent_Inflation_Adjusted_Income_and_Benefits_of_10000_to_14999,18163,2011,percent
7.5,Percent_Inflation_Adjusted_Income_and_Benefits_of_10000_to_14999,18167,2011,percent
8.1,Percent_Inflation_Adjusted_Income_and_Benefits_of_10000_to_14999,18177,2011,percent
5.7,Percent_Inflation_Adjusted_Income_and_Benefits_of_10000_to_14999,19013,2011,percent
3.8,Percent_Inflation_Adjusted_Income_and_Benefits_of_10000_to_14999,19049,2011,percent
5.4,Percent_Inflation_Adjusted_Income_and_Benefits_of_10000_to_14999,19061,2011,percent
6.6,Percent_Inflation_Adjusted_Income_and_Benefits_of_10000_to_14999,19103,2011,percent
5.9,Percent_Inflation_Adjusted_Income_and_Benefits_of_10000_to_14999,19113,2011,percent
3.9,Percent_Inflation_Adjusted_Income_and_Benefits_of_10000_to_14999,19153,2011,percent
6.9,Percent_Inflation_Adjusted_Income_and_Benefits_of_10000_to_14999,19155,2011,percent
5.8,Percent_Inflation_Adjusted_Income_and_Benefits_of_10000_to_14999,19163,2011,percent
6.9,Percent_Inflation_Adjusted_Income_and_Benefits_of_10000_to_14999,19169,2011,percent
7.4,Percent_Inflation_Adjusted_Income_and_Benefits_of_10000_to_14999,19193,2011,percent
3.9,Percent_Inflation_Adjusted_Income_and_Benefits_of_10000_to_14999,20015,2011,percent
5.2,Percent_Inflation_Adjusted_Income_and_Benefits_of_10000_to_14999,20045,2011,percent
2.4,Percent_Inflation_Adjusted_Income_and_Benefits_of_10000_to_14999,20091,2011,percent
5.8,Percent_Inflation_Adjusted_Income_and_Benefits_of_10000_to_14999,20103,2011,percent
4,Percent_Inflation_Adjusted_Income_and_Benefits_of_10000_to_14999,20161,2011,percent
5.1,Percent_Inflation_Adjusted_Income_and_Benefits_of_10000_to_14999,20173,2011,percent
5,Percent_Inflation_Adjusted_Income_and_Benefits_of_10000_to_14999,20177,2011,percent
7.7,Percent_Inflation_Adjusted_Income_and_Benefits_of_10000_to_14999,20209,2011,percent
2,Percent_Inflation_Adjusted_Income_and_Benefits_of_10000_to_14999,21015,2011,percent
5,Percent_Inflation_Adjusted_Income_and_Benefits_of_10000_to_14999,21029,2011,percent
6.3,Percent_Inflation_Adjusted_Income_and_Benefits_of_10000_to_14999,21037,2011,percent
6,Percent_Inflation_Adjusted_Income_and_Benefits_of_10000_to_14999,21047,2011,percent
8.9,Percent_Inflation_Adjusted_Income_and_Benefits_of_10000_to_14999,21059,2011,percent
6,Percent_Inflation_Adjusted_Income_and_Benefits_of_10000_to_14999,21067,2011,percent
7.1,Percent_Inflation_Adjusted_Income_and_Benefits_of_10000_to_14999,21093,2011,percent
6.1,Percent_Inflation_Adjusted_Income_and_Benefits_of_10000_to_14999,21111,2011,percent
4.4,Percent_Inflation_Adjusted_Income_and_Benefits_of_10000_to_14999,21117,2011,percent
8,Percent_Inflation_Adjusted_Income_and_Benefits_of_10000_to_14999,21145,2011,percent
7.3,Percent_Inflation_Adjusted_Income_and_Benefits_of_10000_to_14999,21151,2011,percent
8.6,Percent_Inflation_Adjusted_Income_and_Benefits_of_10000_to_14999,21195,2011,percent
9.1,Percent_Inflation_Adjusted_Income_and_Benefits_of_10000_to_14999,21227,2011,percent
4.6,Percent_Inflation_Adjusted_Income_and_Benefits_of_10000_to_14999,22005,2011,percent
6,Percent_Inflation_Adjusted_Income_and_Benefits_of_10000_to_14999,22015,2011,percent
6.7,Percent_Inflation_Adjusted_Income_and_Benefits_of_10000_to_14999,22017,2011,percent
6.8,Percent_Inflation_Adjusted_Income_and_Benefits_of_10000_to_14999,22019,2011,percent
6.5,Percent_Inflation_Adjusted_Income_and_Benefits_of_10000_to_14999,22033,2011,percent
9,Percent_Inflation_Adjusted_Income_and_Benefits_of_10000_to_14999,22045,2011,percent
7.6,Percent_Inflation_Adjusted_Income_and_Benefits_of_10000_to_14999,22051,2011,percent
7,Percent_Inflation_Adjusted_Income_and_Benefits_of_10000_to_14999,22055,2011,percent
8.4,Percent_Inflation_Adjusted_Income_and_Benefits_of_10000_to_14999,22057,2011,percent
6.9,Percent_Inflation_Adjusted_Income_and_Benefits_of_10000_to_14999,22063,2011,percent
8.1,Percent_Inflation_Adjusted_Income_and_Benefits_of_10000_to_14999,22071,2011,percent
8.3,Percent_Inflation_Adjusted_Income_and_Benefits_of_10000_to_14999,22073,2011,percent
10,Percent_Inflation_Adjusted_Income_and_Benefits_of_10000_to_14999,22079,2011,percent
9.9,Percent_Inflation_Adjusted_Income_and_Benefits_of_10000_to_14999,22097,2011,percent
4.8,Percent_Inflation_Adjusted_Income_and_Benefits_of_10000_to_14999,22103,2011,percent
6.3,Percent_Inflation_Adjusted_Income_and_Benefits_of_10000_to_14999,22105,2011,percent
6.6,Percent_Inflation_Adjusted_Income_and_Benefits_of_10000_to_14999,22109,2011,percent
9.2,Percent_Inflation_Adjusted_Income_and_Benefits_of_10000_to_14999,23001,2011,percent
8.8,Percent_Inflation_Adjusted_Income_and_Benefits_of_10000_to_14999,23003,2011,percent
7.1,Percent_Inflation_Adjusted_Income_and_Benefits_of_10000_to_14999,23005,2011,percent
6.6,Percent_Inflation_Adjusted_Income_and_Benefits_of_10000_to_14999,23011,2011,percent
8.3,Percent_Inflation_Adjusted_Income_and_Benefits_of_10000_to_14999,23019,2011,percent
5.3,Percent_Inflation_Adjusted_Income_and_Benefits_of_10000_to_14999,23031,2011,percent
7.9,Percent_Inflation_Adjusted_Income_and_Benefits_of_10000_to_14999,24001,2011,percent
2.2,Percent_Inflation_Adjusted_Income_and_Benefits_of_10000_to_14999,24003,2011,percent
4.2,Percent_Inflation_Adjusted_Income_and_Benefits_of_10000_to_14999,24005,2011,percent
1.2,Percent_Inflation_Adjusted_Income_and_Benefits_of_10000_to_14999,24009,2011,percent
1.5,Percent_Inflation_Adjusted_Income_and_Benefits_of_10000_to_14999,24013,2011,percent
4.1,Percent_Inflation_Adjusted_Income_and_Benefits_of_10000_to_14999,24015,2011,percent
2,Percent_Inflation_Adjusted_Income_and_Benefits_of_10000_to_14999,24017,2011,percent
3.6,Percent_Inflation_Adjusted_Income_and_Benefits_of_10000_to_14999,24021,2011,percent
3.6,Percent_Inflation_Adjusted_Income_and_Benefits_of_10000_to_14999,24025,2011,percent
1.9,Percent_Inflation_Adjusted_Income_and_Benefits_of_10000_to_14999,24027,2011,percent
2.5,Percent_Inflation_Adjusted_Income_and_Benefits_of_10000_to_14999,24031,2011,percent
2.8,Percent_Inflation_Adjusted_Income_and_Benefits_of_10000_to_14999,24033,2011,percent
3.1,Percent_Inflation_Adjusted_Income_and_Benefits_of_10000_to_14999,24037,2011,percent
5.1,Percent_Inflation_Adjusted_Income_and_Benefits_of_10000_to_14999,24043,2011,percent
5.7,Percent_Inflation_Adjusted_Income_and_Benefits_of_10000_to_14999,24045,2011,percent
7.8,Percent_Inflation_Adjusted_Income_and_Benefits_of_10000_to_14999,24510,2011,percent
6,Percent_Inflation_Adjusted_Income_and_Benefits_of_10000_to_14999,25001,2011,percent
7.1,Percent_Inflation_Adjusted_Income_and_Benefits_of_10000_to_14999,25003,2011,percent
6.1,Percent_Inflation_Adjusted_Income_and_Benefits_of_10000_to_14999,25005,2011,percent
5.3,Percent_Inflation_Adjusted_Income_and_Benefits_of_10000_to_14999,25009,2011,percent
5.1,Percent_Inflation_Adjusted_Income_and_Benefits_of_10000_to_14999,25011,2011,percent
6.7,Percent_Inflation_Adjusted_Income_and_Benefits_of_10000_to_14999,25013,2011,percent
5.8,Percent_Inflation_Adjusted_Income_and_Benefits_of_10000_to_14999,25015,2011,percent
4.1,Percent_Inflation_Adjusted_Income_and_Benefits_of_10000_to_14999,25017,2011,percent
4,Percent_Inflation_Adjusted_Income_and_Benefits_of_10000_to_14999,25021,2011,percent
4.4,Percent_Inflation_Adjusted_Income_and_Benefits_of_10000_to_14999,25023,2011,percent
7.5,Percent_Inflation_Adjusted_Income_and_Benefits_of_10000_to_14999,25025,2011,percent
4.7,Percent_Inflation_Adjusted_Income_and_Benefits_of_10000_to_14999,25027,2011,percent
6.9,Percent_Inflation_Adjusted_Income_and_Benefits_of_10000_to_14999,26005,2011,percent
7,Percent_Inflation_Adjusted_Income_and_Benefits_of_10000_to_14999,26017,2011,percent
6.9,Percent_Inflation_Adjusted_Income_and_Benefits_of_10000_to_14999,26021,2011,percent
8.6,Percent_Inflation_Adjusted_Income_and_Benefits_of_10000_to_14999,26025,2011,percent
4.8,Percent_Inflation_Adjusted_Income_and_Benefits_of_10000_to_14999,26037,2011,percent
5.1,Percent_Inflation_Adjusted_Income_and_Benefits_of_10000_to_14999,26045,2011,percent
7.1,Percent_Inflation_Adjusted_Income_and_Benefits_of_10000_to_14999,26049,2011,percent
6.3,Percent_Inflation_Adjusted_Income_and_Benefits_of_10000_to_14999,26055,2011,percent
7.2,Percent_Inflation_Adjusted_Income_and_Benefits_of_10000_to_14999,26065,2011,percent
7.8,Percent_Inflation_Adjusted_Income_and_Benefits_of_10000_to_14999,26073,2011,percent
4.9,Percent_Inflation_Adjusted_Income_and_Benefits_of_10000_to_14999,26075,2011,percent
6.5,Percent_Inflation_Adjusted_Income_and_Benefits_of_10000_to_14999,26077,2011,percent
5.5,Percent_Inflation_Adjusted_Income_and_Benefits_of_10000_to_14999,26081,2011,percent
6,Percent_Inflation_Adjusted_Income_and_Benefits_of_10000_to_14999,26087,2011,percent
8,Percent_Inflation_Adjusted_Income_and_Benefits_of_10000_to_14999,26091,2011,percent
1.9,Percent_Inflation_Adjusted_Income_and_Benefits_of_10000_to_14999,26093,2011,percent
5.7,Percent_Inflation_Adjusted_Income_and_Benefits_of_10000_to_14999,26099,2011,percent
7.9,Percent_Inflation_Adjusted_Income_and_Benefits_of_10000_to_14999,26103,2011,percent
3.9,Percent_Inflation_Adjusted_Income_and_Benefits_of_10000_to_14999,26111,2011,percent
6.3,Percent_Inflation_Adjusted_Income_and_Benefits_of_10000_to_14999,26115,2011,percent
7.6,Percent_Inflation_Adjusted_Income_and_Benefits_of_10000_to_14999,26121,2011,percent
4.2,Percent_Inflation_Adjusted_Income_and_Benefits_of_10000_to_14999,26125,2011,percent
5,Percent_Inflation_Adjusted_Income_and_Benefits_of_10000_to_14999,26139,2011,percent
6.8,Percent_Inflation_Adjusted_Income_and_Benefits_of_10000_to_14999,26145,2011,percent
6.6,Percent_Inflation_Adjusted_Income_and_Benefits_of_10000_to_14999,26147,2011,percent
3.6,Percent_Inflation_Adjusted_Income_and_Benefits_of_10000_to_14999,26155,2011,percent
8.3,Percent_Inflation_Adjusted_Income_and_Benefits_of_10000_to_14999,26159,2011,percent
4.2,Percent_Inflation_Adjusted_Income_and_Benefits_of_10000_to_14999,26161,2011,percent
7.6,Percent_Inflation_Adjusted_Income_and_Benefits_of_10000_to_14999,26163,2011,percent
3.4,Percent_Inflation_Adjusted_Income_and_Benefits_of_10000_to_14999,27003,2011,percent
1.9,Percent_Inflation_Adjusted_Income_and_Benefits_of_10000_to_14999,27019,2011,percent
2.9,Percent_Inflation_Adjusted_Income_and_Benefits_of_10000_to_14999,27037,2011,percent
4.3,Percent_Inflation_Adjusted_Income_and_Benefits_of_10000_to_14999,27053,2011,percent
3.6,Percent_Inflation_Adjusted_Income_and_Benefits_of_10000_to_14999,27109,2011,percent
5.1,Percent_Inflation_Adjusted_Income_and_Benefits_of_10000_to_14999,27123,2011,percent
7.2,Percent_Inflation_Adjusted_Income_and_Benefits_of_10000_to_14999,27137,2011,percent
2.3,Percent_Inflation_Adjusted_Income_and_Benefits_of_10000_to_14999,27139,2011,percent
3.3,Percent_Inflation_Adjusted_Income_and_Benefits_of_10000_to_14999,27141,2011,percent
3.7,Percent_Inflation_Adjusted_Income_and_Benefits_of_10000_to_14999,27145,2011,percent
2.4,Percent_Inflation_Adjusted_Income_and_Benefits_of_10000_to_14999,27163,2011,percent
3.2,Percent_Inflation_Adjusted_Income_and_Benefits_of_10000_to_14999,27171,2011,percent
2.8,Percent_Inflation_Adjusted_Income_and_Benefits_of_10000_to_14999,28033,2011,percent
9.6,Percent_Inflation_Adjusted_Income_and_Benefits_of_10000_to_14999,28035,2011,percent
7.9,Percent_Inflation_Adjusted_Income_and_Benefits_of_10000_to_14999,28047,2011,percent
6.6,Percent_Inflation_Adjusted_Income_and_Benefits_of_10000_to_14999,28049,2011,percent
5,Percent_Inflation_Adjusted_Income_and_Benefits_of_10000_to_14999,28059,2011,percent
8,Percent_Inflation_Adjusted_Income_and_Benefits_of_10000_to_14999,28067,2011,percent
8.4,Percent_Inflation_Adjusted_Income_and_Benefits_of_10000_to_14999,28075,2011,percent
10,Percent_Inflation_Adjusted_Income_and_Benefits_of_10000_to_14999,28081,2011,percent
4.7,Percent_Inflation_Adjusted_Income_and_Benefits_of_10000_to_14999,28089,2011,percent
3.2,Percent_Inflation_Adjusted_Income_and_Benefits_of_10000_to_14999,28121,2011,percent
4.7,Percent_Inflation_Adjusted_Income_and_Benefits_of_10000_to_14999,29019,2011,percent
6.6,Percent_Inflation_Adjusted_Income_and_Benefits_of_10000_to_14999,29021,2011,percent
7.6,Percent_Inflation_Adjusted_Income_and_Benefits_of_10000_to_14999,29031,2011,percent
4.8,Percent_Inflation_Adjusted_Income_and_Benefits_of_10000_to_14999,29037,2011,percent
2.7,Percent_Inflation_Adjusted_Income_and_Benefits_of_10000_to_14999,29043,2011,percent
4.4,Percent_Inflation_Adjusted_Income_and_Benefits_of_10000_to_14999,29047,2011,percent
4,Percent_Inflation_Adjusted_Income_and_Benefits_of_10000_to_14999,29051,2011,percent
6.2,Percent_Inflation_Adjusted_Income_and_Benefits_of_10000_to_14999,29071,2011,percent
7.1,Percent_Inflation_Adjusted_Income_and_Benefits_of_10000_to_14999,29077,2011,percent
6.1,Percent_Inflation_Adjusted_Income_and_Benefits_of_10000_to_14999,29095,2011,percent
5.8,Percent_Inflation_Adjusted_Income_and_Benefits_of_10000_to_14999,29097,2011,percent
4.3,Percent_Inflation_Adjusted_Income_and_Benefits_of_10000_to_14999,29099,2011,percent
2.5,Percent_Inflation_Adjusted_Income_and_Benefits_of_10000_to_14999,29165,2011,percent
2.6,Percent_Inflation_Adjusted_Income_and_Benefits_of_10000_to_14999,29183,2011,percent
10.8,Percent_Inflation_Adjusted_Income_and_Benefits_of_10000_to_14999,29187,2011,percent
4.7,Percent_Inflation_Adjusted_Income_and_Benefits_of_10000_to_14999,29189,2011,percent
9.2,Percent_Inflation_Adjusted_Income_and_Benefits_of_10000_to_14999,29510,2011,percent
7.1,Percent_Inflation_Adjusted_Income_and_Benefits_of_10000_to_14999,30013,2011,percent
4.8,Percent_Inflation_Adjusted_Income_and_Benefits_of_10000_to_14999,30029,2011,percent
5.1,Percent_Inflation_Adjusted_Income_and_Benefits_of_10000_to_14999,30031,2011,percent
7,Percent_Inflation_Adjusted_Income_and_Benefits_of_10000_to_14999,30063,2011,percent
8.1,Percent_Inflation_Adjusted_Income_and_Benefits_of_10000_to_14999,30111,2011,percent
5,Percent_Inflation_Adjusted_Income_and_Benefits_of_10000_to_14999,31055,2011,percent
5.2,Percent_Inflation_Adjusted_Income_and_Benefits_of_10000_to_14999,31109,2011,percent
2.7,Percent_Inflation_Adjusted_Income_and_Benefits_of_10000_to_14999,31153,2011,percent
5,Percent_Inflation_Adjusted_Income_and_Benefits_of_10000_to_14999,32003,2011,percent
4.7,Percent_Inflation_Adjusted_Income_and_Benefits_of_10000_to_14999,32031,2011,percent
5.2,Percent_Inflation_Adjusted_Income_and_Benefits_of_10000_to_14999,33005,2011,percent
5.1,Percent_Inflation_Adjusted_Income_and_Benefits_of_10000_to_14999,33009,2011,percent
3.9,Percent_Inflation_Adjusted_Income_and_Benefits_of_10000_to_14999,33011,2011,percent
4.3,Percent_Inflation_Adjusted_Income_and_Benefits_of_10000_to_14999,33013,2011,percent
3.7,Percent_Inflation_Adjusted_Income_and_Benefits_of_10000_to_14999,33015,2011,percent
4.4,Percent_Inflation_Adjusted_Income_and_Benefits_of_10000_to_14999,33017,2011,percent
4.9,Percent_Inflation_Adjusted_Income_and_Benefits_of_10000_to_14999,34001,2011,percent
2.9,Percent_Inflation_Adjusted_Income_and_Benefits_of_10000_to_14999,34003,2011,percent
2.3,Percent_Inflation_Adjusted_Income_and_Benefits_of_10000_to_14999,34005,2011,percent
5.5,Percent_Inflation_Adjusted_Income_and_Benefits_of_10000_to_14999,34007,2011,percent
4.6,Percent_Inflation_Adjusted_Income_and_Benefits_of_10000_to_14999,34009,2011,percent
4.8,Percent_Inflation_Adjusted_Income_and_Benefits_of_10000_to_14999,34011,2011,percent
6.3,Percent_Inflation_Adjusted_Income_and_Benefits_of_10000_to_14999,34013,2011,percent
3.2,Percent_Inflation_Adjusted_Income_and_Benefits_of_10000_to_14999,34015,2011,percent
5.4,Percent_Inflation_Adjusted_Income_and_Benefits_of_10000_to_14999,34017,2011,percent
1.1,Percent_Inflation_Adjusted_Income_and_Benefits_of_10000_to_14999,34019,2011,percent
3.7,Percent_Inflation_Adjusted_Income_and_Benefits_of_10000_to_14999,34021,2011,percent
3.5,Percent_Inflation_Adjusted_Income_and_Benefits_of_10000_to_14999,34023,2011,percent
3.5,Percent_Inflation_Adjusted_Income_and_Benefits_of_10000_to_14999,34025,2011,percent
2.2,Percent_Inflation_Adjusted_Income_and_Benefits_of_10000_to_14999,34027,2011,percent
4.6,Percent_Inflation_Adjusted_Income_and_Benefits_of_10000_to_14999,34029,2011,percent
5.3,Percent_Inflation_Adjusted_Income_and_Benefits_of_10000_to_14999,34031,2011,percent
4.5,Percent_Inflation_Adjusted_Income_and_Benefits_of_10000_to_14999,34033,2011,percent
2.4,Percent_Inflation_Adjusted_Income_and_Benefits_of_10000_to_14999,34035,2011,percent
3.3,Percent_Inflation_Adjusted_Income_and_Benefits_of_10000_to_14999,34037,2011,percent
3.6,Percent_Inflation_Adjusted_Income_and_Benefits_of_10000_to_14999,34039,2011,percent
4.8,Percent_Inflation_Adjusted_Income_and_Benefits_of_10000_to_14999,34041,2011,percent
6.8,Percent_Inflation_Adjusted_Income_and_Benefits_of_10000_to_14999,35001,2011,percent
5.3,Percent_Inflation_Adjusted_Income_and_Benefits_of_10000_to_14999,35005,2011,percent
9.5,Percent_Inflation_Adjusted_Income_and_Benefits_of_10000_to_14999,35013,2011,percent
4.5,Percent_Inflation_Adjusted_Income_and_Benefits_of_10000_to_14999,35025,2011,percent
9.2,Percent_Inflation_Adjusted_Income_and_Benefits_of_10000_to_14999,35031,2011,percent
10.7,Percent_Inflation_Adjusted_Income_and_Benefits_of_10000_to_14999,35035,2011,percent
4.5,Percent_Inflation_Adjusted_Income_and_Benefits_of_10000_to_14999,35043,2011,percent
3.5,Percent_Inflation_Adjusted_Income_and_Benefits_of_10000_to_14999,35045,2011,percent
5.2,Percent_Inflation_Adjusted_Income_and_Benefits_of_10000_to_14999,35049,2011,percent
7,Percent_Inflation_Adjusted_Income_and_Benefits_of_10000_to_14999,35061,2011,percent
5.3,Percent_Inflation_Adjusted_Income_and_Benefits_of_10000_to_14999,36001,2011,percent
9.6,Percent_Inflation_Adjusted_Income_and_Benefits_of_10000_to_14999,36005,2011,percent
6.7,Percent_Inflation_Adjusted_Income_and_Benefits_of_10000_to_14999,36007,2011,percent
9.9,Percent_Inflation_Adjusted_Income_and_Benefits_of_10000_to_14999,36009,2011,percent
5.9,Percent_Inflation_Adjusted_Income_and_Benefits_of_10000_to_14999,36011,2011,percent
7.6,Percent_Inflation_Adjusted_Income_and_Benefits_of_10000_to_14999,36013,2011,percent
5.4,Percent_Inflation_Adjusted_Income_and_Benefits_of_10000_to_14999,36015,2011,percent
6.9,Percent_Inflation_Adjusted_Income_and_Benefits_of_10000_to_14999,36019,2011,percent
4.3,Percent_Inflation_Adjusted_Income_and_Benefits_of_10000_to_14999,36027,2011,percent
6.3,Percent_Inflation_Adjusted_Income_and_Benefits_of_10000_to_14999,36029,2011,percent
7.4,Percent_Inflation_Adjusted_Income_and_Benefits_of_10000_to_14999,36045,2011,percent
7.4,Percent_Inflation_Adjusted_Income_and_Benefits_of_10000_to_14999,36047,2011,percent
4.9,Percent_Inflation_Adjusted_Income_and_Benefits_of_10000_to_14999,36051,2011,percent
4,Percent_Inflation_Adjusted_Income_and_Benefits_of_10000_to_14999,36053,2011,percent
5.5,Percent_Inflation_Adjusted_Income_and_Benefits_of_10000_to_14999,36055,2011,percent
2.6,Percent_Inflation_Adjusted_Income_and_Benefits_of_10000_to_14999,36059,2011,percent
5.4,Percent_Inflation_Adjusted_Income_and_Benefits_of_10000_to_14999,36061,2011,percent
5.4,Percent_Inflation_Adjusted_Income_and_Benefits_of_10000_to_14999,36063,2011,percent
6.6,Percent_Inflation_Adjusted_Income_and_Benefits_of_10000_to_14999,36065,2011,percent
5.6,Percent_Inflation_Adjusted_Income_and_Benefits_of_10000_to_14999,36067,2011,percent
4.1,Percent_Inflation_Adjusted_Income_and_Benefits_of_10000_to_14999,36069,2011,percent
5.1,Percent_Inflation_Adjusted_Income_and_Benefits_of_10000_to_14999,36071,2011,percent
4.8,Percent_Inflation_Adjusted_Income_and_Benefits_of_10000_to_14999,36075,2011,percent
2.1,Percent_Inflation_Adjusted_Income_and_Benefits_of_10000_to_14999,36079,2011,percent
5.4,Percent_Inflation_Adjusted_Income_and_Benefits_of_10000_to_14999,36081,2011,percent
3.9,Percent_Inflation_Adjusted_Income_and_Benefits_of_10000_to_14999,36083,2011,percent
3.8,Percent_Inflation_Adjusted_Income_and_Benefits_of_10000_to_14999,36085,2011,percent
3.3,Percent_Inflation_Adjusted_Income_and_Benefits_of_10000_to_14999,36087,2011,percent
5.2,Percent_Inflation_Adjusted_Income_and_Benefits_of_10000_to_14999,36089,2011,percent
3.4,Percent_Inflation_Adjusted_Income_and_Benefits_of_10000_to_14999,36091,2011,percent
5.6,Percent_Inflation_Adjusted_Income_and_Benefits_of_10000_to_14999,36093,2011,percent
6.4,Percent_Inflation_Adjusted_Income_and_Benefits_of_10000_to_14999,36101,2011,percent
2.8,Percent_Inflation_Adjusted_Income_and_Benefits_of_10000_to_14999,36103,2011,percent
5.4,Percent_Inflation_Adjusted_Income_and_Benefits_of_10000_to_14999,36105,2011,percent
5,Percent_Inflation_Adjusted_Income_and_Benefits_of_10000_to_14999,36109,2011,percent
4.6,Percent_Inflation_Adjusted_Income_and_Benefits_of_10000_to_14999,36111,2011,percent
7.1,Percent_Inflation_Adjusted_Income_and_Benefits_of_10000_to_14999,36113,2011,percent
5.8,Percent_Inflation_Adjusted_Income_and_Benefits_of_10000_to_14999,36117,2011,percent
3.9,Percent_Inflation_Adjusted_Income_and_Benefits_of_10000_to_14999,36119,2011,percent
6.5,Percent_Inflation_Adjusted_Income_and_Benefits_of_10000_to_14999,37001,2011,percent
8.8,Percent_Inflation_Adjusted_Income_and_Benefits_of_10000_to_14999,37019,2011,percent
8.2,Percent_Inflation_Adjusted_Income_and_Benefits_of_10000_to_14999,37021,2011,percent
10.1,Percent_Inflation_Adjusted_Income_and_Benefits_of_10000_to_14999,37023,2011,percent
6.6,Percent_Inflation_Adjusted_Income_and_Benefits_of_10000_to_14999,37025,2011,percent
10.5,Percent_Inflation_Adjusted_Income_and_Benefits_of_10000_to_14999,37027,2011,percent
10.1,Percent_Inflation_Adjusted_Income_and_Benefits_of_10000_to_14999,37031,2011,percent
6.3,Percent_Inflation_Adjusted_Income_and_Benefits_of_10000_to_14999,37035,2011,percent
9.2,Percent_Inflation_Adjusted_Income_and_Benefits_of_10000_to_14999,37045,2011,percent
5.5,Percent_Inflation_Adjusted_Income_and_Benefits_of_10000_to_14999,37049,2011,percent
6.8,Percent_Inflation_Adjusted_Income_and_Benefits_of_10000_to_14999,37051,2011,percent
6.1,Percent_Inflation_Adjusted_Income_and_Benefits_of_10000_to_14999,37057,2011,percent
5.8,Percent_Inflation_Adjusted_Income_and_Benefits_of_10000_to_14999,37063,2011,percent
5.2,Percent_Inflation_Adjusted_Income_and_Benefits_of_10000_to_14999,37067,2011,percent
6.8,Percent_Inflation_Adjusted_Income_and_Benefits_of_10000_to_14999,37071,2011,percent
6.6,Percent_Inflation_Adjusted_Income_and_Benefits_of_10000_to_14999,37081,2011,percent
6.2,Percent_Inflation_Adjusted_Income_and_Benefits_of_10000_to_14999,37085,2011,percent
8.1,Percent_Inflation_Adjusted_Income_and_Benefits_of_10000_to_14999,37089,2011,percent
6,Percent_Inflation_Adjusted_Income_and_Benefits_of_10000_to_14999,37097,2011,percent
6.4,Percent_Inflation_Adjusted_Income_and_Benefits_of_10000_to_14999,37101,2011,percent
5.7,Percent_Inflation_Adjusted_Income_and_Benefits_of_10000_to_14999,37109,2011,percent
5.3,Percent_Inflation_Adjusted_Income_and_Benefits_of_10000_to_14999,37119,2011,percent
10.1,Percent_Inflation_Adjusted_Income_and_Benefits_of_10000_to_14999,37125,2011,percent
6.9,Percent_Inflation_Adjusted_Income_and_Benefits_of_10000_to_14999,37127,2011,percent
4.8,Percent_Inflation_Adjusted_Income_and_Benefits_of_10000_to_14999,37129,2011,percent
4.4,Percent_Inflation_Adjusted_Income_and_Benefits_of_10000_to_14999,37133,2011,percent
4.8,Percent_Inflation_Adjusted_Income_and_Benefits_of_10000_to_14999,37135,2011,percent
7.2,Percent_Inflation_Adjusted_Income_and_Benefits_of_10000_to_14999,37147,2011,percent
8.2,Percent_Inflation_Adjusted_Income_and_Benefits_of_10000_to_14999,37151,2011,percent
10.1,Percent_Inflation_Adjusted_Income_and_Benefits_of_10000_to_14999,37155,2011,percent
8.8,Percent_Inflation_Adjusted_Income_and_Benefits_of_10000_to_14999,37157,2011,percent
7.5,Percent_Inflation_Adjusted_Income_and_Benefits_of_10000_to_14999,37159,2011,percent
9,Percent_Inflation_Adjusted_Income_and_Benefits_of_10000_to_14999,37161,2011,percent
9.1,Percent_Inflation_Adjusted_Income_and_Benefits_of_10000_to_14999,37171,2011,percent
3,Percent_Inflation_Adjusted_Income_and_Benefits_of_10000_to_14999,37179,2011,percent
3.9,Percent_Inflation_Adjusted_Income_and_Benefits_of_10000_to_14999,37183,2011,percent
7.7,Percent_Inflation_Adjusted_Income_and_Benefits_of_10000_to_14999,37191,2011,percent
10,Percent_Inflation_Adjusted_Income_and_Benefits_of_10000_to_14999,37193,2011,percent
8.4,Percent_Inflation_Adjusted_Income_and_Benefits_of_10000_to_14999,37195,2011,percent
4.4,Percent_Inflation_Adjusted_Income_and_Benefits_of_10000_to_14999,38015,2011,percent
4.5,Percent_Inflation_Adjusted_Income_and_Benefits_of_10000_to_14999,38017,2011,percent
6.5,Percent_Inflation_Adjusted_Income_and_Benefits_of_10000_to_14999,38035,2011,percent
7.4,Percent_Inflation_Adjusted_Income_and_Benefits_of_10000_to_14999,39003,2011,percent
9.8,Percent_Inflation_Adjusted_Income_and_Benefits_of_10000_to_14999,39007,2011,percent
6.4,Percent_Inflation_Adjusted_Income_and_Benefits_of_10000_to_14999,39013,2011,percent
5.4,Percent_Inflation_Adjusted_Income_and_Benefits_of_10000_to_14999,39017,2011,percent
6.9,Percent_Inflation_Adjusted_Income_and_Benefits_of_10000_to_14999,39023,2011,percent
4.5,Percent_Inflation_Adjusted_Income_and_Benefits_of_10000_to_14999,39025,2011,percent
6.4,Percent_Inflation_Adjusted_Income_and_Benefits_of_10000_to_14999,39029,2011,percent
7.5,Percent_Inflation_Adjusted_Income_and_Benefits_of_10000_to_14999,39035,2011,percent
2.1,Percent_Inflation_Adjusted_Income_and_Benefits_of_10000_to_14999,39041,2011,percent
7.9,Percent_Inflation_Adjusted_Income_and_Benefits_of_10000_to_14999,39043,2011,percent
6.4,Percent_Inflation_Adjusted_Income_and_Benefits_of_10000_to_14999,39045,2011,percent
5.9,Percent_Inflation_Adjusted_Income_and_Benefits_of_10000_to_14999,39049,2011,percent
2.9,Percent_Inflation_Adjusted_Income_and_Benefits_of_10000_to_14999,39055,2011,percent
5.6,Percent_Inflation_Adjusted_Income_and_Benefits_of_10000_to_14999,39057,2011,percent
6.9,Percent_Inflation_Adjusted_Income_and_Benefits_of_10000_to_14999,39061,2011,percent
9.5,Percent_Inflation_Adjusted_Income_and_Benefits_of_10000_to_14999,39063,2011,percent
7.7,Percent_Inflation_Adjusted_Income_and_Benefits_of_10000_to_14999,39081,2011,percent
4.3,Percent_Inflation_Adjusted_Income_and_Benefits_of_10000_to_14999,39085,2011,percent
4.4,Percent_Inflation_Adjusted_Income_and_Benefits_of_10000_to_14999,39089,2011,percent
6.3,Percent_Inflation_Adjusted_Income_and_Benefits_of_10000_to_14999,39093,2011,percent
7.1,Percent_Inflation_Adjusted_Income_and_Benefits_of_10000_to_14999,39095,2011,percent
8.7,Percent_Inflation_Adjusted_Income_and_Benefits_of_10000_to_14999,39099,2011,percent
6.3,Percent_Inflation_Adjusted_Income_and_Benefits_of_10000_to_14999,39101,2011,percent
4.2,Percent_Inflation_Adjusted_Income_and_Benefits_of_10000_to_14999,39103,2011,percent
6.4,Percent_Inflation_Adjusted_Income_and_Benefits_of_10000_to_14999,39109,2011,percent
7.8,Percent_Inflation_Adjusted_Income_and_Benefits_of_10000_to_14999,39113,2011,percent
10,Percent_Inflation_Adjusted_Income_and_Benefits_of_10000_to_14999,39119,2011,percent
4.3,Percent_Inflation_Adjusted_Income_and_Benefits_of_10000_to_14999,39133,2011,percent
5.7,Percent_Inflation_Adjusted_Income_and_Benefits_of_10000_to_14999,39139,2011,percent
4.6,Percent_Inflation_Adjusted_Income_and_Benefits_of_10000_to_14999,39141,2011,percent
11.2,Percent_Inflation_Adjusted_Income_and_Benefits_of_10000_to_14999,39145,2011,percent
6.5,Percent_Inflation_Adjusted_Income_and_Benefits_of_10000_to_14999,39151,2011,percent
6.4,Percent_Inflation_Adjusted_Income_and_Benefits_of_10000_to_14999,39153,2011,percent
7.7,Percent_Inflation_Adjusted_Income_and_Benefits_of_10000_to_14999,39155,2011,percent
7.4,Percent_Inflation_Adjusted_Income_and_Benefits_of_10000_to_14999,39157,2011,percent
4.6,Percent_Inflation_Adjusted_Income_and_Benefits_of_10000_to_14999,39165,2011,percent
4.8,Percent_Inflation_Adjusted_Income_and_Benefits_of_10000_to_14999,39169,2011,percent
6,Percent_Inflation_Adjusted_Income_and_Benefits_of_10000_to_14999,39173,2011,percent
4.3,Percent_Inflation_Adjusted_Income_and_Benefits_of_10000_to_14999,40017,2011,percent
5.2,Percent_Inflation_Adjusted_Income_and_Benefits_of_10000_to_14999,40027,2011,percent
5.9,Percent_Inflation_Adjusted_Income_and_Benefits_of_10000_to_14999,40031,2011,percent
8.6,Percent_Inflation_Adjusted_Income_and_Benefits_of_10000_to_14999,40037,2011,percent
8.7,Percent_Inflation_Adjusted_Income_and_Benefits_of_10000_to_14999,40101,2011,percent
7.1,Percent_Inflation_Adjusted_Income_and_Benefits_of_10000_to_14999,40109,2011,percent
7.2,Percent_Inflation_Adjusted_Income_and_Benefits_of_10000_to_14999,40119,2011,percent
7.2,Percent_Inflation_Adjusted_Income_and_Benefits_of_10000_to_14999,40125,2011,percent
4.5,Percent_Inflation_Adjusted_Income_and_Benefits_of_10000_to_14999,40131,2011,percent
5.4,Percent_Inflation_Adjusted_Income_and_Benefits_of_10000_to_14999,40143,2011,percent
4.8,Percent_Inflation_Adjusted_Income_and_Benefits_of_10000_to_14999,40145,2011,percent
7,Percent_Inflation_Adjusted_Income_and_Benefits_of_10000_to_14999,41003,2011,percent
4.2,Percent_Inflation_Adjusted_Income_and_Benefits_of_10000_to_14999,41005,2011,percent
4.3,Percent_Inflation_Adjusted_Income_and_Benefits_of_10000_to_14999,41017,2011,percent
6.7,Percent_Inflation_Adjusted_Income_and_Benefits_of_10000_to_14999,41019,2011,percent
7.8,Percent_Inflation_Adjusted_Income_and_Benefits_of_10000_to_14999,41029,2011,percent
7.7,Percent_Inflation_Adjusted_Income_and_Benefits_of_10000_to_14999,41033,2011,percent
6.2,Percent_Inflation_Adjusted_Income_and_Benefits_of_10000_to_14999,41035,2011,percent
8,Percent_Inflation_Adjusted_Income_and_Benefits_of_10000_to_14999,41039,2011,percent
5.5,Percent_Inflation_Adjusted_Income_and_Benefits_of_10000_to_14999,41043,2011,percent
6.7,Percent_Inflation_Adjusted_Income_and_Benefits_of_10000_to_14999,41047,2011,percent
6.3,Percent_Inflation_Adjusted_Income_and_Benefits_of_10000_to_14999,41051,2011,percent
4.8,Percent_Inflation_Adjusted_Income_and_Benefits_of_10000_to_14999,41053,2011,percent
7.3,Percent_Inflation_Adjusted_Income_and_Benefits_of_10000_to_14999,41059,2011,percent
4,Percent_Inflation_Adjusted_Income_and_Benefits_of_10000_to_14999,41067,2011,percent
4.9,Percent_Inflation_Adjusted_Income_and_Benefits_of_10000_to_14999,41071,2011,percent
5.7,Percent_Inflation_Adjusted_Income_and_Benefits_of_10000_to_14999,42001,2011,percent
6.5,Percent_Inflation_Adjusted_Income_and_Benefits_of_10000_to_14999,42003,2011,percent
5.5,Percent_Inflation_Adjusted_Income_and_Benefits_of_10000_to_14999,42005,2011,percent
4.9,Percent_Inflation_Adjusted_Income_and_Benefits_of_10000_to_14999,42007,2011,percent
5.3,Percent_Inflation_Adjusted_Income_and_Benefits_of_10000_to_14999,42011,2011,percent
5.8,Percent_Inflation_Adjusted_Income_and_Benefits_of_10000_to_14999,42013,2011,percent
3.7,Percent_Inflation_Adjusted_Income_and_Benefits_of_10000_to_14999,42017,2011,percent
5.6,Percent_Inflation_Adjusted_Income_and_Benefits_of_10000_to_14999,42019,2011,percent
8.2,Percent_Inflation_Adjusted_Income_and_Benefits_of_10000_to_14999,42021,2011,percent
5.6,Percent_Inflation_Adjusted_Income_and_Benefits_of_10000_to_14999,42025,2011,percent
6.9,Percent_Inflation_Adjusted_Income_and_Benefits_of_10000_to_14999,42027,2011,percent
2.9,Percent_Inflation_Adjusted_Income_and_Benefits_of_10000_to_14999,42029,2011,percent
7.4,Percent_Inflation_Adjusted_Income_and_Benefits_of_10000_to_14999,42033,2011,percent
8.4,Percent_Inflation_Adjusted_Income_and_Benefits_of_10000_to_14999,42037,2011,percent
8.2,Percent_Inflation_Adjusted_Income_and_Benefits_of_10000_to_14999,42039,2011,percent
3.9,Percent_Inflation_Adjusted_Income_and_Benefits_of_10000_to_14999,42041,2011,percent
4.8,Percent_Inflation_Adjusted_Income_and_Benefits_of_10000_to_14999,42043,2011,percent
3.9,Percent_Inflation_Adjusted_Income_and_Benefits_of_10000_to_14999,42045,2011,percent
7.9,Percent_Inflation_Adjusted_Income_and_Benefits_of_10000_to_14999,42049,2011,percent
7.9,Percent_Inflation_Adjusted_Income_and_Benefits_of_10000_to_14999,42051,2011,percent
4,Percent_Inflation_Adjusted_Income_and_Benefits_of_10000_to_14999,42055,2011,percent
6.9,Percent_Inflation_Adjusted_Income_and_Benefits_of_10000_to_14999,42063,2011,percent
7.1,Percent_Inflation_Adjusted_Income_and_Benefits_of_10000_to_14999,42069,2011,percent
4.9,Percent_Inflation_Adjusted_Income_and_Benefits_of_10000_to_14999,42071,2011,percent
7.1,Percent_Inflation_Adjusted_Income_and_Benefits_of_10000_to_14999,42073,2011,percent
4.5,Percent_Inflation_Adjusted_Income_and_Benefits_of_10000_to_14999,42075,2011,percent
5.6,Percent_Inflation_Adjusted_Income_and_Benefits_of_10000_to_14999,42077,2011,percent
7.4,Percent_Inflation_Adjusted_Income_and_Benefits_of_10000_to_14999,42079,2011,percent
6.2,Percent_Inflation_Adjusted_Income_and_Benefits_of_10000_to_14999,42081,2011,percent
5.5,Percent_Inflation_Adjusted_Income_and_Benefits_of_10000_to_14999,42085,2011,percent
3.2,Percent_Inflation_Adjusted_Income_and_Benefits_of_10000_to_14999,42089,2011,percent
3.4,Percent_Inflation_Adjusted_Income_and_Benefits_of_10000_to_14999,42091,2011,percent
5.6,Percent_Inflation_Adjusted_Income_and_Benefits_of_10000_to_14999,42095,2011,percent
7.1,Percent_Inflation_Adjusted_Income_and_Benefits_of_10000_to_14999,42097,2011,percent
9,Percent_Inflation_Adjusted_Income_and_Benefits_of_10000_to_14999,42101,2011,percent
6.9,Percent_Inflation_Adjusted_Income_and_Benefits_of_10000_to_14999,42107,2011,percent
7.7,Percent_Inflation_Adjusted_Income_and_Benefits_of_10000_to_14999,42111,2011,percent
5.5,Percent_Inflation_Adjusted_Income_and_Benefits_of_10000_to_14999,42125,2011,percent
6.8,Percent_Inflation_Adjusted_Income_and_Benefits_of_10000_to_14999,42129,2011,percent
6.1,Percent_Inflation_Adjusted_Income_and_Benefits_of_10000_to_14999,42133,2011,percent
5.2,Percent_Inflation_Adjusted_Income_and_Benefits_of_10000_to_14999,44003,2011,percent
4.1,Percent_Inflation_Adjusted_Income_and_Benefits_of_10000_to_14999,44005,2011,percent
7.2,Percent_Inflation_Adjusted_Income_and_Benefits_of_10000_to_14999,44007,2011,percent
3.4,Percent_Inflation_Adjusted_Income_and_Benefits_of_10000_to_14999,44009,2011,percent
6.4,Percent_Inflation_Adjusted_Income_and_Benefits_of_10000_to_14999,45003,2011,percent
8,Percent_Inflation_Adjusted_Income_and_Benefits_of_10000_to_14999,45007,2011,percent
5.7,Percent_Inflation_Adjusted_Income_and_Benefits_of_10000_to_14999,45013,2011,percent
5.7,Percent_Inflation_Adjusted_Income_and_Benefits_of_10000_to_14999,45015,2011,percent
6,Percent_Inflation_Adjusted_Income_and_Benefits_of_10000_to_14999,45019,2011,percent
7.7,Percent_Inflation_Adjusted_Income_and_Benefits_of_10000_to_14999,45031,2011,percent
6,Percent_Inflation_Adjusted_Income_and_Benefits_of_10000_to_14999,45035,2011,percent
8.8,Percent_Inflation_Adjusted_Income_and_Benefits_of_10000_to_14999,45041,2011,percent
5.8,Percent_Inflation_Adjusted_Income_and_Benefits_of_10000_to_14999,45045,2011,percent
12.7,Percent_Inflation_Adjusted_Income_and_Benefits_of_10000_to_14999,45047,2011,percent
5.9,Percent_Inflation_Adjusted_Income_and_Benefits_of_10000_to_14999,45051,2011,percent
9,Percent_Inflation_Adjusted_Income_and_Benefits_of_10000_to_14999,45057,2011,percent
8.8,Percent_Inflation_Adjusted_Income_and_Benefits_of_10000_to_14999,45059,2011,percent
5.2,Percent_Inflation_Adjusted_Income_and_Benefits_of_10000_to_14999,45063,2011,percent
6.1,Percent_Inflation_Adjusted_Income_and_Benefits_of_10000_to_14999,45073,2011,percent
7,Percent_Inflation_Adjusted_Income_and_Benefits_of_10000_to_14999,45075,2011,percent
7.2,Percent_Inflation_Adjusted_Income_and_Benefits_of_10000_to_14999,45077,2011,percent
5.8,Percent_Inflation_Adjusted_Income_and_Benefits_of_10000_to_14999,45079,2011,percent
9.1,Percent_Inflation_Adjusted_Income_and_Benefits_of_10000_to_14999,45083,2011,percent
6.8,Percent_Inflation_Adjusted_Income_and_Benefits_of_10000_to_14999,45085,2011,percent
6.5,Percent_Inflation_Adjusted_Income_and_Benefits_of_10000_to_14999,45091,2011,percent
4.8,Percent_Inflation_Adjusted_Income_and_Benefits_of_10000_to_14999,46099,2011,percent
6.4,Percent_Inflation_Adjusted_Income_and_Benefits_of_10000_to_14999,46103,2011,percent
9,Percent_Inflation_Adjusted_Income_and_Benefits_of_10000_to_14999,47001,2011,percent
5,Percent_Inflation_Adjusted_Income_and_Benefits_of_10000_to_14999,47009,2011,percent
7.8,Percent_Inflation_Adjusted_Income_and_Benefits_of_10000_to_14999,47011,2011,percent
5.8,Percent_Inflation_Adjusted_Income_and_Benefits_of_10000_to_14999,47037,2011,percent
10.4,Percent_Inflation_Adjusted_Income_and_Benefits_of_10000_to_14999,47059,2011,percent
6.3,Percent_Inflation_Adjusted_Income_and_Benefits_of_10000_to_14999,47065,2011,percent
5.1,Percent_Inflation_Adjusted_Income_and_Benefits_of_10000_to_14999,47093,2011,percent
9.2,Percent_Inflation_Adjusted_Income_and_Benefits_of_10000_to_14999,47113,2011,percent
6.8,Percent_Inflation_Adjusted_Income_and_Benefits_of_10000_to_14999,47119,2011,percent
2.8,Percent_Inflation_Adjusted_Income_and_Benefits_of_10000_to_14999,47125,2011,percent
7.9,Percent_Inflation_Adjusted_Income_and_Benefits_of_10000_to_14999,47141,2011,percent
3.6,Percent_Inflation_Adjusted_Income_and_Benefits_of_10000_to_14999,47147,2011,percent
3.1,Percent_Inflation_Adjusted_Income_and_Benefits_of_10000_to_14999,47149,2011,percent
7.1,Percent_Inflation_Adjusted_Income_and_Benefits_of_10000_to_14999,47155,2011,percent
6.8,Percent_Inflation_Adjusted_Income_and_Benefits_of_10000_to_14999,47157,2011,percent
9,Percent_Inflation_Adjusted_Income_and_Benefits_of_10000_to_14999,47163,2011,percent
5.6,Percent_Inflation_Adjusted_Income_and_Benefits_of_10000_to_14999,47165,2011,percent
7.8,Percent_Inflation_Adjusted_Income_and_Benefits_of_10000_to_14999,47179,2011,percent
1.6,Percent_Inflation_Adjusted_Income_and_Benefits_of_10000_to_14999,47187,2011,percent
4.2,Percent_Inflation_Adjusted_Income_and_Benefits_of_10000_to_14999,47189,2011,percent
8.1,Percent_Inflation_Adjusted_Income_and_Benefits_of_10000_to_14999,48005,2011,percent
3.3,Percent_Inflation_Adjusted_Income_and_Benefits_of_10000_to_14999,48021,2011,percent
5.9,Percent_Inflation_Adjusted_Income_and_Benefits_of_10000_to_14999,48027,2011,percent
5.5,Percent_Inflation_Adjusted_Income_and_Benefits_of_10000_to_14999,48029,2011,percent
6.2,Percent_Inflation_Adjusted_Income_and_Benefits_of_10000_to_14999,48037,2011,percent
5.5,Percent_Inflation_Adjusted_Income_and_Benefits_of_10000_to_14999,48039,2011,percent
7.2,Percent_Inflation_Adjusted_Income_and_Benefits_of_10000_to_14999,48041,2011,percent
10.6,Percent_Inflation_Adjusted_Income_and_Benefits_of_10000_to_14999,48061,2011,percent
1.8,Percent_Inflation_Adjusted_Income_and_Benefits_of_10000_to_14999,48085,2011,percent
3,Percent_Inflation_Adjusted_Income_and_Benefits_of_10000_to_14999,48091,2011,percent
2.8,Percent_Inflation_Adjusted_Income_and_Benefits_of_10000_to_14999,48099,2011,percent
5.4,Percent_Inflation_Adjusted_Income_and_Benefits_of_10000_to_14999,48113,2011,percent
2.5,Percent_Inflation_Adjusted_Income_and_Benefits_of_10000_to_14999,48121,2011,percent
7.5,Percent_Inflation_Adjusted_Income_and_Benefits_of_10000_to_14999,48135,2011,percent
3.3,Percent_Inflation_Adjusted_Income_and_Benefits_of_10000_to_14999,48139,2011,percent
7.9,Percent_Inflation_Adjusted_Income_and_Benefits_of_10000_to_14999,48141,2011,percent
2.4,Percent_Inflation_Adjusted_Income_and_Benefits_of_10000_to_14999,48157,2011,percent
5.1,Percent_Inflation_Adjusted_Income_and_Benefits_of_10000_to_14999,48167,2011,percent
7.5,Percent_Inflation_Adjusted_Income_and_Benefits_of_10000_to_14999,48181,2011,percent
6.2,Percent_Inflation_Adjusted_Income_and_Benefits_of_10000_to_14999,48183,2011,percent
4.8,Percent_Inflation_Adjusted_Income_and_Benefits_of_10000_to_14999,48187,2011,percent
5.3,Percent_Inflation_Adjusted_Income_and_Benefits_of_10000_to_14999,48201,2011,percent
4.9,Percent_Inflation_Adjusted_Income_and_Benefits_of_10000_to_14999,48203,2011,percent
7.1,Percent_Inflation_Adjusted_Income_and_Benefits_of_10000_to_14999,48209,2011,percent
6.5,Percent_Inflation_Adjusted_Income_and_Benefits_of_10000_to_14999,48213,2011,percent
10.2,Percent_Inflation_Adjusted_Income_and_Benefits_of_10000_to_14999,48215,2011,percent
6.9,Percent_Inflation_Adjusted_Income_and_Benefits_of_10000_to_14999,48231,2011,percent
7.9,Percent_Inflation_Adjusted_Income_and_Benefits_of_10000_to_14999,48245,2011,percent
3.4,Percent_Inflation_Adjusted_Income_and_Benefits_of_10000_to_14999,48251,2011,percent
5.8,Percent_Inflation_Adjusted_Income_and_Benefits_of_10000_to_14999,48257,2011,percent
6.2,Percent_Inflation_Adjusted_Income_and_Benefits_of_10000_to_14999,48291,2011,percent
5.8,Percent_Inflation_Adjusted_Income_and_Benefits_of_10000_to_14999,48303,2011,percent
6.5,Percent_Inflation_Adjusted_Income_and_Benefits_of_10000_to_14999,48309,2011,percent
5.5,Percent_Inflation_Adjusted_Income_and_Benefits_of_10000_to_14999,48329,2011,percent
6.1,Percent_Inflation_Adjusted_Income_and_Benefits_of_10000_to_14999,48339,2011,percent
9.4,Percent_Inflation_Adjusted_Income_and_Benefits_of_10000_to_14999,48347,2011,percent
6.4,Percent_Inflation_Adjusted_Income_and_Benefits_of_10000_to_14999,48355,2011,percent
6.6,Percent_Inflation_Adjusted_Income_and_Benefits_of_10000_to_14999,48361,2011,percent
5.3,Percent_Inflation_Adjusted_Income_and_Benefits_of_10000_to_14999,48367,2011,percent
8.8,Percent_Inflation_Adjusted_Income_and_Benefits_of_10000_to_14999,48375,2011,percent
5.8,Percent_Inflation_Adjusted_Income_and_Benefits_of_10000_to_14999,48381,2011,percent
1.5,Percent_Inflation_Adjusted_Income_and_Benefits_of_10000_to_14999,48397,2011,percent
7.3,Percent_Inflation_Adjusted_Income_and_Benefits_of_10000_to_14999,48409,2011,percent
6.1,Percent_Inflation_Adjusted_Income_and_Benefits_of_10000_to_14999,48423,2011,percent
5.3,Percent_Inflation_Adjusted_Income_and_Benefits_of_10000_to_14999,48439,2011,percent
6.7,Percent_Inflation_Adjusted_Income_and_Benefits_of_10000_to_14999,48441,2011,percent
7.9,Percent_Inflation_Adjusted_Income_and_Benefits_of_10000_to_14999,48451,2011,percent
4.7,Percent_Inflation_Adjusted_Income_and_Benefits_of_10000_to_14999,48453,2011,percent
4.4,Percent_Inflation_Adjusted_Income_and_Benefits_of_10000_to_14999,48469,2011,percent
7.5,Percent_Inflation_Adjusted_Income_and_Benefits_of_10000_to_14999,48471,2011,percent
8.5,Percent_Inflation_Adjusted_Income_and_Benefits_of_10000_to_14999,48479,2011,percent
7.4,Percent_Inflation_Adjusted_Income_and_Benefits_of_10000_to_14999,48485,2011,percent
2.5,Percent_Inflation_Adjusted_Income_and_Benefits_of_10000_to_14999,48491,2011,percent
4.3,Percent_Inflation_Adjusted_Income_and_Benefits_of_10000_to_14999,49005,2011,percent
2.6,Percent_Inflation_Adjusted_Income_and_Benefits_of_10000_to_14999,49011,2011,percent
4.4,Percent_Inflation_Adjusted_Income_and_Benefits_of_10000_to_14999,49035,2011,percent
4.6,Percent_Inflation_Adjusted_Income_and_Benefits_of_10000_to_14999,49049,2011,percent
6,Percent_Inflation_Adjusted_Income_and_Benefits_of_10000_to_14999,49053,2011,percent
4.1,Percent_Inflation_Adjusted_Income_and_Benefits_of_10000_to_14999,49057,2011,percent
4.9,Percent_Inflation_Adjusted_Income_and_Benefits_of_10000_to_14999,50007,2011,percent
5.1,Percent_Inflation_Adjusted_Income_and_Benefits_of_10000_to_14999,51003,2011,percent
1.6,Percent_Inflation_Adjusted_Income_and_Benefits_of_10000_to_14999,51013,2011,percent
4.9,Percent_Inflation_Adjusted_Income_and_Benefits_of_10000_to_14999,51015,2011,percent
3.6,Percent_Inflation_Adjusted_Income_and_Benefits_of_10000_to_14999,51019,2011,percent
2.4,Percent_Inflation_Adjusted_Income_and_Benefits_of_10000_to_14999,51041,2011,percent
1.7,Percent_Inflation_Adjusted_Income_and_Benefits_of_10000_to_14999,51059,2011,percent
0.9,Percent_Inflation_Adjusted_Income_and_Benefits_of_10000_to_14999,51061,2011,percent
4,Percent_Inflation_Adjusted_Income_and_Benefits_of_10000_to_14999,51069,2011,percent
2.6,Percent_Inflation_Adjusted_Income_and_Benefits_of_10000_to_14999,51085,2011,percent
4.9,Percent_Inflation_Adjusted_Income_and_Benefits_of_10000_to_14999,51087,2011,percent
1.3,Percent_Inflation_Adjusted_Income_and_Benefits_of_10000_to_14999,51095,2011,percent
0.7,Percent_Inflation_Adjusted_Income_and_Benefits_of_10000_to_14999,51107,2011,percent
9.4,Percent_Inflation_Adjusted_Income_and_Benefits_of_10000_to_14999,51121,2011,percent
1.6,Percent_Inflation_Adjusted_Income_and_Benefits_of_10000_to_14999,51153,2011,percent
3,Percent_Inflation_Adjusted_Income_and_Benefits_of_10000_to_14999,51161,2011,percent
5.6,Percent_Inflation_Adjusted_Income_and_Benefits_of_10000_to_14999,51165,2011,percent
1.8,Percent_Inflation_Adjusted_Income_and_Benefits_of_10000_to_14999,51177,2011,percent
1.3,Percent_Inflation_Adjusted_Income_and_Benefits_of_10000_to_14999,51179,2011,percent
2.3,Percent_Inflation_Adjusted_Income_and_Benefits_of_10000_to_14999,51199,2011,percent
2.2,Percent_Inflation_Adjusted_Income_and_Benefits_of_10000_to_14999,51510,2011,percent
3.7,Percent_Inflation_Adjusted_Income_and_Benefits_of_10000_to_14999,51550,2011,percent
5.9,Percent_Inflation_Adjusted_Income_and_Benefits_of_10000_to_14999,51650,2011,percent
10.5,Percent_Inflation_Adjusted_Income_and_Benefits_of_10000_to_14999,51680,2011,percent
4.1,Percent_Inflation_Adjusted_Income_and_Benefits_of_10000_to_14999,51700,2011,percent
6,Percent_Inflation_Adjusted_Income_and_Benefits_of_10000_to_14999,51710,2011,percent
6.9,Percent_Inflation_Adjusted_Income_and_Benefits_of_10000_to_14999,51740,2011,percent
7.3,Percent_Inflation_Adjusted_Income_and_Benefits_of_10000_to_14999,51760,2011,percent
5.7,Percent_Inflation_Adjusted_Income_and_Benefits_of_10000_to_14999,51770,2011,percent
4.4,Percent_Inflation_Adjusted_Income_and_Benefits_of_10000_to_14999,51800,2011,percent
3.3,Percent_Inflation_Adjusted_Income_and_Benefits_of_10000_to_14999,51810,2011,percent
4,Percent_Inflation_Adjusted_Income_and_Benefits_of_10000_to_14999,53005,2011,percent
4,Percent_Inflation_Adjusted_Income_and_Benefits_of_10000_to_14999,53007,2011,percent
7.6,Percent_Inflation_Adjusted_Income_and_Benefits_of_10000_to_14999,53009,2011,percent
4.8,Percent_Inflation_Adjusted_Income_and_Benefits_of_10000_to_14999,53011,2011,percent
7.9,Percent_Inflation_Adjusted_Income_and_Benefits_of_10000_to_14999,53015,2011,percent
4.4,Percent_Inflation_Adjusted_Income_and_Benefits_of_10000_to_14999,53021,2011,percent
5.7,Percent_Inflation_Adjusted_Income_and_Benefits_of_10000_to_14999,53025,2011,percent
4.4,Percent_Inflation_Adjusted_Income_and_Benefits_of_10000_to_14999,53027,2011,percent
5.4,Percent_Inflation_Adjusted_Income_and_Benefits_of_10000_to_14999,53029,2011,percent
3.9,Percent_Inflation_Adjusted_Income_and_Benefits_of_10000_to_14999,53033,2011,percent
3.7,Percent_Inflation_Adjusted_Income_and_Benefits_of_10000_to_14999,53035,2011,percent
6.6,Percent_Inflation_Adjusted_Income_and_Benefits_of_10000_to_14999,53041,2011,percent
4.7,Percent_Inflation_Adjusted_Income_and_Benefits_of_10000_to_14999,53053,2011,percent
6.8,Percent_Inflation_Adjusted_Income_and_Benefits_of_10000_to_14999,53057,2011,percent
3.5,Percent_Inflation_Adjusted_Income_and_Benefits_of_10000_to_14999,53061,2011,percent
6.2,Percent_Inflation_Adjusted_Income_and_Benefits_of_10000_to_14999,53063,2011,percent
4.7,Percent_Inflation_Adjusted_Income_and_Benefits_of_10000_to_14999,53067,2011,percent
3.7,Percent_Inflation_Adjusted_Income_and_Benefits_of_10000_to_14999,53073,2011,percent
6.6,Percent_Inflation_Adjusted_Income_and_Benefits_of_10000_to_14999,53077,2011,percent
7.8,Percent_Inflation_Adjusted_Income_and_Benefits_of_10000_to_14999,54003,2011,percent
9.1,Percent_Inflation_Adjusted_Income_and_Benefits_of_10000_to_14999,54011,2011,percent
7.9,Percent_Inflation_Adjusted_Income_and_Benefits_of_10000_to_14999,54033,2011,percent
7.3,Percent_Inflation_Adjusted_Income_and_Benefits_of_10000_to_14999,54039,2011,percent
6.5,Percent_Inflation_Adjusted_Income_and_Benefits_of_10000_to_14999,54061,2011,percent
7.9,Percent_Inflation_Adjusted_Income_and_Benefits_of_10000_to_14999,54081,2011,percent
8.5,Percent_Inflation_Adjusted_Income_and_Benefits_of_10000_to_14999,54107,2011,percent
4.5,Percent_Inflation_Adjusted_Income_and_Benefits_of_10000_to_14999,55009,2011,percent
4,Percent_Inflation_Adjusted_Income_and_Benefits_of_10000_to_14999,55025,2011,percent
4.6,Percent_Inflation_Adjusted_Income_and_Benefits_of_10000_to_14999,55027,2011,percent
6.4,Percent_Inflation_Adjusted_Income_and_Benefits_of_10000_to_14999,55035,2011,percent
6.4,Percent_Inflation_Adjusted_Income_and_Benefits_of_10000_to_14999,55039,2011,percent
4.7,Percent_Inflation_Adjusted_Income_and_Benefits_of_10000_to_14999,55055,2011,percent
5.2,Percent_Inflation_Adjusted_Income_and_Benefits_of_10000_to_14999,55059,2011,percent
4.5,Percent_Inflation_Adjusted_Income_and_Benefits_of_10000_to_14999,55063,2011,percent
5.6,Percent_Inflation_Adjusted_Income_and_Benefits_of_10000_to_14999,55071,2011,percent
5,Percent_Inflation_Adjusted_Income_and_Benefits_of_10000_to_14999,55073,2011,percent
7.6,Percent_Inflation_Adjusted_Income_and_Benefits_of_10000_to_14999,55079,2011,percent
4.7,Percent_Inflation_Adjusted_Income_and_Benefits_of_10000_to_14999,55087,2011,percent
3.3,Percent_Inflation_Adjusted_Income_and_Benefits_of_10000_to_14999,55089,2011,percent
6.6,Percent_Inflation_Adjusted_Income_and_Benefits_of_10000_to_14999,55097,2011,percent
5.2,Percent_Inflation_Adjusted_Income_and_Benefits_of_10000_to_14999,55101,2011,percent
5.8,Percent_Inflation_Adjusted_Income_and_Benefits_of_10000_to_14999,55105,2011,percent
3.8,Percent_Inflation_Adjusted_Income_and_Benefits_of_10000_to_14999,55109,2011,percent
4.7,Percent_Inflation_Adjusted_Income_and_Benefits_of_10000_to_14999,55117,2011,percent
4.3,Percent_Inflation_Adjusted_Income_and_Benefits_of_10000_to_14999,55127,2011,percent
5.4,Percent_Inflation_Adjusted_Income_and_Benefits_of_10000_to_14999,55131,2011,percent
3.3,Percent_Inflation_Adjusted_Income_and_Benefits_of_10000_to_14999,55133,2011,percent
6.2,Percent_Inflation_Adjusted_Income_and_Benefits_of_10000_to_14999,55139,2011,percent
7.1,Percent_Inflation_Adjusted_Income_and_Benefits_of_10000_to_14999,55141,2011,percent
5.6,Percent_Inflation_Adjusted_Income_and_Benefits_of_10000_to_14999,56021,2011,percent
4.6,Percent_Inflation_Adjusted_Income_and_Benefits_of_10000_to_14999,56025,2011,percent
12.1,Percent_Inflation_Adjusted_Income_and_Benefits_of_10000_to_14999,72013,2011,percent
11.6,Percent_Inflation_Adjusted_Income_and_Benefits_of_10000_to_14999,72021,2011,percent
12.4,Percent_Inflation_Adjusted_Income_and_Benefits_of_10000_to_14999,72025,2011,percent
11.1,Percent_Inflation_Adjusted_Income_and_Benefits_of_10000_to_14999,72031,2011,percent
9.3,Percent_Inflation_Adjusted_Income_and_Benefits_of_10000_to_14999,72061,2011,percent
14.9,Percent_Inflation_Adjusted_Income_and_Benefits_of_10000_to_14999,72097,2011,percent
10.8,Percent_Inflation_Adjusted_Income_and_Benefits_of_10000_to_14999,72113,2011,percent
10.4,Percent_Inflation_Adjusted_Income_and_Benefits_of_10000_to_14999,72127,2011,percent
10.1,Percent_Inflation_Adjusted_Income_and_Benefits_of_10000_to_14999,72135,2011,percent
11.8,Percent_Inflation_Adjusted_Income_and_Benefits_of_10000_to_14999,72137,2011,percent
6.1,Percent_Inflation_Adjusted_Income_and_Benefits_of_10000_to_14999,72139,2011,percent
