value,variable,FIPS,Date,units
2.8,Percent_Inflation_Adjusted_Income_and_Benefits_of_200000_or_more,1003,2011,percent
1.4,Percent_Inflation_Adjusted_Income_and_Benefits_of_200000_or_more,1015,2011,percent
0.8,Percent_Inflation_Adjusted_Income_and_Benefits_of_200000_or_more,1043,2011,percent
2.7,Percent_Inflation_Adjusted_Income_and_Benefits_of_200000_or_more,1049,2011,percent
2.3,Percent_Inflation_Adjusted_Income_and_Benefits_of_200000_or_more,1051,2011,percent
1.1,Percent_Inflation_Adjusted_Income_and_Benefits_of_200000_or_more,1055,2011,percent
2.9,Percent_Inflation_Adjusted_Income_and_Benefits_of_200000_or_more,1069,2011,percent
3.8,Percent_Inflation_Adjusted_Income_and_Benefits_of_200000_or_more,1073,2011,percent
0.9,Percent_Inflation_Adjusted_Income_and_Benefits_of_200000_or_more,1077,2011,percent
2.1,Percent_Inflation_Adjusted_Income_and_Benefits_of_200000_or_more,1081,2011,percent
2.5,Percent_Inflation_Adjusted_Income_and_Benefits_of_200000_or_more,1083,2011,percent
4.9,Percent_Inflation_Adjusted_Income_and_Benefits_of_200000_or_more,1089,2011,percent
3.4,Percent_Inflation_Adjusted_Income_and_Benefits_of_200000_or_more,1095,2011,percent
2.1,Percent_Inflation_Adjusted_Income_and_Benefits_of_200000_or_more,1097,2011,percent
3.1,Percent_Inflation_Adjusted_Income_and_Benefits_of_200000_or_more,1101,2011,percent
3,Percent_Inflation_Adjusted_Income_and_Benefits_of_200000_or_more,1103,2011,percent
1.4,Percent_Inflation_Adjusted_Income_and_Benefits_of_200000_or_more,1115,2011,percent
4.9,Percent_Inflation_Adjusted_Income_and_Benefits_of_200000_or_more,1117,2011,percent
0.3,Percent_Inflation_Adjusted_Income_and_Benefits_of_200000_or_more,1121,2011,percent
1.8,Percent_Inflation_Adjusted_Income_and_Benefits_of_200000_or_more,1125,2011,percent
0.4,Percent_Inflation_Adjusted_Income_and_Benefits_of_200000_or_more,1127,2011,percent
5.9,Percent_Inflation_Adjusted_Income_and_Benefits_of_200000_or_more,2020,2011,percent
1.8,Percent_Inflation_Adjusted_Income_and_Benefits_of_200000_or_more,2090,2011,percent
4.7,Percent_Inflation_Adjusted_Income_and_Benefits_of_200000_or_more,2170,2011,percent
0.4,Percent_Inflation_Adjusted_Income_and_Benefits_of_200000_or_more,4001,2011,percent
1.3,Percent_Inflation_Adjusted_Income_and_Benefits_of_200000_or_more,4003,2011,percent
3.3,Percent_Inflation_Adjusted_Income_and_Benefits_of_200000_or_more,4005,2011,percent
3.7,Percent_Inflation_Adjusted_Income_and_Benefits_of_200000_or_more,4013,2011,percent
1.2,Percent_Inflation_Adjusted_Income_and_Benefits_of_200000_or_more,4015,2011,percent
0.9,Percent_Inflation_Adjusted_Income_and_Benefits_of_200000_or_more,4017,2011,percent
2.8,Percent_Inflation_Adjusted_Income_and_Benefits_of_200000_or_more,4019,2011,percent
1.4,Percent_Inflation_Adjusted_Income_and_Benefits_of_200000_or_more,4021,2011,percent
1.6,Percent_Inflation_Adjusted_Income_and_Benefits_of_200000_or_more,4025,2011,percent
2.5,Percent_Inflation_Adjusted_Income_and_Benefits_of_200000_or_more,4027,2011,percent
3.5,Percent_Inflation_Adjusted_Income_and_Benefits_of_200000_or_more,5007,2011,percent
2.5,Percent_Inflation_Adjusted_Income_and_Benefits_of_200000_or_more,5031,2011,percent
1.8,Percent_Inflation_Adjusted_Income_and_Benefits_of_200000_or_more,5045,2011,percent
2.8,Percent_Inflation_Adjusted_Income_and_Benefits_of_200000_or_more,5051,2011,percent
0.9,Percent_Inflation_Adjusted_Income_and_Benefits_of_200000_or_more,5069,2011,percent
0.5,Percent_Inflation_Adjusted_Income_and_Benefits_of_200000_or_more,5085,2011,percent
3.1,Percent_Inflation_Adjusted_Income_and_Benefits_of_200000_or_more,5119,2011,percent
1,Percent_Inflation_Adjusted_Income_and_Benefits_of_200000_or_more,5125,2011,percent
3.5,Percent_Inflation_Adjusted_Income_and_Benefits_of_200000_or_more,5131,2011,percent
2.3,Percent_Inflation_Adjusted_Income_and_Benefits_of_200000_or_more,5143,2011,percent
1.2,Percent_Inflation_Adjusted_Income_and_Benefits_of_200000_or_more,5145,2011,percent
9.1,Percent_Inflation_Adjusted_Income_and_Benefits_of_200000_or_more,6001,2011,percent
1.9,Percent_Inflation_Adjusted_Income_and_Benefits_of_200000_or_more,6007,2011,percent
10.2,Percent_Inflation_Adjusted_Income_and_Benefits_of_200000_or_more,6013,2011,percent
5.8,Percent_Inflation_Adjusted_Income_and_Benefits_of_200000_or_more,6017,2011,percent
2.5,Percent_Inflation_Adjusted_Income_and_Benefits_of_200000_or_more,6019,2011,percent
1.9,Percent_Inflation_Adjusted_Income_and_Benefits_of_200000_or_more,6023,2011,percent
2.2,Percent_Inflation_Adjusted_Income_and_Benefits_of_200000_or_more,6025,2011,percent
2.6,Percent_Inflation_Adjusted_Income_and_Benefits_of_200000_or_more,6029,2011,percent
3,Percent_Inflation_Adjusted_Income_and_Benefits_of_200000_or_more,6031,2011,percent
0.9,Percent_Inflation_Adjusted_Income_and_Benefits_of_200000_or_more,6033,2011,percent
5.8,Percent_Inflation_Adjusted_Income_and_Benefits_of_200000_or_more,6037,2011,percent
1.3,Percent_Inflation_Adjusted_Income_and_Benefits_of_200000_or_more,6039,2011,percent
15.7,Percent_Inflation_Adjusted_Income_and_Benefits_of_200000_or_more,6041,2011,percent
2.4,Percent_Inflation_Adjusted_Income_and_Benefits_of_200000_or_more,6045,2011,percent
2.4,Percent_Inflation_Adjusted_Income_and_Benefits_of_200000_or_more,6047,2011,percent
4.3,Percent_Inflation_Adjusted_Income_and_Benefits_of_200000_or_more,6053,2011,percent
7.4,Percent_Inflation_Adjusted_Income_and_Benefits_of_200000_or_more,6055,2011,percent
5.2,Percent_Inflation_Adjusted_Income_and_Benefits_of_200000_or_more,6057,2011,percent
9.4,Percent_Inflation_Adjusted_Income_and_Benefits_of_200000_or_more,6059,2011,percent
6,Percent_Inflation_Adjusted_Income_and_Benefits_of_200000_or_more,6061,2011,percent
3.6,Percent_Inflation_Adjusted_Income_and_Benefits_of_200000_or_more,6065,2011,percent
3.4,Percent_Inflation_Adjusted_Income_and_Benefits_of_200000_or_more,6067,2011,percent
2.9,Percent_Inflation_Adjusted_Income_and_Benefits_of_200000_or_more,6071,2011,percent
5.8,Percent_Inflation_Adjusted_Income_and_Benefits_of_200000_or_more,6073,2011,percent
12.4,Percent_Inflation_Adjusted_Income_and_Benefits_of_200000_or_more,6075,2011,percent
2.7,Percent_Inflation_Adjusted_Income_and_Benefits_of_200000_or_more,6077,2011,percent
3.9,Percent_Inflation_Adjusted_Income_and_Benefits_of_200000_or_more,6079,2011,percent
15.3,Percent_Inflation_Adjusted_Income_and_Benefits_of_200000_or_more,6081,2011,percent
6.9,Percent_Inflation_Adjusted_Income_and_Benefits_of_200000_or_more,6083,2011,percent
14.7,Percent_Inflation_Adjusted_Income_and_Benefits_of_200000_or_more,6085,2011,percent
6.8,Percent_Inflation_Adjusted_Income_and_Benefits_of_200000_or_more,6087,2011,percent
2.3,Percent_Inflation_Adjusted_Income_and_Benefits_of_200000_or_more,6089,2011,percent
5.7,Percent_Inflation_Adjusted_Income_and_Benefits_of_200000_or_more,6095,2011,percent
5.7,Percent_Inflation_Adjusted_Income_and_Benefits_of_200000_or_more,6097,2011,percent
2.4,Percent_Inflation_Adjusted_Income_and_Benefits_of_200000_or_more,6099,2011,percent
2.2,Percent_Inflation_Adjusted_Income_and_Benefits_of_200000_or_more,6101,2011,percent
2.2,Percent_Inflation_Adjusted_Income_and_Benefits_of_200000_or_more,6107,2011,percent
8.3,Percent_Inflation_Adjusted_Income_and_Benefits_of_200000_or_more,6111,2011,percent
5.1,Percent_Inflation_Adjusted_Income_and_Benefits_of_200000_or_more,6113,2011,percent
0.6,Percent_Inflation_Adjusted_Income_and_Benefits_of_200000_or_more,6115,2011,percent
1.5,Percent_Inflation_Adjusted_Income_and_Benefits_of_200000_or_more,8001,2011,percent
5.6,Percent_Inflation_Adjusted_Income_and_Benefits_of_200000_or_more,8005,2011,percent
8.5,Percent_Inflation_Adjusted_Income_and_Benefits_of_200000_or_more,8013,2011,percent
5.2,Percent_Inflation_Adjusted_Income_and_Benefits_of_200000_or_more,8031,2011,percent
11.2,Percent_Inflation_Adjusted_Income_and_Benefits_of_200000_or_more,8035,2011,percent
3.9,Percent_Inflation_Adjusted_Income_and_Benefits_of_200000_or_more,8041,2011,percent
5.4,Percent_Inflation_Adjusted_Income_and_Benefits_of_200000_or_more,8059,2011,percent
3.6,Percent_Inflation_Adjusted_Income_and_Benefits_of_200000_or_more,8069,2011,percent
1.8,Percent_Inflation_Adjusted_Income_and_Benefits_of_200000_or_more,8077,2011,percent
2.1,Percent_Inflation_Adjusted_Income_and_Benefits_of_200000_or_more,8101,2011,percent
3,Percent_Inflation_Adjusted_Income_and_Benefits_of_200000_or_more,8123,2011,percent
16.1,Percent_Inflation_Adjusted_Income_and_Benefits_of_200000_or_more,9001,2011,percent
6.3,Percent_Inflation_Adjusted_Income_and_Benefits_of_200000_or_more,9003,2011,percent
7.1,Percent_Inflation_Adjusted_Income_and_Benefits_of_200000_or_more,9005,2011,percent
8.9,Percent_Inflation_Adjusted_Income_and_Benefits_of_200000_or_more,9007,2011,percent
5.4,Percent_Inflation_Adjusted_Income_and_Benefits_of_200000_or_more,9009,2011,percent
3.9,Percent_Inflation_Adjusted_Income_and_Benefits_of_200000_or_more,9011,2011,percent
4.8,Percent_Inflation_Adjusted_Income_and_Benefits_of_200000_or_more,9013,2011,percent
3,Percent_Inflation_Adjusted_Income_and_Benefits_of_200000_or_more,9015,2011,percent
1,Percent_Inflation_Adjusted_Income_and_Benefits_of_200000_or_more,10001,2011,percent
5.8,Percent_Inflation_Adjusted_Income_and_Benefits_of_200000_or_more,10003,2011,percent
4.1,Percent_Inflation_Adjusted_Income_and_Benefits_of_200000_or_more,10005,2011,percent
11.3,Percent_Inflation_Adjusted_Income_and_Benefits_of_200000_or_more,11001,2011,percent
3.5,Percent_Inflation_Adjusted_Income_and_Benefits_of_200000_or_more,12001,2011,percent
2.5,Percent_Inflation_Adjusted_Income_and_Benefits_of_200000_or_more,12005,2011,percent
2.5,Percent_Inflation_Adjusted_Income_and_Benefits_of_200000_or_more,12009,2011,percent
4.1,Percent_Inflation_Adjusted_Income_and_Benefits_of_200000_or_more,12011,2011,percent
1.9,Percent_Inflation_Adjusted_Income_and_Benefits_of_200000_or_more,12015,2011,percent
1.3,Percent_Inflation_Adjusted_Income_and_Benefits_of_200000_or_more,12017,2011,percent
3.7,Percent_Inflation_Adjusted_Income_and_Benefits_of_200000_or_more,12019,2011,percent
7.3,Percent_Inflation_Adjusted_Income_and_Benefits_of_200000_or_more,12021,2011,percent
0.1,Percent_Inflation_Adjusted_Income_and_Benefits_of_200000_or_more,12023,2011,percent
3.4,Percent_Inflation_Adjusted_Income_and_Benefits_of_200000_or_more,12031,2011,percent
2.3,Percent_Inflation_Adjusted_Income_and_Benefits_of_200000_or_more,12033,2011,percent
1.2,Percent_Inflation_Adjusted_Income_and_Benefits_of_200000_or_more,12035,2011,percent
0.7,Percent_Inflation_Adjusted_Income_and_Benefits_of_200000_or_more,12053,2011,percent
1.6,Percent_Inflation_Adjusted_Income_and_Benefits_of_200000_or_more,12055,2011,percent
3.5,Percent_Inflation_Adjusted_Income_and_Benefits_of_200000_or_more,12057,2011,percent
5,Percent_Inflation_Adjusted_Income_and_Benefits_of_200000_or_more,12061,2011,percent
1,Percent_Inflation_Adjusted_Income_and_Benefits_of_200000_or_more,12069,2011,percent
3.2,Percent_Inflation_Adjusted_Income_and_Benefits_of_200000_or_more,12071,2011,percent
3.8,Percent_Inflation_Adjusted_Income_and_Benefits_of_200000_or_more,12073,2011,percent
2.9,Percent_Inflation_Adjusted_Income_and_Benefits_of_200000_or_more,12081,2011,percent
1.2,Percent_Inflation_Adjusted_Income_and_Benefits_of_200000_or_more,12083,2011,percent
6.8,Percent_Inflation_Adjusted_Income_and_Benefits_of_200000_or_more,12085,2011,percent
3.8,Percent_Inflation_Adjusted_Income_and_Benefits_of_200000_or_more,12086,2011,percent
6.5,Percent_Inflation_Adjusted_Income_and_Benefits_of_200000_or_more,12087,2011,percent
1.4,Percent_Inflation_Adjusted_Income_and_Benefits_of_200000_or_more,12089,2011,percent
3.9,Percent_Inflation_Adjusted_Income_and_Benefits_of_200000_or_more,12091,2011,percent
3.6,Percent_Inflation_Adjusted_Income_and_Benefits_of_200000_or_more,12095,2011,percent
1.2,Percent_Inflation_Adjusted_Income_and_Benefits_of_200000_or_more,12097,2011,percent
5.2,Percent_Inflation_Adjusted_Income_and_Benefits_of_200000_or_more,12099,2011,percent
1.4,Percent_Inflation_Adjusted_Income_and_Benefits_of_200000_or_more,12101,2011,percent
3.2,Percent_Inflation_Adjusted_Income_and_Benefits_of_200000_or_more,12103,2011,percent
1.3,Percent_Inflation_Adjusted_Income_and_Benefits_of_200000_or_more,12105,2011,percent
0.9,Percent_Inflation_Adjusted_Income_and_Benefits_of_200000_or_more,12107,2011,percent
7.7,Percent_Inflation_Adjusted_Income_and_Benefits_of_200000_or_more,12109,2011,percent
1.4,Percent_Inflation_Adjusted_Income_and_Benefits_of_200000_or_more,12111,2011,percent
5.2,Percent_Inflation_Adjusted_Income_and_Benefits_of_200000_or_more,12113,2011,percent
3.7,Percent_Inflation_Adjusted_Income_and_Benefits_of_200000_or_more,12115,2011,percent
4.7,Percent_Inflation_Adjusted_Income_and_Benefits_of_200000_or_more,12117,2011,percent
1.2,Percent_Inflation_Adjusted_Income_and_Benefits_of_200000_or_more,12119,2011,percent
1.9,Percent_Inflation_Adjusted_Income_and_Benefits_of_200000_or_more,12127,2011,percent
0.2,Percent_Inflation_Adjusted_Income_and_Benefits_of_200000_or_more,13013,2011,percent
0.9,Percent_Inflation_Adjusted_Income_and_Benefits_of_200000_or_more,13015,2011,percent
2.7,Percent_Inflation_Adjusted_Income_and_Benefits_of_200000_or_more,13021,2011,percent
2.2,Percent_Inflation_Adjusted_Income_and_Benefits_of_200000_or_more,13031,2011,percent
1.8,Percent_Inflation_Adjusted_Income_and_Benefits_of_200000_or_more,13045,2011,percent
3.6,Percent_Inflation_Adjusted_Income_and_Benefits_of_200000_or_more,13051,2011,percent
3.5,Percent_Inflation_Adjusted_Income_and_Benefits_of_200000_or_more,13057,2011,percent
2.9,Percent_Inflation_Adjusted_Income_and_Benefits_of_200000_or_more,13059,2011,percent
0.4,Percent_Inflation_Adjusted_Income_and_Benefits_of_200000_or_more,13063,2011,percent
5.9,Percent_Inflation_Adjusted_Income_and_Benefits_of_200000_or_more,13067,2011,percent
3.8,Percent_Inflation_Adjusted_Income_and_Benefits_of_200000_or_more,13073,2011,percent
2,Percent_Inflation_Adjusted_Income_and_Benefits_of_200000_or_more,13077,2011,percent
4.1,Percent_Inflation_Adjusted_Income_and_Benefits_of_200000_or_more,13089,2011,percent
0.6,Percent_Inflation_Adjusted_Income_and_Benefits_of_200000_or_more,13095,2011,percent
2.2,Percent_Inflation_Adjusted_Income_and_Benefits_of_200000_or_more,13097,2011,percent
7.8,Percent_Inflation_Adjusted_Income_and_Benefits_of_200000_or_more,13113,2011,percent
1.2,Percent_Inflation_Adjusted_Income_and_Benefits_of_200000_or_more,13115,2011,percent
8.1,Percent_Inflation_Adjusted_Income_and_Benefits_of_200000_or_more,13117,2011,percent
9.5,Percent_Inflation_Adjusted_Income_and_Benefits_of_200000_or_more,13121,2011,percent
2.6,Percent_Inflation_Adjusted_Income_and_Benefits_of_200000_or_more,13127,2011,percent
3.4,Percent_Inflation_Adjusted_Income_and_Benefits_of_200000_or_more,13135,2011,percent
3.5,Percent_Inflation_Adjusted_Income_and_Benefits_of_200000_or_more,13139,2011,percent
2.3,Percent_Inflation_Adjusted_Income_and_Benefits_of_200000_or_more,13151,2011,percent
1.1,Percent_Inflation_Adjusted_Income_and_Benefits_of_200000_or_more,13153,2011,percent
0.5,Percent_Inflation_Adjusted_Income_and_Benefits_of_200000_or_more,13179,2011,percent
1.1,Percent_Inflation_Adjusted_Income_and_Benefits_of_200000_or_more,13185,2011,percent
2.2,Percent_Inflation_Adjusted_Income_and_Benefits_of_200000_or_more,13215,2011,percent
1.1,Percent_Inflation_Adjusted_Income_and_Benefits_of_200000_or_more,13217,2011,percent
1.4,Percent_Inflation_Adjusted_Income_and_Benefits_of_200000_or_more,13223,2011,percent
0.7,Percent_Inflation_Adjusted_Income_and_Benefits_of_200000_or_more,13245,2011,percent
1.3,Percent_Inflation_Adjusted_Income_and_Benefits_of_200000_or_more,13247,2011,percent
1.6,Percent_Inflation_Adjusted_Income_and_Benefits_of_200000_or_more,13285,2011,percent
1.1,Percent_Inflation_Adjusted_Income_and_Benefits_of_200000_or_more,13295,2011,percent
3.3,Percent_Inflation_Adjusted_Income_and_Benefits_of_200000_or_more,13297,2011,percent
2.3,Percent_Inflation_Adjusted_Income_and_Benefits_of_200000_or_more,13313,2011,percent
2,Percent_Inflation_Adjusted_Income_and_Benefits_of_200000_or_more,15001,2011,percent
5.1,Percent_Inflation_Adjusted_Income_and_Benefits_of_200000_or_more,15003,2011,percent
3.1,Percent_Inflation_Adjusted_Income_and_Benefits_of_200000_or_more,15007,2011,percent
6,Percent_Inflation_Adjusted_Income_and_Benefits_of_200000_or_more,15009,2011,percent
2.3,Percent_Inflation_Adjusted_Income_and_Benefits_of_200000_or_more,16001,2011,percent
0.4,Percent_Inflation_Adjusted_Income_and_Benefits_of_200000_or_more,16005,2011,percent
2.7,Percent_Inflation_Adjusted_Income_and_Benefits_of_200000_or_more,16019,2011,percent
0.6,Percent_Inflation_Adjusted_Income_and_Benefits_of_200000_or_more,16027,2011,percent
1.9,Percent_Inflation_Adjusted_Income_and_Benefits_of_200000_or_more,16055,2011,percent
3.3,Percent_Inflation_Adjusted_Income_and_Benefits_of_200000_or_more,16083,2011,percent
1.4,Percent_Inflation_Adjusted_Income_and_Benefits_of_200000_or_more,17001,2011,percent
3.6,Percent_Inflation_Adjusted_Income_and_Benefits_of_200000_or_more,17019,2011,percent
5.1,Percent_Inflation_Adjusted_Income_and_Benefits_of_200000_or_more,17031,2011,percent
2,Percent_Inflation_Adjusted_Income_and_Benefits_of_200000_or_more,17037,2011,percent
9.7,Percent_Inflation_Adjusted_Income_and_Benefits_of_200000_or_more,17043,2011,percent
7.8,Percent_Inflation_Adjusted_Income_and_Benefits_of_200000_or_more,17089,2011,percent
1.3,Percent_Inflation_Adjusted_Income_and_Benefits_of_200000_or_more,17091,2011,percent
4.1,Percent_Inflation_Adjusted_Income_and_Benefits_of_200000_or_more,17093,2011,percent
10.9,Percent_Inflation_Adjusted_Income_and_Benefits_of_200000_or_more,17097,2011,percent
2.3,Percent_Inflation_Adjusted_Income_and_Benefits_of_200000_or_more,17099,2011,percent
5.1,Percent_Inflation_Adjusted_Income_and_Benefits_of_200000_or_more,17111,2011,percent
4.2,Percent_Inflation_Adjusted_Income_and_Benefits_of_200000_or_more,17113,2011,percent
3.2,Percent_Inflation_Adjusted_Income_and_Benefits_of_200000_or_more,17115,2011,percent
2.1,Percent_Inflation_Adjusted_Income_and_Benefits_of_200000_or_more,17119,2011,percent
3,Percent_Inflation_Adjusted_Income_and_Benefits_of_200000_or_more,17143,2011,percent
1.7,Percent_Inflation_Adjusted_Income_and_Benefits_of_200000_or_more,17161,2011,percent
2.2,Percent_Inflation_Adjusted_Income_and_Benefits_of_200000_or_more,17163,2011,percent
2.5,Percent_Inflation_Adjusted_Income_and_Benefits_of_200000_or_more,17167,2011,percent
1.7,Percent_Inflation_Adjusted_Income_and_Benefits_of_200000_or_more,17179,2011,percent
1,Percent_Inflation_Adjusted_Income_and_Benefits_of_200000_or_more,17183,2011,percent
5.6,Percent_Inflation_Adjusted_Income_and_Benefits_of_200000_or_more,17197,2011,percent
1.5,Percent_Inflation_Adjusted_Income_and_Benefits_of_200000_or_more,17199,2011,percent
2.8,Percent_Inflation_Adjusted_Income_and_Benefits_of_200000_or_more,17201,2011,percent
2.6,Percent_Inflation_Adjusted_Income_and_Benefits_of_200000_or_more,18003,2011,percent
3.1,Percent_Inflation_Adjusted_Income_and_Benefits_of_200000_or_more,18005,2011,percent
2.5,Percent_Inflation_Adjusted_Income_and_Benefits_of_200000_or_more,18019,2011,percent
2.3,Percent_Inflation_Adjusted_Income_and_Benefits_of_200000_or_more,18035,2011,percent
1.4,Percent_Inflation_Adjusted_Income_and_Benefits_of_200000_or_more,18039,2011,percent
3.3,Percent_Inflation_Adjusted_Income_and_Benefits_of_200000_or_more,18043,2011,percent
1,Percent_Inflation_Adjusted_Income_and_Benefits_of_200000_or_more,18053,2011,percent
11.1,Percent_Inflation_Adjusted_Income_and_Benefits_of_200000_or_more,18057,2011,percent
1.3,Percent_Inflation_Adjusted_Income_and_Benefits_of_200000_or_more,18059,2011,percent
2.5,Percent_Inflation_Adjusted_Income_and_Benefits_of_200000_or_more,18063,2011,percent
0.9,Percent_Inflation_Adjusted_Income_and_Benefits_of_200000_or_more,18067,2011,percent
2.7,Percent_Inflation_Adjusted_Income_and_Benefits_of_200000_or_more,18081,2011,percent
3.2,Percent_Inflation_Adjusted_Income_and_Benefits_of_200000_or_more,18085,2011,percent
2.1,Percent_Inflation_Adjusted_Income_and_Benefits_of_200000_or_more,18089,2011,percent
1.6,Percent_Inflation_Adjusted_Income_and_Benefits_of_200000_or_more,18091,2011,percent
1.4,Percent_Inflation_Adjusted_Income_and_Benefits_of_200000_or_more,18095,2011,percent
1.9,Percent_Inflation_Adjusted_Income_and_Benefits_of_200000_or_more,18097,2011,percent
2.8,Percent_Inflation_Adjusted_Income_and_Benefits_of_200000_or_more,18105,2011,percent
3,Percent_Inflation_Adjusted_Income_and_Benefits_of_200000_or_more,18109,2011,percent
2.6,Percent_Inflation_Adjusted_Income_and_Benefits_of_200000_or_more,18127,2011,percent
2.8,Percent_Inflation_Adjusted_Income_and_Benefits_of_200000_or_more,18141,2011,percent
2.5,Percent_Inflation_Adjusted_Income_and_Benefits_of_200000_or_more,18157,2011,percent
2,Percent_Inflation_Adjusted_Income_and_Benefits_of_200000_or_more,18163,2011,percent
1.3,Percent_Inflation_Adjusted_Income_and_Benefits_of_200000_or_more,18167,2011,percent
1.6,Percent_Inflation_Adjusted_Income_and_Benefits_of_200000_or_more,18177,2011,percent
2.3,Percent_Inflation_Adjusted_Income_and_Benefits_of_200000_or_more,19013,2011,percent
5.4,Percent_Inflation_Adjusted_Income_and_Benefits_of_200000_or_more,19049,2011,percent
2.2,Percent_Inflation_Adjusted_Income_and_Benefits_of_200000_or_more,19061,2011,percent
4.2,Percent_Inflation_Adjusted_Income_and_Benefits_of_200000_or_more,19103,2011,percent
3.2,Percent_Inflation_Adjusted_Income_and_Benefits_of_200000_or_more,19113,2011,percent
2.9,Percent_Inflation_Adjusted_Income_and_Benefits_of_200000_or_more,19153,2011,percent
2.6,Percent_Inflation_Adjusted_Income_and_Benefits_of_200000_or_more,19155,2011,percent
3.1,Percent_Inflation_Adjusted_Income_and_Benefits_of_200000_or_more,19163,2011,percent
2.7,Percent_Inflation_Adjusted_Income_and_Benefits_of_200000_or_more,19169,2011,percent
1.4,Percent_Inflation_Adjusted_Income_and_Benefits_of_200000_or_more,19193,2011,percent
1.9,Percent_Inflation_Adjusted_Income_and_Benefits_of_200000_or_more,20015,2011,percent
1.9,Percent_Inflation_Adjusted_Income_and_Benefits_of_200000_or_more,20045,2011,percent
7.4,Percent_Inflation_Adjusted_Income_and_Benefits_of_200000_or_more,20091,2011,percent
3.7,Percent_Inflation_Adjusted_Income_and_Benefits_of_200000_or_more,20103,2011,percent
1.8,Percent_Inflation_Adjusted_Income_and_Benefits_of_200000_or_more,20161,2011,percent
2.4,Percent_Inflation_Adjusted_Income_and_Benefits_of_200000_or_more,20173,2011,percent
2.4,Percent_Inflation_Adjusted_Income_and_Benefits_of_200000_or_more,20177,2011,percent
0.5,Percent_Inflation_Adjusted_Income_and_Benefits_of_200000_or_more,20209,2011,percent
2.3,Percent_Inflation_Adjusted_Income_and_Benefits_of_200000_or_more,21015,2011,percent
0.3,Percent_Inflation_Adjusted_Income_and_Benefits_of_200000_or_more,21029,2011,percent
1.8,Percent_Inflation_Adjusted_Income_and_Benefits_of_200000_or_more,21037,2011,percent
2,Percent_Inflation_Adjusted_Income_and_Benefits_of_200000_or_more,21047,2011,percent
2,Percent_Inflation_Adjusted_Income_and_Benefits_of_200000_or_more,21059,2011,percent
4.8,Percent_Inflation_Adjusted_Income_and_Benefits_of_200000_or_more,21067,2011,percent
3,Percent_Inflation_Adjusted_Income_and_Benefits_of_200000_or_more,21093,2011,percent
3.9,Percent_Inflation_Adjusted_Income_and_Benefits_of_200000_or_more,21111,2011,percent
2.2,Percent_Inflation_Adjusted_Income_and_Benefits_of_200000_or_more,21117,2011,percent
1.7,Percent_Inflation_Adjusted_Income_and_Benefits_of_200000_or_more,21145,2011,percent
2,Percent_Inflation_Adjusted_Income_and_Benefits_of_200000_or_more,21151,2011,percent
2.2,Percent_Inflation_Adjusted_Income_and_Benefits_of_200000_or_more,21195,2011,percent
2.5,Percent_Inflation_Adjusted_Income_and_Benefits_of_200000_or_more,21227,2011,percent
2.7,Percent_Inflation_Adjusted_Income_and_Benefits_of_200000_or_more,22005,2011,percent
3.1,Percent_Inflation_Adjusted_Income_and_Benefits_of_200000_or_more,22015,2011,percent
3.6,Percent_Inflation_Adjusted_Income_and_Benefits_of_200000_or_more,22017,2011,percent
2.9,Percent_Inflation_Adjusted_Income_and_Benefits_of_200000_or_more,22019,2011,percent
2.9,Percent_Inflation_Adjusted_Income_and_Benefits_of_200000_or_more,22033,2011,percent
1.7,Percent_Inflation_Adjusted_Income_and_Benefits_of_200000_or_more,22045,2011,percent
3,Percent_Inflation_Adjusted_Income_and_Benefits_of_200000_or_more,22051,2011,percent
5.6,Percent_Inflation_Adjusted_Income_and_Benefits_of_200000_or_more,22055,2011,percent
3.1,Percent_Inflation_Adjusted_Income_and_Benefits_of_200000_or_more,22057,2011,percent
1.4,Percent_Inflation_Adjusted_Income_and_Benefits_of_200000_or_more,22063,2011,percent
3.5,Percent_Inflation_Adjusted_Income_and_Benefits_of_200000_or_more,22071,2011,percent
2,Percent_Inflation_Adjusted_Income_and_Benefits_of_200000_or_more,22073,2011,percent
0.8,Percent_Inflation_Adjusted_Income_and_Benefits_of_200000_or_more,22079,2011,percent
2.1,Percent_Inflation_Adjusted_Income_and_Benefits_of_200000_or_more,22097,2011,percent
6,Percent_Inflation_Adjusted_Income_and_Benefits_of_200000_or_more,22103,2011,percent
1.6,Percent_Inflation_Adjusted_Income_and_Benefits_of_200000_or_more,22105,2011,percent
1.1,Percent_Inflation_Adjusted_Income_and_Benefits_of_200000_or_more,22109,2011,percent
1,Percent_Inflation_Adjusted_Income_and_Benefits_of_200000_or_more,23001,2011,percent
0.8,Percent_Inflation_Adjusted_Income_and_Benefits_of_200000_or_more,23003,2011,percent
4.9,Percent_Inflation_Adjusted_Income_and_Benefits_of_200000_or_more,23005,2011,percent
1.2,Percent_Inflation_Adjusted_Income_and_Benefits_of_200000_or_more,23011,2011,percent
1.3,Percent_Inflation_Adjusted_Income_and_Benefits_of_200000_or_more,23019,2011,percent
3.1,Percent_Inflation_Adjusted_Income_and_Benefits_of_200000_or_more,23031,2011,percent
1.6,Percent_Inflation_Adjusted_Income_and_Benefits_of_200000_or_more,24001,2011,percent
10.2,Percent_Inflation_Adjusted_Income_and_Benefits_of_200000_or_more,24003,2011,percent
5.8,Percent_Inflation_Adjusted_Income_and_Benefits_of_200000_or_more,24005,2011,percent
9.6,Percent_Inflation_Adjusted_Income_and_Benefits_of_200000_or_more,24009,2011,percent
6.5,Percent_Inflation_Adjusted_Income_and_Benefits_of_200000_or_more,24013,2011,percent
2.9,Percent_Inflation_Adjusted_Income_and_Benefits_of_200000_or_more,24015,2011,percent
6.4,Percent_Inflation_Adjusted_Income_and_Benefits_of_200000_or_more,24017,2011,percent
7,Percent_Inflation_Adjusted_Income_and_Benefits_of_200000_or_more,24021,2011,percent
6.9,Percent_Inflation_Adjusted_Income_and_Benefits_of_200000_or_more,24025,2011,percent
15.8,Percent_Inflation_Adjusted_Income_and_Benefits_of_200000_or_more,24027,2011,percent
15.6,Percent_Inflation_Adjusted_Income_and_Benefits_of_200000_or_more,24031,2011,percent
5.5,Percent_Inflation_Adjusted_Income_and_Benefits_of_200000_or_more,24033,2011,percent
6.7,Percent_Inflation_Adjusted_Income_and_Benefits_of_200000_or_more,24037,2011,percent
2.4,Percent_Inflation_Adjusted_Income_and_Benefits_of_200000_or_more,24043,2011,percent
4.6,Percent_Inflation_Adjusted_Income_and_Benefits_of_200000_or_more,24045,2011,percent
2.1,Percent_Inflation_Adjusted_Income_and_Benefits_of_200000_or_more,24510,2011,percent
4.2,Percent_Inflation_Adjusted_Income_and_Benefits_of_200000_or_more,25001,2011,percent
2.7,Percent_Inflation_Adjusted_Income_and_Benefits_of_200000_or_more,25003,2011,percent
4,Percent_Inflation_Adjusted_Income_and_Benefits_of_200000_or_more,25005,2011,percent
7.1,Percent_Inflation_Adjusted_Income_and_Benefits_of_200000_or_more,25009,2011,percent
2.2,Percent_Inflation_Adjusted_Income_and_Benefits_of_200000_or_more,25011,2011,percent
3.1,Percent_Inflation_Adjusted_Income_and_Benefits_of_200000_or_more,25013,2011,percent
3.2,Percent_Inflation_Adjusted_Income_and_Benefits_of_200000_or_more,25015,2011,percent
10.7,Percent_Inflation_Adjusted_Income_and_Benefits_of_200000_or_more,25017,2011,percent
11.7,Percent_Inflation_Adjusted_Income_and_Benefits_of_200000_or_more,25021,2011,percent
7.7,Percent_Inflation_Adjusted_Income_and_Benefits_of_200000_or_more,25023,2011,percent
6.1,Percent_Inflation_Adjusted_Income_and_Benefits_of_200000_or_more,25025,2011,percent
5,Percent_Inflation_Adjusted_Income_and_Benefits_of_200000_or_more,25027,2011,percent
1.9,Percent_Inflation_Adjusted_Income_and_Benefits_of_200000_or_more,26005,2011,percent
0.9,Percent_Inflation_Adjusted_Income_and_Benefits_of_200000_or_more,26017,2011,percent
2,Percent_Inflation_Adjusted_Income_and_Benefits_of_200000_or_more,26021,2011,percent
2.2,Percent_Inflation_Adjusted_Income_and_Benefits_of_200000_or_more,26025,2011,percent
2.3,Percent_Inflation_Adjusted_Income_and_Benefits_of_200000_or_more,26037,2011,percent
1.6,Percent_Inflation_Adjusted_Income_and_Benefits_of_200000_or_more,26045,2011,percent
1.2,Percent_Inflation_Adjusted_Income_and_Benefits_of_200000_or_more,26049,2011,percent
3.1,Percent_Inflation_Adjusted_Income_and_Benefits_of_200000_or_more,26055,2011,percent
2.6,Percent_Inflation_Adjusted_Income_and_Benefits_of_200000_or_more,26065,2011,percent
1.7,Percent_Inflation_Adjusted_Income_and_Benefits_of_200000_or_more,26073,2011,percent
1.3,Percent_Inflation_Adjusted_Income_and_Benefits_of_200000_or_more,26075,2011,percent
3.1,Percent_Inflation_Adjusted_Income_and_Benefits_of_200000_or_more,26077,2011,percent
3.1,Percent_Inflation_Adjusted_Income_and_Benefits_of_200000_or_more,26081,2011,percent
1.1,Percent_Inflation_Adjusted_Income_and_Benefits_of_200000_or_more,26087,2011,percent
0.7,Percent_Inflation_Adjusted_Income_and_Benefits_of_200000_or_more,26091,2011,percent
3.8,Percent_Inflation_Adjusted_Income_and_Benefits_of_200000_or_more,26093,2011,percent
2,Percent_Inflation_Adjusted_Income_and_Benefits_of_200000_or_more,26099,2011,percent
1.2,Percent_Inflation_Adjusted_Income_and_Benefits_of_200000_or_more,26103,2011,percent
4.6,Percent_Inflation_Adjusted_Income_and_Benefits_of_200000_or_more,26111,2011,percent
1.7,Percent_Inflation_Adjusted_Income_and_Benefits_of_200000_or_more,26115,2011,percent
1.4,Percent_Inflation_Adjusted_Income_and_Benefits_of_200000_or_more,26121,2011,percent
7,Percent_Inflation_Adjusted_Income_and_Benefits_of_200000_or_more,26125,2011,percent
2.2,Percent_Inflation_Adjusted_Income_and_Benefits_of_200000_or_more,26139,2011,percent
1.4,Percent_Inflation_Adjusted_Income_and_Benefits_of_200000_or_more,26145,2011,percent
1.7,Percent_Inflation_Adjusted_Income_and_Benefits_of_200000_or_more,26147,2011,percent
2,Percent_Inflation_Adjusted_Income_and_Benefits_of_200000_or_more,26155,2011,percent
0.4,Percent_Inflation_Adjusted_Income_and_Benefits_of_200000_or_more,26159,2011,percent
6.3,Percent_Inflation_Adjusted_Income_and_Benefits_of_200000_or_more,26161,2011,percent
2.1,Percent_Inflation_Adjusted_Income_and_Benefits_of_200000_or_more,26163,2011,percent
2.5,Percent_Inflation_Adjusted_Income_and_Benefits_of_200000_or_more,27003,2011,percent
9,Percent_Inflation_Adjusted_Income_and_Benefits_of_200000_or_more,27019,2011,percent
5.4,Percent_Inflation_Adjusted_Income_and_Benefits_of_200000_or_more,27037,2011,percent
7.2,Percent_Inflation_Adjusted_Income_and_Benefits_of_200000_or_more,27053,2011,percent
5.7,Percent_Inflation_Adjusted_Income_and_Benefits_of_200000_or_more,27109,2011,percent
3.4,Percent_Inflation_Adjusted_Income_and_Benefits_of_200000_or_more,27123,2011,percent
2.1,Percent_Inflation_Adjusted_Income_and_Benefits_of_200000_or_more,27137,2011,percent
5.7,Percent_Inflation_Adjusted_Income_and_Benefits_of_200000_or_more,27139,2011,percent
1.6,Percent_Inflation_Adjusted_Income_and_Benefits_of_200000_or_more,27141,2011,percent
2.1,Percent_Inflation_Adjusted_Income_and_Benefits_of_200000_or_more,27145,2011,percent
6.6,Percent_Inflation_Adjusted_Income_and_Benefits_of_200000_or_more,27163,2011,percent
3.7,Percent_Inflation_Adjusted_Income_and_Benefits_of_200000_or_more,27171,2011,percent
1.7,Percent_Inflation_Adjusted_Income_and_Benefits_of_200000_or_more,28033,2011,percent
2.4,Percent_Inflation_Adjusted_Income_and_Benefits_of_200000_or_more,28035,2011,percent
1.6,Percent_Inflation_Adjusted_Income_and_Benefits_of_200000_or_more,28047,2011,percent
1.6,Percent_Inflation_Adjusted_Income_and_Benefits_of_200000_or_more,28049,2011,percent
3.6,Percent_Inflation_Adjusted_Income_and_Benefits_of_200000_or_more,28059,2011,percent
1.7,Percent_Inflation_Adjusted_Income_and_Benefits_of_200000_or_more,28067,2011,percent
1.6,Percent_Inflation_Adjusted_Income_and_Benefits_of_200000_or_more,28075,2011,percent
1.6,Percent_Inflation_Adjusted_Income_and_Benefits_of_200000_or_more,28081,2011,percent
7.3,Percent_Inflation_Adjusted_Income_and_Benefits_of_200000_or_more,28089,2011,percent
3.4,Percent_Inflation_Adjusted_Income_and_Benefits_of_200000_or_more,28121,2011,percent
3,Percent_Inflation_Adjusted_Income_and_Benefits_of_200000_or_more,29019,2011,percent
1,Percent_Inflation_Adjusted_Income_and_Benefits_of_200000_or_more,29021,2011,percent
1.4,Percent_Inflation_Adjusted_Income_and_Benefits_of_200000_or_more,29031,2011,percent
2,Percent_Inflation_Adjusted_Income_and_Benefits_of_200000_or_more,29037,2011,percent
1.9,Percent_Inflation_Adjusted_Income_and_Benefits_of_200000_or_more,29043,2011,percent
3.8,Percent_Inflation_Adjusted_Income_and_Benefits_of_200000_or_more,29047,2011,percent
1.5,Percent_Inflation_Adjusted_Income_and_Benefits_of_200000_or_more,29051,2011,percent
1.7,Percent_Inflation_Adjusted_Income_and_Benefits_of_200000_or_more,29071,2011,percent
2.4,Percent_Inflation_Adjusted_Income_and_Benefits_of_200000_or_more,29077,2011,percent
2.7,Percent_Inflation_Adjusted_Income_and_Benefits_of_200000_or_more,29095,2011,percent
1.5,Percent_Inflation_Adjusted_Income_and_Benefits_of_200000_or_more,29097,2011,percent
1.3,Percent_Inflation_Adjusted_Income_and_Benefits_of_200000_or_more,29099,2011,percent
5.2,Percent_Inflation_Adjusted_Income_and_Benefits_of_200000_or_more,29165,2011,percent
4,Percent_Inflation_Adjusted_Income_and_Benefits_of_200000_or_more,29183,2011,percent
0.9,Percent_Inflation_Adjusted_Income_and_Benefits_of_200000_or_more,29187,2011,percent
6.2,Percent_Inflation_Adjusted_Income_and_Benefits_of_200000_or_more,29189,2011,percent
1.4,Percent_Inflation_Adjusted_Income_and_Benefits_of_200000_or_more,29510,2011,percent
1.7,Percent_Inflation_Adjusted_Income_and_Benefits_of_200000_or_more,30013,2011,percent
1.6,Percent_Inflation_Adjusted_Income_and_Benefits_of_200000_or_more,30029,2011,percent
2.9,Percent_Inflation_Adjusted_Income_and_Benefits_of_200000_or_more,30031,2011,percent
2.3,Percent_Inflation_Adjusted_Income_and_Benefits_of_200000_or_more,30063,2011,percent
2.9,Percent_Inflation_Adjusted_Income_and_Benefits_of_200000_or_more,30111,2011,percent
4.6,Percent_Inflation_Adjusted_Income_and_Benefits_of_200000_or_more,31055,2011,percent
2.8,Percent_Inflation_Adjusted_Income_and_Benefits_of_200000_or_more,31109,2011,percent
2.8,Percent_Inflation_Adjusted_Income_and_Benefits_of_200000_or_more,31153,2011,percent
3.2,Percent_Inflation_Adjusted_Income_and_Benefits_of_200000_or_more,32003,2011,percent
3.1,Percent_Inflation_Adjusted_Income_and_Benefits_of_200000_or_more,32031,2011,percent
2.7,Percent_Inflation_Adjusted_Income_and_Benefits_of_200000_or_more,33005,2011,percent
5.2,Percent_Inflation_Adjusted_Income_and_Benefits_of_200000_or_more,33009,2011,percent
5.5,Percent_Inflation_Adjusted_Income_and_Benefits_of_200000_or_more,33011,2011,percent
4.3,Percent_Inflation_Adjusted_Income_and_Benefits_of_200000_or_more,33013,2011,percent
6.9,Percent_Inflation_Adjusted_Income_and_Benefits_of_200000_or_more,33015,2011,percent
4.3,Percent_Inflation_Adjusted_Income_and_Benefits_of_200000_or_more,33017,2011,percent
3.2,Percent_Inflation_Adjusted_Income_and_Benefits_of_200000_or_more,34001,2011,percent
12.3,Percent_Inflation_Adjusted_Income_and_Benefits_of_200000_or_more,34003,2011,percent
6.9,Percent_Inflation_Adjusted_Income_and_Benefits_of_200000_or_more,34005,2011,percent
4.1,Percent_Inflation_Adjusted_Income_and_Benefits_of_200000_or_more,34007,2011,percent
3.9,Percent_Inflation_Adjusted_Income_and_Benefits_of_200000_or_more,34009,2011,percent
2,Percent_Inflation_Adjusted_Income_and_Benefits_of_200000_or_more,34011,2011,percent
8.6,Percent_Inflation_Adjusted_Income_and_Benefits_of_200000_or_more,34013,2011,percent
5.2,Percent_Inflation_Adjusted_Income_and_Benefits_of_200000_or_more,34015,2011,percent
5.9,Percent_Inflation_Adjusted_Income_and_Benefits_of_200000_or_more,34017,2011,percent
16.5,Percent_Inflation_Adjusted_Income_and_Benefits_of_200000_or_more,34019,2011,percent
10.4,Percent_Inflation_Adjusted_Income_and_Benefits_of_200000_or_more,34021,2011,percent
7.5,Percent_Inflation_Adjusted_Income_and_Benefits_of_200000_or_more,34023,2011,percent
11.8,Percent_Inflation_Adjusted_Income_and_Benefits_of_200000_or_more,34025,2011,percent
14.5,Percent_Inflation_Adjusted_Income_and_Benefits_of_200000_or_more,34027,2011,percent
4,Percent_Inflation_Adjusted_Income_and_Benefits_of_200000_or_more,34029,2011,percent
4.5,Percent_Inflation_Adjusted_Income_and_Benefits_of_200000_or_more,34031,2011,percent
2.5,Percent_Inflation_Adjusted_Income_and_Benefits_of_200000_or_more,34033,2011,percent
16,Percent_Inflation_Adjusted_Income_and_Benefits_of_200000_or_more,34035,2011,percent
8.4,Percent_Inflation_Adjusted_Income_and_Benefits_of_200000_or_more,34037,2011,percent
8.9,Percent_Inflation_Adjusted_Income_and_Benefits_of_200000_or_more,34039,2011,percent
5.2,Percent_Inflation_Adjusted_Income_and_Benefits_of_200000_or_more,34041,2011,percent
3.2,Percent_Inflation_Adjusted_Income_and_Benefits_of_200000_or_more,35001,2011,percent
1,Percent_Inflation_Adjusted_Income_and_Benefits_of_200000_or_more,35005,2011,percent
1.9,Percent_Inflation_Adjusted_Income_and_Benefits_of_200000_or_more,35013,2011,percent
2.3,Percent_Inflation_Adjusted_Income_and_Benefits_of_200000_or_more,35025,2011,percent
1.3,Percent_Inflation_Adjusted_Income_and_Benefits_of_200000_or_more,35031,2011,percent
1.7,Percent_Inflation_Adjusted_Income_and_Benefits_of_200000_or_more,35035,2011,percent
3.4,Percent_Inflation_Adjusted_Income_and_Benefits_of_200000_or_more,35043,2011,percent
1.4,Percent_Inflation_Adjusted_Income_and_Benefits_of_200000_or_more,35045,2011,percent
6.4,Percent_Inflation_Adjusted_Income_and_Benefits_of_200000_or_more,35049,2011,percent
1,Percent_Inflation_Adjusted_Income_and_Benefits_of_200000_or_more,35061,2011,percent
3.3,Percent_Inflation_Adjusted_Income_and_Benefits_of_200000_or_more,36001,2011,percent
1.2,Percent_Inflation_Adjusted_Income_and_Benefits_of_200000_or_more,36005,2011,percent
1.4,Percent_Inflation_Adjusted_Income_and_Benefits_of_200000_or_more,36007,2011,percent
1.5,Percent_Inflation_Adjusted_Income_and_Benefits_of_200000_or_more,36009,2011,percent
1.7,Percent_Inflation_Adjusted_Income_and_Benefits_of_200000_or_more,36011,2011,percent
0.8,Percent_Inflation_Adjusted_Income_and_Benefits_of_200000_or_more,36013,2011,percent
3.2,Percent_Inflation_Adjusted_Income_and_Benefits_of_200000_or_more,36015,2011,percent
1.6,Percent_Inflation_Adjusted_Income_and_Benefits_of_200000_or_more,36019,2011,percent
6.1,Percent_Inflation_Adjusted_Income_and_Benefits_of_200000_or_more,36027,2011,percent
2.9,Percent_Inflation_Adjusted_Income_and_Benefits_of_200000_or_more,36029,2011,percent
1,Percent_Inflation_Adjusted_Income_and_Benefits_of_200000_or_more,36045,2011,percent
3.8,Percent_Inflation_Adjusted_Income_and_Benefits_of_200000_or_more,36047,2011,percent
0.6,Percent_Inflation_Adjusted_Income_and_Benefits_of_200000_or_more,36051,2011,percent
2.4,Percent_Inflation_Adjusted_Income_and_Benefits_of_200000_or_more,36053,2011,percent
3.6,Percent_Inflation_Adjusted_Income_and_Benefits_of_200000_or_more,36055,2011,percent
14.2,Percent_Inflation_Adjusted_Income_and_Benefits_of_200000_or_more,36059,2011,percent
16.6,Percent_Inflation_Adjusted_Income_and_Benefits_of_200000_or_more,36061,2011,percent
1.8,Percent_Inflation_Adjusted_Income_and_Benefits_of_200000_or_more,36063,2011,percent
2.3,Percent_Inflation_Adjusted_Income_and_Benefits_of_200000_or_more,36065,2011,percent
3.2,Percent_Inflation_Adjusted_Income_and_Benefits_of_200000_or_more,36067,2011,percent
3.4,Percent_Inflation_Adjusted_Income_and_Benefits_of_200000_or_more,36069,2011,percent
5.4,Percent_Inflation_Adjusted_Income_and_Benefits_of_200000_or_more,36071,2011,percent
2,Percent_Inflation_Adjusted_Income_and_Benefits_of_200000_or_more,36075,2011,percent
12.2,Percent_Inflation_Adjusted_Income_and_Benefits_of_200000_or_more,36079,2011,percent
3.8,Percent_Inflation_Adjusted_Income_and_Benefits_of_200000_or_more,36081,2011,percent
2.4,Percent_Inflation_Adjusted_Income_and_Benefits_of_200000_or_more,36083,2011,percent
6.4,Percent_Inflation_Adjusted_Income_and_Benefits_of_200000_or_more,36085,2011,percent
10.5,Percent_Inflation_Adjusted_Income_and_Benefits_of_200000_or_more,36087,2011,percent
0.8,Percent_Inflation_Adjusted_Income_and_Benefits_of_200000_or_more,36089,2011,percent
4.6,Percent_Inflation_Adjusted_Income_and_Benefits_of_200000_or_more,36091,2011,percent
2.8,Percent_Inflation_Adjusted_Income_and_Benefits_of_200000_or_more,36093,2011,percent
1.6,Percent_Inflation_Adjusted_Income_and_Benefits_of_200000_or_more,36101,2011,percent
9,Percent_Inflation_Adjusted_Income_and_Benefits_of_200000_or_more,36103,2011,percent
2.5,Percent_Inflation_Adjusted_Income_and_Benefits_of_200000_or_more,36105,2011,percent
3.5,Percent_Inflation_Adjusted_Income_and_Benefits_of_200000_or_more,36109,2011,percent
4.2,Percent_Inflation_Adjusted_Income_and_Benefits_of_200000_or_more,36111,2011,percent
3.1,Percent_Inflation_Adjusted_Income_and_Benefits_of_200000_or_more,36113,2011,percent
1,Percent_Inflation_Adjusted_Income_and_Benefits_of_200000_or_more,36117,2011,percent
16.2,Percent_Inflation_Adjusted_Income_and_Benefits_of_200000_or_more,36119,2011,percent
2.6,Percent_Inflation_Adjusted_Income_and_Benefits_of_200000_or_more,37001,2011,percent
1,Percent_Inflation_Adjusted_Income_and_Benefits_of_200000_or_more,37019,2011,percent
2.5,Percent_Inflation_Adjusted_Income_and_Benefits_of_200000_or_more,37021,2011,percent
0.6,Percent_Inflation_Adjusted_Income_and_Benefits_of_200000_or_more,37023,2011,percent
1.1,Percent_Inflation_Adjusted_Income_and_Benefits_of_200000_or_more,37025,2011,percent
1.3,Percent_Inflation_Adjusted_Income_and_Benefits_of_200000_or_more,37027,2011,percent
3.4,Percent_Inflation_Adjusted_Income_and_Benefits_of_200000_or_more,37031,2011,percent
3,Percent_Inflation_Adjusted_Income_and_Benefits_of_200000_or_more,37035,2011,percent
0.9,Percent_Inflation_Adjusted_Income_and_Benefits_of_200000_or_more,37045,2011,percent
1.3,Percent_Inflation_Adjusted_Income_and_Benefits_of_200000_or_more,37049,2011,percent
1.8,Percent_Inflation_Adjusted_Income_and_Benefits_of_200000_or_more,37051,2011,percent
1.4,Percent_Inflation_Adjusted_Income_and_Benefits_of_200000_or_more,37057,2011,percent
3.8,Percent_Inflation_Adjusted_Income_and_Benefits_of_200000_or_more,37063,2011,percent
3.4,Percent_Inflation_Adjusted_Income_and_Benefits_of_200000_or_more,37067,2011,percent
2.3,Percent_Inflation_Adjusted_Income_and_Benefits_of_200000_or_more,37071,2011,percent
2.8,Percent_Inflation_Adjusted_Income_and_Benefits_of_200000_or_more,37081,2011,percent
1.4,Percent_Inflation_Adjusted_Income_and_Benefits_of_200000_or_more,37085,2011,percent
3,Percent_Inflation_Adjusted_Income_and_Benefits_of_200000_or_more,37089,2011,percent
4.9,Percent_Inflation_Adjusted_Income_and_Benefits_of_200000_or_more,37097,2011,percent
1.4,Percent_Inflation_Adjusted_Income_and_Benefits_of_200000_or_more,37101,2011,percent
7.3,Percent_Inflation_Adjusted_Income_and_Benefits_of_200000_or_more,37109,2011,percent
5.6,Percent_Inflation_Adjusted_Income_and_Benefits_of_200000_or_more,37119,2011,percent
3.8,Percent_Inflation_Adjusted_Income_and_Benefits_of_200000_or_more,37125,2011,percent
0.6,Percent_Inflation_Adjusted_Income_and_Benefits_of_200000_or_more,37127,2011,percent
3.8,Percent_Inflation_Adjusted_Income_and_Benefits_of_200000_or_more,37129,2011,percent
0.9,Percent_Inflation_Adjusted_Income_and_Benefits_of_200000_or_more,37133,2011,percent
9.1,Percent_Inflation_Adjusted_Income_and_Benefits_of_200000_or_more,37135,2011,percent
2,Percent_Inflation_Adjusted_Income_and_Benefits_of_200000_or_more,37147,2011,percent
0.8,Percent_Inflation_Adjusted_Income_and_Benefits_of_200000_or_more,37151,2011,percent
1.4,Percent_Inflation_Adjusted_Income_and_Benefits_of_200000_or_more,37155,2011,percent
0.5,Percent_Inflation_Adjusted_Income_and_Benefits_of_200000_or_more,37157,2011,percent
1.3,Percent_Inflation_Adjusted_Income_and_Benefits_of_200000_or_more,37159,2011,percent
1,Percent_Inflation_Adjusted_Income_and_Benefits_of_200000_or_more,37161,2011,percent
1.1,Percent_Inflation_Adjusted_Income_and_Benefits_of_200000_or_more,37171,2011,percent
4.6,Percent_Inflation_Adjusted_Income_and_Benefits_of_200000_or_more,37179,2011,percent
5.8,Percent_Inflation_Adjusted_Income_and_Benefits_of_200000_or_more,37183,2011,percent
0.9,Percent_Inflation_Adjusted_Income_and_Benefits_of_200000_or_more,37191,2011,percent
1.9,Percent_Inflation_Adjusted_Income_and_Benefits_of_200000_or_more,37193,2011,percent
1.7,Percent_Inflation_Adjusted_Income_and_Benefits_of_200000_or_more,37195,2011,percent
1.8,Percent_Inflation_Adjusted_Income_and_Benefits_of_200000_or_more,38015,2011,percent
4.5,Percent_Inflation_Adjusted_Income_and_Benefits_of_200000_or_more,38017,2011,percent
4.1,Percent_Inflation_Adjusted_Income_and_Benefits_of_200000_or_more,38035,2011,percent
1.6,Percent_Inflation_Adjusted_Income_and_Benefits_of_200000_or_more,39003,2011,percent
0.7,Percent_Inflation_Adjusted_Income_and_Benefits_of_200000_or_more,39007,2011,percent
0.6,Percent_Inflation_Adjusted_Income_and_Benefits_of_200000_or_more,39013,2011,percent
2.2,Percent_Inflation_Adjusted_Income_and_Benefits_of_200000_or_more,39017,2011,percent
0.9,Percent_Inflation_Adjusted_Income_and_Benefits_of_200000_or_more,39023,2011,percent
3.3,Percent_Inflation_Adjusted_Income_and_Benefits_of_200000_or_more,39025,2011,percent
1.3,Percent_Inflation_Adjusted_Income_and_Benefits_of_200000_or_more,39029,2011,percent
2.9,Percent_Inflation_Adjusted_Income_and_Benefits_of_200000_or_more,39035,2011,percent
9,Percent_Inflation_Adjusted_Income_and_Benefits_of_200000_or_more,39041,2011,percent
2.4,Percent_Inflation_Adjusted_Income_and_Benefits_of_200000_or_more,39043,2011,percent
3,Percent_Inflation_Adjusted_Income_and_Benefits_of_200000_or_more,39045,2011,percent
3.8,Percent_Inflation_Adjusted_Income_and_Benefits_of_200000_or_more,39049,2011,percent
7.5,Percent_Inflation_Adjusted_Income_and_Benefits_of_200000_or_more,39055,2011,percent
3.8,Percent_Inflation_Adjusted_Income_and_Benefits_of_200000_or_more,39057,2011,percent
4.2,Percent_Inflation_Adjusted_Income_and_Benefits_of_200000_or_more,39061,2011,percent
2,Percent_Inflation_Adjusted_Income_and_Benefits_of_200000_or_more,39063,2011,percent
1.9,Percent_Inflation_Adjusted_Income_and_Benefits_of_200000_or_more,39081,2011,percent
2.7,Percent_Inflation_Adjusted_Income_and_Benefits_of_200000_or_more,39085,2011,percent
2.2,Percent_Inflation_Adjusted_Income_and_Benefits_of_200000_or_more,39089,2011,percent
2.4,Percent_Inflation_Adjusted_Income_and_Benefits_of_200000_or_more,39093,2011,percent
1.9,Percent_Inflation_Adjusted_Income_and_Benefits_of_200000_or_more,39095,2011,percent
1.2,Percent_Inflation_Adjusted_Income_and_Benefits_of_200000_or_more,39099,2011,percent
1.2,Percent_Inflation_Adjusted_Income_and_Benefits_of_200000_or_more,39101,2011,percent
4.2,Percent_Inflation_Adjusted_Income_and_Benefits_of_200000_or_more,39103,2011,percent
1,Percent_Inflation_Adjusted_Income_and_Benefits_of_200000_or_more,39109,2011,percent
2.3,Percent_Inflation_Adjusted_Income_and_Benefits_of_200000_or_more,39113,2011,percent
0.5,Percent_Inflation_Adjusted_Income_and_Benefits_of_200000_or_more,39119,2011,percent
2.3,Percent_Inflation_Adjusted_Income_and_Benefits_of_200000_or_more,39133,2011,percent
1.8,Percent_Inflation_Adjusted_Income_and_Benefits_of_200000_or_more,39139,2011,percent
1.4,Percent_Inflation_Adjusted_Income_and_Benefits_of_200000_or_more,39141,2011,percent
1.8,Percent_Inflation_Adjusted_Income_and_Benefits_of_200000_or_more,39145,2011,percent
1.9,Percent_Inflation_Adjusted_Income_and_Benefits_of_200000_or_more,39151,2011,percent
3.1,Percent_Inflation_Adjusted_Income_and_Benefits_of_200000_or_more,39153,2011,percent
0.9,Percent_Inflation_Adjusted_Income_and_Benefits_of_200000_or_more,39155,2011,percent
1.4,Percent_Inflation_Adjusted_Income_and_Benefits_of_200000_or_more,39157,2011,percent
5.9,Percent_Inflation_Adjusted_Income_and_Benefits_of_200000_or_more,39165,2011,percent
1.3,Percent_Inflation_Adjusted_Income_and_Benefits_of_200000_or_more,39169,2011,percent
2.4,Percent_Inflation_Adjusted_Income_and_Benefits_of_200000_or_more,39173,2011,percent
1.6,Percent_Inflation_Adjusted_Income_and_Benefits_of_200000_or_more,40017,2011,percent
2.9,Percent_Inflation_Adjusted_Income_and_Benefits_of_200000_or_more,40027,2011,percent
2.8,Percent_Inflation_Adjusted_Income_and_Benefits_of_200000_or_more,40031,2011,percent
2.8,Percent_Inflation_Adjusted_Income_and_Benefits_of_200000_or_more,40037,2011,percent
0.7,Percent_Inflation_Adjusted_Income_and_Benefits_of_200000_or_more,40101,2011,percent
3.5,Percent_Inflation_Adjusted_Income_and_Benefits_of_200000_or_more,40109,2011,percent
1.7,Percent_Inflation_Adjusted_Income_and_Benefits_of_200000_or_more,40119,2011,percent
2.7,Percent_Inflation_Adjusted_Income_and_Benefits_of_200000_or_more,40125,2011,percent
3,Percent_Inflation_Adjusted_Income_and_Benefits_of_200000_or_more,40131,2011,percent
3.4,Percent_Inflation_Adjusted_Income_and_Benefits_of_200000_or_more,40143,2011,percent
1.1,Percent_Inflation_Adjusted_Income_and_Benefits_of_200000_or_more,40145,2011,percent
2.5,Percent_Inflation_Adjusted_Income_and_Benefits_of_200000_or_more,41003,2011,percent
5.4,Percent_Inflation_Adjusted_Income_and_Benefits_of_200000_or_more,41005,2011,percent
2.2,Percent_Inflation_Adjusted_Income_and_Benefits_of_200000_or_more,41017,2011,percent
1.4,Percent_Inflation_Adjusted_Income_and_Benefits_of_200000_or_more,41019,2011,percent
1.3,Percent_Inflation_Adjusted_Income_and_Benefits_of_200000_or_more,41029,2011,percent
2,Percent_Inflation_Adjusted_Income_and_Benefits_of_200000_or_more,41033,2011,percent
0.7,Percent_Inflation_Adjusted_Income_and_Benefits_of_200000_or_more,41035,2011,percent
1.8,Percent_Inflation_Adjusted_Income_and_Benefits_of_200000_or_more,41039,2011,percent
0.5,Percent_Inflation_Adjusted_Income_and_Benefits_of_200000_or_more,41043,2011,percent
2,Percent_Inflation_Adjusted_Income_and_Benefits_of_200000_or_more,41047,2011,percent
3.5,Percent_Inflation_Adjusted_Income_and_Benefits_of_200000_or_more,41051,2011,percent
1.3,Percent_Inflation_Adjusted_Income_and_Benefits_of_200000_or_more,41053,2011,percent
2.2,Percent_Inflation_Adjusted_Income_and_Benefits_of_200000_or_more,41059,2011,percent
5.1,Percent_Inflation_Adjusted_Income_and_Benefits_of_200000_or_more,41067,2011,percent
2.7,Percent_Inflation_Adjusted_Income_and_Benefits_of_200000_or_more,41071,2011,percent
2.5,Percent_Inflation_Adjusted_Income_and_Benefits_of_200000_or_more,42001,2011,percent
4.2,Percent_Inflation_Adjusted_Income_and_Benefits_of_200000_or_more,42003,2011,percent
2,Percent_Inflation_Adjusted_Income_and_Benefits_of_200000_or_more,42005,2011,percent
2.3,Percent_Inflation_Adjusted_Income_and_Benefits_of_200000_or_more,42007,2011,percent
2.9,Percent_Inflation_Adjusted_Income_and_Benefits_of_200000_or_more,42011,2011,percent
1.7,Percent_Inflation_Adjusted_Income_and_Benefits_of_200000_or_more,42013,2011,percent
7.6,Percent_Inflation_Adjusted_Income_and_Benefits_of_200000_or_more,42017,2011,percent
4.8,Percent_Inflation_Adjusted_Income_and_Benefits_of_200000_or_more,42019,2011,percent
1.5,Percent_Inflation_Adjusted_Income_and_Benefits_of_200000_or_more,42021,2011,percent
1,Percent_Inflation_Adjusted_Income_and_Benefits_of_200000_or_more,42025,2011,percent
3.2,Percent_Inflation_Adjusted_Income_and_Benefits_of_200000_or_more,42027,2011,percent
11.2,Percent_Inflation_Adjusted_Income_and_Benefits_of_200000_or_more,42029,2011,percent
1.3,Percent_Inflation_Adjusted_Income_and_Benefits_of_200000_or_more,42033,2011,percent
1.7,Percent_Inflation_Adjusted_Income_and_Benefits_of_200000_or_more,42037,2011,percent
1.1,Percent_Inflation_Adjusted_Income_and_Benefits_of_200000_or_more,42039,2011,percent
3.2,Percent_Inflation_Adjusted_Income_and_Benefits_of_200000_or_more,42041,2011,percent
4,Percent_Inflation_Adjusted_Income_and_Benefits_of_200000_or_more,42043,2011,percent
7.6,Percent_Inflation_Adjusted_Income_and_Benefits_of_200000_or_more,42045,2011,percent
1.9,Percent_Inflation_Adjusted_Income_and_Benefits_of_200000_or_more,42049,2011,percent
0.6,Percent_Inflation_Adjusted_Income_and_Benefits_of_200000_or_more,42051,2011,percent
1.1,Percent_Inflation_Adjusted_Income_and_Benefits_of_200000_or_more,42055,2011,percent
1.2,Percent_Inflation_Adjusted_Income_and_Benefits_of_200000_or_more,42063,2011,percent
2.4,Percent_Inflation_Adjusted_Income_and_Benefits_of_200000_or_more,42069,2011,percent
2.2,Percent_Inflation_Adjusted_Income_and_Benefits_of_200000_or_more,42071,2011,percent
1.8,Percent_Inflation_Adjusted_Income_and_Benefits_of_200000_or_more,42073,2011,percent
1.7,Percent_Inflation_Adjusted_Income_and_Benefits_of_200000_or_more,42075,2011,percent
3.8,Percent_Inflation_Adjusted_Income_and_Benefits_of_200000_or_more,42077,2011,percent
2.2,Percent_Inflation_Adjusted_Income_and_Benefits_of_200000_or_more,42079,2011,percent
1.5,Percent_Inflation_Adjusted_Income_and_Benefits_of_200000_or_more,42081,2011,percent
1.6,Percent_Inflation_Adjusted_Income_and_Benefits_of_200000_or_more,42085,2011,percent
1.5,Percent_Inflation_Adjusted_Income_and_Benefits_of_200000_or_more,42089,2011,percent
9.5,Percent_Inflation_Adjusted_Income_and_Benefits_of_200000_or_more,42091,2011,percent
3.5,Percent_Inflation_Adjusted_Income_and_Benefits_of_200000_or_more,42095,2011,percent
1,Percent_Inflation_Adjusted_Income_and_Benefits_of_200000_or_more,42097,2011,percent
2.2,Percent_Inflation_Adjusted_Income_and_Benefits_of_200000_or_more,42101,2011,percent
1.2,Percent_Inflation_Adjusted_Income_and_Benefits_of_200000_or_more,42107,2011,percent
2.3,Percent_Inflation_Adjusted_Income_and_Benefits_of_200000_or_more,42111,2011,percent
3.5,Percent_Inflation_Adjusted_Income_and_Benefits_of_200000_or_more,42125,2011,percent
2.9,Percent_Inflation_Adjusted_Income_and_Benefits_of_200000_or_more,42129,2011,percent
2.6,Percent_Inflation_Adjusted_Income_and_Benefits_of_200000_or_more,42133,2011,percent
4.7,Percent_Inflation_Adjusted_Income_and_Benefits_of_200000_or_more,44003,2011,percent
4.3,Percent_Inflation_Adjusted_Income_and_Benefits_of_200000_or_more,44005,2011,percent
3.3,Percent_Inflation_Adjusted_Income_and_Benefits_of_200000_or_more,44007,2011,percent
5.4,Percent_Inflation_Adjusted_Income_and_Benefits_of_200000_or_more,44009,2011,percent
2.7,Percent_Inflation_Adjusted_Income_and_Benefits_of_200000_or_more,45003,2011,percent
0.9,Percent_Inflation_Adjusted_Income_and_Benefits_of_200000_or_more,45007,2011,percent
4.6,Percent_Inflation_Adjusted_Income_and_Benefits_of_200000_or_more,45013,2011,percent
1.2,Percent_Inflation_Adjusted_Income_and_Benefits_of_200000_or_more,45015,2011,percent
4.3,Percent_Inflation_Adjusted_Income_and_Benefits_of_200000_or_more,45019,2011,percent
1.6,Percent_Inflation_Adjusted_Income_and_Benefits_of_200000_or_more,45031,2011,percent
2.2,Percent_Inflation_Adjusted_Income_and_Benefits_of_200000_or_more,45035,2011,percent
2,Percent_Inflation_Adjusted_Income_and_Benefits_of_200000_or_more,45041,2011,percent
3,Percent_Inflation_Adjusted_Income_and_Benefits_of_200000_or_more,45045,2011,percent
1.1,Percent_Inflation_Adjusted_Income_and_Benefits_of_200000_or_more,45047,2011,percent
0.9,Percent_Inflation_Adjusted_Income_and_Benefits_of_200000_or_more,45051,2011,percent
1.3,Percent_Inflation_Adjusted_Income_and_Benefits_of_200000_or_more,45057,2011,percent
1.1,Percent_Inflation_Adjusted_Income_and_Benefits_of_200000_or_more,45059,2011,percent
2.5,Percent_Inflation_Adjusted_Income_and_Benefits_of_200000_or_more,45063,2011,percent
1.7,Percent_Inflation_Adjusted_Income_and_Benefits_of_200000_or_more,45073,2011,percent
0.6,Percent_Inflation_Adjusted_Income_and_Benefits_of_200000_or_more,45075,2011,percent
2.6,Percent_Inflation_Adjusted_Income_and_Benefits_of_200000_or_more,45077,2011,percent
3.7,Percent_Inflation_Adjusted_Income_and_Benefits_of_200000_or_more,45079,2011,percent
1.9,Percent_Inflation_Adjusted_Income_and_Benefits_of_200000_or_more,45083,2011,percent
1.7,Percent_Inflation_Adjusted_Income_and_Benefits_of_200000_or_more,45085,2011,percent
3.5,Percent_Inflation_Adjusted_Income_and_Benefits_of_200000_or_more,45091,2011,percent
1.9,Percent_Inflation_Adjusted_Income_and_Benefits_of_200000_or_more,46099,2011,percent
3.2,Percent_Inflation_Adjusted_Income_and_Benefits_of_200000_or_more,46103,2011,percent
2.2,Percent_Inflation_Adjusted_Income_and_Benefits_of_200000_or_more,47001,2011,percent
1.6,Percent_Inflation_Adjusted_Income_and_Benefits_of_200000_or_more,47009,2011,percent
0.9,Percent_Inflation_Adjusted_Income_and_Benefits_of_200000_or_more,47011,2011,percent
3.7,Percent_Inflation_Adjusted_Income_and_Benefits_of_200000_or_more,47037,2011,percent
1.7,Percent_Inflation_Adjusted_Income_and_Benefits_of_200000_or_more,47059,2011,percent
3.2,Percent_Inflation_Adjusted_Income_and_Benefits_of_200000_or_more,47065,2011,percent
3,Percent_Inflation_Adjusted_Income_and_Benefits_of_200000_or_more,47093,2011,percent
2.4,Percent_Inflation_Adjusted_Income_and_Benefits_of_200000_or_more,47113,2011,percent
0.8,Percent_Inflation_Adjusted_Income_and_Benefits_of_200000_or_more,47119,2011,percent
2.1,Percent_Inflation_Adjusted_Income_and_Benefits_of_200000_or_more,47125,2011,percent
0.8,Percent_Inflation_Adjusted_Income_and_Benefits_of_200000_or_more,47141,2011,percent
1.9,Percent_Inflation_Adjusted_Income_and_Benefits_of_200000_or_more,47147,2011,percent
2.5,Percent_Inflation_Adjusted_Income_and_Benefits_of_200000_or_more,47149,2011,percent
1.1,Percent_Inflation_Adjusted_Income_and_Benefits_of_200000_or_more,47155,2011,percent
3.6,Percent_Inflation_Adjusted_Income_and_Benefits_of_200000_or_more,47157,2011,percent
2.2,Percent_Inflation_Adjusted_Income_and_Benefits_of_200000_or_more,47163,2011,percent
2.9,Percent_Inflation_Adjusted_Income_and_Benefits_of_200000_or_more,47165,2011,percent
2.8,Percent_Inflation_Adjusted_Income_and_Benefits_of_200000_or_more,47179,2011,percent
11.8,Percent_Inflation_Adjusted_Income_and_Benefits_of_200000_or_more,47187,2011,percent
2.7,Percent_Inflation_Adjusted_Income_and_Benefits_of_200000_or_more,47189,2011,percent
2,Percent_Inflation_Adjusted_Income_and_Benefits_of_200000_or_more,48005,2011,percent
1.3,Percent_Inflation_Adjusted_Income_and_Benefits_of_200000_or_more,48021,2011,percent
1.3,Percent_Inflation_Adjusted_Income_and_Benefits_of_200000_or_more,48027,2011,percent
3,Percent_Inflation_Adjusted_Income_and_Benefits_of_200000_or_more,48029,2011,percent
2.6,Percent_Inflation_Adjusted_Income_and_Benefits_of_200000_or_more,48037,2011,percent
5.1,Percent_Inflation_Adjusted_Income_and_Benefits_of_200000_or_more,48039,2011,percent
3.6,Percent_Inflation_Adjusted_Income_and_Benefits_of_200000_or_more,48041,2011,percent
1.6,Percent_Inflation_Adjusted_Income_and_Benefits_of_200000_or_more,48061,2011,percent
9.5,Percent_Inflation_Adjusted_Income_and_Benefits_of_200000_or_more,48085,2011,percent
7.4,Percent_Inflation_Adjusted_Income_and_Benefits_of_200000_or_more,48091,2011,percent
0.3,Percent_Inflation_Adjusted_Income_and_Benefits_of_200000_or_more,48099,2011,percent
4.7,Percent_Inflation_Adjusted_Income_and_Benefits_of_200000_or_more,48113,2011,percent
6,Percent_Inflation_Adjusted_Income_and_Benefits_of_200000_or_more,48121,2011,percent
2,Percent_Inflation_Adjusted_Income_and_Benefits_of_200000_or_more,48135,2011,percent
4.4,Percent_Inflation_Adjusted_Income_and_Benefits_of_200000_or_more,48139,2011,percent
2,Percent_Inflation_Adjusted_Income_and_Benefits_of_200000_or_more,48141,2011,percent
8.9,Percent_Inflation_Adjusted_Income_and_Benefits_of_200000_or_more,48157,2011,percent
5.4,Percent_Inflation_Adjusted_Income_and_Benefits_of_200000_or_more,48167,2011,percent
2.9,Percent_Inflation_Adjusted_Income_and_Benefits_of_200000_or_more,48181,2011,percent
3.1,Percent_Inflation_Adjusted_Income_and_Benefits_of_200000_or_more,48183,2011,percent
1.7,Percent_Inflation_Adjusted_Income_and_Benefits_of_200000_or_more,48187,2011,percent
5.8,Percent_Inflation_Adjusted_Income_and_Benefits_of_200000_or_more,48201,2011,percent
3.1,Percent_Inflation_Adjusted_Income_and_Benefits_of_200000_or_more,48203,2011,percent
4.2,Percent_Inflation_Adjusted_Income_and_Benefits_of_200000_or_more,48209,2011,percent
1.7,Percent_Inflation_Adjusted_Income_and_Benefits_of_200000_or_more,48213,2011,percent
1.5,Percent_Inflation_Adjusted_Income_and_Benefits_of_200000_or_more,48215,2011,percent
0.7,Percent_Inflation_Adjusted_Income_and_Benefits_of_200000_or_more,48231,2011,percent
2.5,Percent_Inflation_Adjusted_Income_and_Benefits_of_200000_or_more,48245,2011,percent
2.5,Percent_Inflation_Adjusted_Income_and_Benefits_of_200000_or_more,48251,2011,percent
2.9,Percent_Inflation_Adjusted_Income_and_Benefits_of_200000_or_more,48257,2011,percent
1.5,Percent_Inflation_Adjusted_Income_and_Benefits_of_200000_or_more,48291,2011,percent
3.1,Percent_Inflation_Adjusted_Income_and_Benefits_of_200000_or_more,48303,2011,percent
2.4,Percent_Inflation_Adjusted_Income_and_Benefits_of_200000_or_more,48309,2011,percent
5.9,Percent_Inflation_Adjusted_Income_and_Benefits_of_200000_or_more,48329,2011,percent
7.7,Percent_Inflation_Adjusted_Income_and_Benefits_of_200000_or_more,48339,2011,percent
0.9,Percent_Inflation_Adjusted_Income_and_Benefits_of_200000_or_more,48347,2011,percent
2.6,Percent_Inflation_Adjusted_Income_and_Benefits_of_200000_or_more,48355,2011,percent
1.2,Percent_Inflation_Adjusted_Income_and_Benefits_of_200000_or_more,48361,2011,percent
5,Percent_Inflation_Adjusted_Income_and_Benefits_of_200000_or_more,48367,2011,percent
1.7,Percent_Inflation_Adjusted_Income_and_Benefits_of_200000_or_more,48375,2011,percent
3.5,Percent_Inflation_Adjusted_Income_and_Benefits_of_200000_or_more,48381,2011,percent
6,Percent_Inflation_Adjusted_Income_and_Benefits_of_200000_or_more,48397,2011,percent
4.1,Percent_Inflation_Adjusted_Income_and_Benefits_of_200000_or_more,48409,2011,percent
4.4,Percent_Inflation_Adjusted_Income_and_Benefits_of_200000_or_more,48423,2011,percent
4.4,Percent_Inflation_Adjusted_Income_and_Benefits_of_200000_or_more,48439,2011,percent
1.8,Percent_Inflation_Adjusted_Income_and_Benefits_of_200000_or_more,48441,2011,percent
2.8,Percent_Inflation_Adjusted_Income_and_Benefits_of_200000_or_more,48451,2011,percent
6.4,Percent_Inflation_Adjusted_Income_and_Benefits_of_200000_or_more,48453,2011,percent
1.8,Percent_Inflation_Adjusted_Income_and_Benefits_of_200000_or_more,48469,2011,percent
2.5,Percent_Inflation_Adjusted_Income_and_Benefits_of_200000_or_more,48471,2011,percent
0.8,Percent_Inflation_Adjusted_Income_and_Benefits_of_200000_or_more,48479,2011,percent
1.9,Percent_Inflation_Adjusted_Income_and_Benefits_of_200000_or_more,48485,2011,percent
4.7,Percent_Inflation_Adjusted_Income_and_Benefits_of_200000_or_more,48491,2011,percent
1.7,Percent_Inflation_Adjusted_Income_and_Benefits_of_200000_or_more,49005,2011,percent
4.7,Percent_Inflation_Adjusted_Income_and_Benefits_of_200000_or_more,49011,2011,percent
3.3,Percent_Inflation_Adjusted_Income_and_Benefits_of_200000_or_more,49035,2011,percent
3.3,Percent_Inflation_Adjusted_Income_and_Benefits_of_200000_or_more,49049,2011,percent
1.9,Percent_Inflation_Adjusted_Income_and_Benefits_of_200000_or_more,49053,2011,percent
3,Percent_Inflation_Adjusted_Income_and_Benefits_of_200000_or_more,49057,2011,percent
5.9,Percent_Inflation_Adjusted_Income_and_Benefits_of_200000_or_more,50007,2011,percent
9.2,Percent_Inflation_Adjusted_Income_and_Benefits_of_200000_or_more,51003,2011,percent
19.3,Percent_Inflation_Adjusted_Income_and_Benefits_of_200000_or_more,51013,2011,percent
1.3,Percent_Inflation_Adjusted_Income_and_Benefits_of_200000_or_more,51015,2011,percent
2.5,Percent_Inflation_Adjusted_Income_and_Benefits_of_200000_or_more,51019,2011,percent
4.8,Percent_Inflation_Adjusted_Income_and_Benefits_of_200000_or_more,51041,2011,percent
18.6,Percent_Inflation_Adjusted_Income_and_Benefits_of_200000_or_more,51059,2011,percent
8.7,Percent_Inflation_Adjusted_Income_and_Benefits_of_200000_or_more,51061,2011,percent
4.5,Percent_Inflation_Adjusted_Income_and_Benefits_of_200000_or_more,51069,2011,percent
5.7,Percent_Inflation_Adjusted_Income_and_Benefits_of_200000_or_more,51085,2011,percent
4.8,Percent_Inflation_Adjusted_Income_and_Benefits_of_200000_or_more,51087,2011,percent
7.2,Percent_Inflation_Adjusted_Income_and_Benefits_of_200000_or_more,51095,2011,percent
18.2,Percent_Inflation_Adjusted_Income_and_Benefits_of_200000_or_more,51107,2011,percent
4.9,Percent_Inflation_Adjusted_Income_and_Benefits_of_200000_or_more,51121,2011,percent
11.9,Percent_Inflation_Adjusted_Income_and_Benefits_of_200000_or_more,51153,2011,percent
4.1,Percent_Inflation_Adjusted_Income_and_Benefits_of_200000_or_more,51161,2011,percent
2.2,Percent_Inflation_Adjusted_Income_and_Benefits_of_200000_or_more,51165,2011,percent
4.4,Percent_Inflation_Adjusted_Income_and_Benefits_of_200000_or_more,51177,2011,percent
10.3,Percent_Inflation_Adjusted_Income_and_Benefits_of_200000_or_more,51179,2011,percent
6.3,Percent_Inflation_Adjusted_Income_and_Benefits_of_200000_or_more,51199,2011,percent
13.1,Percent_Inflation_Adjusted_Income_and_Benefits_of_200000_or_more,51510,2011,percent
3.2,Percent_Inflation_Adjusted_Income_and_Benefits_of_200000_or_more,51550,2011,percent
1.3,Percent_Inflation_Adjusted_Income_and_Benefits_of_200000_or_more,51650,2011,percent
1.9,Percent_Inflation_Adjusted_Income_and_Benefits_of_200000_or_more,51680,2011,percent
2.6,Percent_Inflation_Adjusted_Income_and_Benefits_of_200000_or_more,51700,2011,percent
1.6,Percent_Inflation_Adjusted_Income_and_Benefits_of_200000_or_more,51710,2011,percent
1.6,Percent_Inflation_Adjusted_Income_and_Benefits_of_200000_or_more,51740,2011,percent
3.8,Percent_Inflation_Adjusted_Income_and_Benefits_of_200000_or_more,51760,2011,percent
1.1,Percent_Inflation_Adjusted_Income_and_Benefits_of_200000_or_more,51770,2011,percent
4.6,Percent_Inflation_Adjusted_Income_and_Benefits_of_200000_or_more,51800,2011,percent
4.6,Percent_Inflation_Adjusted_Income_and_Benefits_of_200000_or_more,51810,2011,percent
3.2,Percent_Inflation_Adjusted_Income_and_Benefits_of_200000_or_more,53005,2011,percent
4.1,Percent_Inflation_Adjusted_Income_and_Benefits_of_200000_or_more,53007,2011,percent
3.2,Percent_Inflation_Adjusted_Income_and_Benefits_of_200000_or_more,53009,2011,percent
3.4,Percent_Inflation_Adjusted_Income_and_Benefits_of_200000_or_more,53011,2011,percent
2.2,Percent_Inflation_Adjusted_Income_and_Benefits_of_200000_or_more,53015,2011,percent
1.4,Percent_Inflation_Adjusted_Income_and_Benefits_of_200000_or_more,53021,2011,percent
2.6,Percent_Inflation_Adjusted_Income_and_Benefits_of_200000_or_more,53025,2011,percent
0.3,Percent_Inflation_Adjusted_Income_and_Benefits_of_200000_or_more,53027,2011,percent
2,Percent_Inflation_Adjusted_Income_and_Benefits_of_200000_or_more,53029,2011,percent
8.4,Percent_Inflation_Adjusted_Income_and_Benefits_of_200000_or_more,53033,2011,percent
3.7,Percent_Inflation_Adjusted_Income_and_Benefits_of_200000_or_more,53035,2011,percent
0.5,Percent_Inflation_Adjusted_Income_and_Benefits_of_200000_or_more,53041,2011,percent
3.2,Percent_Inflation_Adjusted_Income_and_Benefits_of_200000_or_more,53053,2011,percent
1.8,Percent_Inflation_Adjusted_Income_and_Benefits_of_200000_or_more,53057,2011,percent
3.6,Percent_Inflation_Adjusted_Income_and_Benefits_of_200000_or_more,53061,2011,percent
2.9,Percent_Inflation_Adjusted_Income_and_Benefits_of_200000_or_more,53063,2011,percent
2.2,Percent_Inflation_Adjusted_Income_and_Benefits_of_200000_or_more,53067,2011,percent
2.3,Percent_Inflation_Adjusted_Income_and_Benefits_of_200000_or_more,53073,2011,percent
1.2,Percent_Inflation_Adjusted_Income_and_Benefits_of_200000_or_more,53077,2011,percent
2,Percent_Inflation_Adjusted_Income_and_Benefits_of_200000_or_more,54003,2011,percent
3.1,Percent_Inflation_Adjusted_Income_and_Benefits_of_200000_or_more,54011,2011,percent
1.8,Percent_Inflation_Adjusted_Income_and_Benefits_of_200000_or_more,54033,2011,percent
2.7,Percent_Inflation_Adjusted_Income_and_Benefits_of_200000_or_more,54039,2011,percent
2.8,Percent_Inflation_Adjusted_Income_and_Benefits_of_200000_or_more,54061,2011,percent
1.7,Percent_Inflation_Adjusted_Income_and_Benefits_of_200000_or_more,54081,2011,percent
1.9,Percent_Inflation_Adjusted_Income_and_Benefits_of_200000_or_more,54107,2011,percent
2.2,Percent_Inflation_Adjusted_Income_and_Benefits_of_200000_or_more,55009,2011,percent
4,Percent_Inflation_Adjusted_Income_and_Benefits_of_200000_or_more,55025,2011,percent
2.2,Percent_Inflation_Adjusted_Income_and_Benefits_of_200000_or_more,55027,2011,percent
2.3,Percent_Inflation_Adjusted_Income_and_Benefits_of_200000_or_more,55035,2011,percent
2.2,Percent_Inflation_Adjusted_Income_and_Benefits_of_200000_or_more,55039,2011,percent
2,Percent_Inflation_Adjusted_Income_and_Benefits_of_200000_or_more,55055,2011,percent
3.3,Percent_Inflation_Adjusted_Income_and_Benefits_of_200000_or_more,55059,2011,percent
2.1,Percent_Inflation_Adjusted_Income_and_Benefits_of_200000_or_more,55063,2011,percent
1.2,Percent_Inflation_Adjusted_Income_and_Benefits_of_200000_or_more,55071,2011,percent
2.3,Percent_Inflation_Adjusted_Income_and_Benefits_of_200000_or_more,55073,2011,percent
1.9,Percent_Inflation_Adjusted_Income_and_Benefits_of_200000_or_more,55079,2011,percent
2.1,Percent_Inflation_Adjusted_Income_and_Benefits_of_200000_or_more,55087,2011,percent
11,Percent_Inflation_Adjusted_Income_and_Benefits_of_200000_or_more,55089,2011,percent
1.3,Percent_Inflation_Adjusted_Income_and_Benefits_of_200000_or_more,55097,2011,percent
3.1,Percent_Inflation_Adjusted_Income_and_Benefits_of_200000_or_more,55101,2011,percent
1,Percent_Inflation_Adjusted_Income_and_Benefits_of_200000_or_more,55105,2011,percent
4.2,Percent_Inflation_Adjusted_Income_and_Benefits_of_200000_or_more,55109,2011,percent
1.8,Percent_Inflation_Adjusted_Income_and_Benefits_of_200000_or_more,55117,2011,percent
2.4,Percent_Inflation_Adjusted_Income_and_Benefits_of_200000_or_more,55127,2011,percent
3.2,Percent_Inflation_Adjusted_Income_and_Benefits_of_200000_or_more,55131,2011,percent
6.2,Percent_Inflation_Adjusted_Income_and_Benefits_of_200000_or_more,55133,2011,percent
3.2,Percent_Inflation_Adjusted_Income_and_Benefits_of_200000_or_more,55139,2011,percent
1.9,Percent_Inflation_Adjusted_Income_and_Benefits_of_200000_or_more,55141,2011,percent
2.9,Percent_Inflation_Adjusted_Income_and_Benefits_of_200000_or_more,56021,2011,percent
3.6,Percent_Inflation_Adjusted_Income_and_Benefits_of_200000_or_more,56025,2011,percent
0.5,Percent_Inflation_Adjusted_Income_and_Benefits_of_200000_or_more,72013,2011,percent
0.3,Percent_Inflation_Adjusted_Income_and_Benefits_of_200000_or_more,72021,2011,percent
0.6,Percent_Inflation_Adjusted_Income_and_Benefits_of_200000_or_more,72025,2011,percent
0.5,Percent_Inflation_Adjusted_Income_and_Benefits_of_200000_or_more,72031,2011,percent
3,Percent_Inflation_Adjusted_Income_and_Benefits_of_200000_or_more,72061,2011,percent
0.3,Percent_Inflation_Adjusted_Income_and_Benefits_of_200000_or_more,72097,2011,percent
1,Percent_Inflation_Adjusted_Income_and_Benefits_of_200000_or_more,72113,2011,percent
1.6,Percent_Inflation_Adjusted_Income_and_Benefits_of_200000_or_more,72127,2011,percent
0.8,Percent_Inflation_Adjusted_Income_and_Benefits_of_200000_or_more,72135,2011,percent
0.1,Percent_Inflation_Adjusted_Income_and_Benefits_of_200000_or_more,72137,2011,percent
0.8,Percent_Inflation_Adjusted_Income_and_Benefits_of_200000_or_more,72139,2011,percent
