value,variable,FIPS,Date,units
4.8,population_change_2000to2008,01,2008,percent
9.5,population_change_2000to2008,02,2008,percent
26.7,population_change_2000to2008,04,2008,percent
6.8,population_change_2000to2008,05,2008,percent
8.5,population_change_2000to2008,06,2008,percent
14.8,population_change_2000to2008,08,2008,percent
2.8,population_change_2000to2008,09,2008,percent
11.4,population_change_2000to2008,10,2008,percent
3.5,population_change_2000to2008,11,2008,percent
14.7,population_change_2000to2008,12,2008,percent
18.3,population_change_2000to2008,13,2008,percent
6.3,population_change_2000to2008,15,2008,percent
17.8,population_change_2000to2008,16,2008,percent
3.9,population_change_2000to2008,17,2008,percent
4.9,population_change_2000to2008,18,2008,percent
2.6,population_change_2000to2008,19,2008,percent
4.2,population_change_2000to2008,20,2008,percent
5.6,population_change_2000to2008,21,2008,percent
-1.3,population_change_2000to2008,22,2008,percent
3.3,population_change_2000to2008,23,2008,percent
6.4,population_change_2000to2008,24,2008,percent
2.3,population_change_2000to2008,25,2008,percent
0.7,population_change_2000to2008,26,2008,percent
6.1,population_change_2000to2008,27,2008,percent
3.3,population_change_2000to2008,28,2008,percent
5.6,population_change_2000to2008,29,2008,percent
7.2,population_change_2000to2008,30,2008,percent
4.2,population_change_2000to2008,31,2008,percent
30.1,population_change_2000to2008,32,2008,percent
6.5,population_change_2000to2008,33,2008,percent
3.2,population_change_2000to2008,34,2008,percent
9.1,population_change_2000to2008,35,2008,percent
2.7,population_change_2000to2008,36,2008,percent
14.6,population_change_2000to2008,37,2008,percent
-0.1,population_change_2000to2008,38,2008,percent
1.2,population_change_2000to2008,39,2008,percent
5.6,population_change_2000to2008,40,2008,percent
10.8,population_change_2000to2008,41,2008,percent
1.4,population_change_2000to2008,42,2008,percent
0.2,population_change_2000to2008,44,2008,percent
11.7,population_change_2000to2008,45,2008,percent
6.5,population_change_2000to2008,46,2008,percent
9.2,population_change_2000to2008,47,2008,percent
16.7,population_change_2000to2008,48,2008,percent
22.5,population_change_2000to2008,49,2008,percent
2.0,population_change_2000to2008,50,2008,percent
9.7,population_change_2000to2008,51,2008,percent
11.1,population_change_2000to2008,53,2008,percent
0.3,population_change_2000to2008,54,2008,percent
4.9,population_change_2000to2008,55,2008,percent
7.9,population_change_2000to2008,56,2008,percent
